neuron_diffeq/build/sim/vcd/top_sim.vcd
$date 2024-06-06 15:58:53.832411 $end
$timescale 1 fs $end
$scope module top $end
$scope module trace_port_gen_i $end
$var real 64 ! i_in_probe $end
$var real 64 " v_out_probe $end
$var real 64 # v_out_exp_probe $end
$var real 64 $ v_out_lin_probe $end
$var real 64 % v_out_i_probe $end
$var real 64 & v_out_i_mult_probe $end
$var real 64 ' dv_out_probe $end
$var reg 1 ( digital_sel_probe $end
$var reg 1 ) emu_dec_cmp $end
$var reg 64 * emu_time $end
$upscope $end
$upscope $end
$enddefinitions $end
#0
$dumpvars
r5.859375050931703e-06 !
r-70.59999847412109 "
r0 #
r-70.59999847412109 $
r0.00299835205078125 %
r5.306175231933594 &
r0 '
1(
1)
b0 *
$end
#50000000
r-65.2938232421875 "
r5.305686950683594 &
b10111110101111000010000000 *
r-65.2938232421875 $
#100000000
r-59.98813629150391 "
r5.305335998535156 &
b101111101011110000100000000 *
r-59.98813629150391 $
#150000000
r-54.68280029296875 "
r5.305122375488281 &
b1000111100001101000110000000 *
r-54.68280029296875 $
#200000000
r-49.37767791748047 "
r-70.59999847412109 &
b1011111010111100001000000000 *
r-49.37767791748047 $
0(
#250000000
r-70.59999847412109 "
r5.306175231933594 &
b1110111001101011001010000000 *
r-70.59999847412109 $
1(
#300000000
r-65.2938232421875 "
r5.305686950683594 &
b10001111000011010001100000000 *
r-65.2938232421875 $
#350000000
r-59.98813629150391 "
r5.305335998535156 &
b10100110111001001001110000000 *
r-59.98813629150391 $
#400000000
r-54.68280029296875 "
r5.305122375488281 &
b10111110101111000010000000000 *
r-54.68280029296875 $
#450000000
r-49.37767791748047 "
r-70.59999847412109 &
b11010110100100111010010000000 *
r-49.37767791748047 $
0(
#500000000
r-70.59999847412109 "
r5.306175231933594 &
b11101110011010110010100000000 *
r-70.59999847412109 $
1(
#550000000
r-65.2938232421875 "
r5.305686950683594 &
b100000110010000101010110000000 *
r-65.2938232421875 $
#600000000
r-59.98813629150391 "
r5.305335998535156 &
b100011110000110100011000000000 *
r-59.98813629150391 $
#650000000
r-54.68280029296875 "
r5.305122375488281 &
b100110101111100011011010000000 *
r-54.68280029296875 $
#700000000
r-49.37767791748047 "
r-70.59999847412109 &
b101001101110010010011100000000 *
r-49.37767791748047 $
0(
#750000000
r-70.59999847412109 "
r5.306175231933594 &
b101100101101000001011110000000 *
r-70.59999847412109 $
1(
#800000000
r-65.2938232421875 "
r5.305686950683594 &
b101111101011110000100000000000 *
r-65.2938232421875 $
#850000000
r-59.98813629150391 "
r5.305335998535156 &
b110010101010011111100010000000 *
r-59.98813629150391 $
#900000000
r-54.68280029296875 "
r5.305122375488281 &
b110101101001001110100100000000 *
r-54.68280029296875 $
#950000000
r-49.37767791748047 "
r-70.59999847412109 &
b111000100111111101100110000000 *
r-49.37767791748047 $
0(
#1000000000
r-70.59999847412109 "
r5.306175231933594 &
b111011100110101100101000000000 *
r-70.59999847412109 $
1(
#1050000000
r-65.2938232421875 "
r5.305686950683594 &
b111110100101011011101010000000 *
r-65.2938232421875 $
#1100000000
r-59.98813629150391 "
r5.305335998535156 &
b1000001100100001010101100000000 *
r-59.98813629150391 $
#1150000000
r-54.68280029296875 "
r5.305122375488281 &
b1000100100010111001101110000000 *
r-54.68280029296875 $
#1200000000
r-49.37767791748047 "
r-70.59999847412109 &
b1000111100001101000110000000000 *
r-49.37767791748047 $
0(
#1250000000
r-70.59999847412109 "
r5.306175231933594 &
b1001010100000010111110010000000 *
r-70.59999847412109 $
1(
#1300000000
r-65.2938232421875 "
r5.305686950683594 &
b1001101011111000110110100000000 *
r-65.2938232421875 $
#1350000000
r-59.98813629150391 "
r5.305335998535156 &
b1010000011101110101110110000000 *
r-59.98813629150391 $
#1400000000
r-54.68280029296875 "
r5.305122375488281 &
b1010011011100100100111000000000 *
r-54.68280029296875 $
#1450000000
r-49.37767791748047 "
r-70.59999847412109 &
b1010110011011010011111010000000 *
r-49.37767791748047 $
0(
#1500000000
r-70.59999847412109 "
r5.306175231933594 &
b1011001011010000010111100000000 *
r-70.59999847412109 $
1(
#1550000000
r-65.2938232421875 "
r5.305686950683594 &
b1011100011000110001111110000000 *
r-65.2938232421875 $
#1600000000
r-59.98813629150391 "
r5.305335998535156 &
b1011111010111100001000000000000 *
r-59.98813629150391 $
#1650000000
r-54.68280029296875 "
r5.305122375488281 &
b1100010010110010000000010000000 *
r-54.68280029296875 $
#1700000000
r-49.37767791748047 "
r-70.59999847412109 &
b1100101010100111111000100000000 *
r-49.37767791748047 $
0(
#1750000000
r-70.59999847412109 "
r5.306175231933594 &
b1101000010011101110000110000000 *
r-70.59999847412109 $
1(
#1800000000
r-65.2938232421875 "
r5.305686950683594 &
b1101011010010011101001000000000 *
r-65.2938232421875 $
#1850000000
r-59.98813629150391 "
r5.305335998535156 &
b1101110010001001100001010000000 *
r-59.98813629150391 $
#1900000000
r-54.68280029296875 "
r5.305122375488281 &
b1110001001111111011001100000000 *
r-54.68280029296875 $
#1950000000
r-49.37767791748047 "
r-70.59999847412109 &
b1110100001110101010001110000000 *
r-49.37767791748047 $
0(
#2000000000
r-70.59999847412109 "
r5.306175231933594 &
b1110111001101011001010000000000 *
r-70.59999847412109 $
1(
#2050000000
r-65.2938232421875 "
r5.305686950683594 &
b1111010001100001000010010000000 *
r-65.2938232421875 $
#2100000000
r-59.98813629150391 "
r5.305335998535156 &
b1111101001010110111010100000000 *
r-59.98813629150391 $
#2150000000
r-54.68280029296875 "
r5.305122375488281 &
b10000000001001100110010110000000 *
r-54.68280029296875 $
#2200000000
r-49.37767791748047 "
r-70.59999847412109 &
b10000011001000010101011000000000 *
r-49.37767791748047 $
0(
#2250000000
r-70.59999847412109 "
r5.306175231933594 &
b10000110000111000100011010000000 *
r-70.59999847412109 $
1(
#2300000000
r-65.2938232421875 "
r5.305686950683594 &
b10001001000101110011011100000000 *
r-65.2938232421875 $
#2350000000
r-59.98813629150391 "
r5.305335998535156 &
b10001100000100100010011110000000 *
r-59.98813629150391 $
#2400000000
r-54.68280029296875 "
r5.305122375488281 &
b10001111000011010001100000000000 *
r-54.68280029296875 $
#2450000000
r-49.37767791748047 "
r-70.59999847412109 &
b10010010000010000000100010000000 *
r-49.37767791748047 $
0(
#2500000000
r-70.59999847412109 "
r5.306175231933594 &
b10010101000000101111100100000000 *
r-70.59999847412109 $
1(
#2550000000
r-65.2938232421875 "
r5.305686950683594 &
b10010111111111011110100110000000 *
r-65.2938232421875 $
#2600000000
r-59.98813629150391 "
r5.305335998535156 &
b10011010111110001101101000000000 *
r-59.98813629150391 $
#2650000000
r-54.68280029296875 "
r5.305122375488281 &
b10011101111100111100101010000000 *
r-54.68280029296875 $
#2700000000
r-49.37767791748047 "
r-70.59999847412109 &
b10100000111011101011101100000000 *
r-49.37767791748047 $
0(
#2750000000
r-70.59999847412109 "
r5.306175231933594 &
b10100011111010011010101110000000 *
r-70.59999847412109 $
1(
#2800000000
r-65.2938232421875 "
r5.305686950683594 &
b10100110111001001001110000000000 *
r-65.2938232421875 $
#2850000000
r-59.98813629150391 "
r5.305335998535156 &
b10101001110111111000110010000000 *
r-59.98813629150391 $
#2900000000
r-54.68280029296875 "
r5.305122375488281 &
b10101100110110100111110100000000 *
r-54.68280029296875 $
#2950000000
r-49.37767791748047 "
r-70.59999847412109 &
b10101111110101010110110110000000 *
r-49.37767791748047 $
0(
#3000000000
r-70.59999847412109 "
r5.306175231933594 &
b10110010110100000101111000000000 *
r-70.59999847412109 $
1(
#3050000000
r-65.2938232421875 "
r5.305686950683594 &
b10110101110010110100111010000000 *
r-65.2938232421875 $
#3100000000
r-59.98813629150391 "
r5.305335998535156 &
b10111000110001100011111100000000 *
r-59.98813629150391 $
#3150000000
r-54.68280029296875 "
r5.305122375488281 &
b10111011110000010010111110000000 *
r-54.68280029296875 $
#3200000000
r-49.37767791748047 "
r-70.59999847412109 &
b10111110101111000010000000000000 *
r-49.37767791748047 $
0(
#3250000000
r-70.59999847412109 "
r5.306175231933594 &
b11000001101101110001000010000000 *
r-70.59999847412109 $
1(
#3300000000
r-65.2938232421875 "
r5.305686950683594 &
b11000100101100100000000100000000 *
r-65.2938232421875 $
#3350000000
r-59.98813629150391 "
r5.305335998535156 &
b11000111101011001111000110000000 *
r-59.98813629150391 $
#3400000000
r-54.68280029296875 "
r5.305122375488281 &
b11001010101001111110001000000000 *
r-54.68280029296875 $
#3450000000
r-49.37767791748047 "
r-70.59999847412109 &
b11001101101000101101001010000000 *
r-49.37767791748047 $
0(
#3500000000
r-70.59999847412109 "
r5.306175231933594 &
b11010000100111011100001100000000 *
r-70.59999847412109 $
1(
#3550000000
r-65.2938232421875 "
r5.305686950683594 &
b11010011100110001011001110000000 *
r-65.2938232421875 $
#3600000000
r-59.98813629150391 "
r5.305335998535156 &
b11010110100100111010010000000000 *
r-59.98813629150391 $
#3650000000
r-54.68280029296875 "
r5.305122375488281 &
b11011001100011101001010010000000 *
r-54.68280029296875 $
#3700000000
r-49.37767791748047 "
r-70.59999847412109 &
b11011100100010011000010100000000 *
r-49.37767791748047 $
0(
#3750000000
r-70.59999847412109 "
r5.306175231933594 &
b11011111100001000111010110000000 *
r-70.59999847412109 $
1(
#3800000000
r-65.2938232421875 "
r5.305686950683594 &
b11100010011111110110011000000000 *
r-65.2938232421875 $
#3850000000
r-59.98813629150391 "
r5.305335998535156 &
b11100101011110100101011010000000 *
r-59.98813629150391 $
#3900000000
r-54.68280029296875 "
r5.305122375488281 &
b11101000011101010100011100000000 *
r-54.68280029296875 $
#3950000000
r-49.37767791748047 "
r-70.59999847412109 &
b11101011011100000011011110000000 *
r-49.37767791748047 $
0(
#4000000000
r-70.59999847412109 "
r5.306175231933594 &
b11101110011010110010100000000000 *
r-70.59999847412109 $
1(
#4050000000
r-65.2938232421875 "
r5.305686950683594 &
b11110001011001100001100010000000 *
r-65.2938232421875 $
#4100000000
r-59.98813629150391 "
r5.305335998535156 &
b11110100011000010000100100000000 *
r-59.98813629150391 $
#4150000000
r-54.68280029296875 "
r5.305122375488281 &
b11110111010110111111100110000000 *
r-54.68280029296875 $
#4200000000
r-49.37767791748047 "
r-70.59999847412109 &
b11111010010101101110101000000000 *
r-49.37767791748047 $
0(
#4250000000
r-70.59999847412109 "
r5.306175231933594 &
b11111101010100011101101010000000 *
r-70.59999847412109 $
1(
#4300000000
r-65.2938232421875 "
r5.305686950683594 &
b100000000010011001100101100000000 *
r-65.2938232421875 $
#4350000000
r-59.98813629150391 "
r5.305335998535156 &
b100000011010001111011101110000000 *
r-59.98813629150391 $
#4400000000
r-54.68280029296875 "
r5.305122375488281 &
b100000110010000101010110000000000 *
r-54.68280029296875 $
#4450000000
r-49.37767791748047 "
r-70.59999847412109 &
b100001001001111011001110010000000 *
r-49.37767791748047 $
0(
#4500000000
r-70.59999847412109 "
r5.306175231933594 &
b100001100001110001000110100000000 *
r-70.59999847412109 $
1(
#4550000000
r-65.2938232421875 "
r5.305686950683594 &
b100001111001100110111110110000000 *
r-65.2938232421875 $
#4600000000
r-59.98813629150391 "
r5.305335998535156 &
b100010010001011100110111000000000 *
r-59.98813629150391 $
#4650000000
r-54.68280029296875 "
r5.305122375488281 &
b100010101001010010101111010000000 *
r-54.68280029296875 $
#4700000000
r-49.37767791748047 "
r-70.59999847412109 &
b100011000001001000100111100000000 *
r-49.37767791748047 $
0(
#4750000000
r-70.59999847412109 "
r5.306175231933594 &
b100011011000111110011111110000000 *
r-70.59999847412109 $
1(
#4800000000
r-65.2938232421875 "
r5.305686950683594 &
b100011110000110100011000000000000 *
r-65.2938232421875 $
#4850000000
r-59.98813629150391 "
r5.305335998535156 &
b100100001000101010010000010000000 *
r-59.98813629150391 $
#4900000000
r-54.68280029296875 "
r5.305122375488281 &
b100100100000100000001000100000000 *
r-54.68280029296875 $
#4950000000
r-49.37767791748047 "
r-70.59999847412109 &
b100100111000010110000000110000000 *
r-49.37767791748047 $
0(
#5000000000
r-70.59999847412109 "
r5.306175231933594 &
b100101010000001011111001000000000 *
r-70.59999847412109 $
1(
#5050000000
r-65.2938232421875 "
r5.305686950683594 &
b100101101000000001110001010000000 *
r-65.2938232421875 $
#5100000000
r-59.98813629150391 "
r5.305335998535156 &
b100101111111110111101001100000000 *
r-59.98813629150391 $
#5150000000
r-54.68280029296875 "
r5.305122375488281 &
b100110010111101101100001110000000 *
r-54.68280029296875 $
#5200000000
r-49.37767791748047 "
r-70.59999847412109 &
b100110101111100011011010000000000 *
r-49.37767791748047 $
0(
#5250000000
r-70.59999847412109 "
r5.306175231933594 &
b100111000111011001010010010000000 *
r-70.59999847412109 $
1(
#5300000000
r-65.2938232421875 "
r5.305686950683594 &
b100111011111001111001010100000000 *
r-65.2938232421875 $
#5350000000
r-59.98813629150391 "
r5.305335998535156 &
b100111110111000101000010110000000 *
r-59.98813629150391 $
#5400000000
r-54.68280029296875 "
r5.305122375488281 &
b101000001110111010111011000000000 *
r-54.68280029296875 $
#5450000000
r-49.37767791748047 "
r-70.59999847412109 &
b101000100110110000110011010000000 *
r-49.37767791748047 $
0(
#5500000000
r-70.59999847412109 "
r5.306175231933594 &
b101000111110100110101011100000000 *
r-70.59999847412109 $
1(
#5550000000
r-65.2938232421875 "
r5.305686950683594 &
b101001010110011100100011110000000 *
r-65.2938232421875 $
#5600000000
r-59.98813629150391 "
r5.305335998535156 &
b101001101110010010011100000000000 *
r-59.98813629150391 $
#5650000000
r-54.68280029296875 "
r5.305122375488281 &
b101010000110001000010100010000000 *
r-54.68280029296875 $
#5700000000
r-49.37767791748047 "
r-70.59999847412109 &
b101010011101111110001100100000000 *
r-49.37767791748047 $
0(
#5750000000
r-70.59999847412109 "
r5.306175231933594 &
b101010110101110100000100110000000 *
r-70.59999847412109 $
1(
#5800000000
r-65.2938232421875 "
r5.305686950683594 &
b101011001101101001111101000000000 *
r-65.2938232421875 $
#5850000000
r-59.98813629150391 "
r5.305335998535156 &
b101011100101011111110101010000000 *
r-59.98813629150391 $
#5900000000
r-54.68280029296875 "
r5.305122375488281 &
b101011111101010101101101100000000 *
r-54.68280029296875 $
#5950000000
r-49.37767791748047 "
r-70.59999847412109 &
b101100010101001011100101110000000 *
r-49.37767791748047 $
0(
#6000000000
r-70.59999847412109 "
r5.306175231933594 &
b101100101101000001011110000000000 *
r-70.59999847412109 $
1(
#6050000000
r-65.2938232421875 "
r5.305686950683594 &
b101101000100110111010110010000000 *
r-65.2938232421875 $
#6100000000
r-59.98813629150391 "
r5.305335998535156 &
b101101011100101101001110100000000 *
r-59.98813629150391 $
#6150000000
r-54.68280029296875 "
r5.305122375488281 &
b101101110100100011000110110000000 *
r-54.68280029296875 $
#6200000000
r-49.37767791748047 "
r-70.59999847412109 &
b101110001100011000111111000000000 *
r-49.37767791748047 $
0(
#6250000000
r-70.59999847412109 "
r5.306175231933594 &
b101110100100001110110111010000000 *
r-70.59999847412109 $
1(
#6300000000
r-65.2938232421875 "
r5.305686950683594 &
b101110111100000100101111100000000 *
r-65.2938232421875 $
#6350000000
r-59.98813629150391 "
r5.305335998535156 &
b101111010011111010100111110000000 *
r-59.98813629150391 $
#6400000000
r-54.68280029296875 "
r5.305122375488281 &
b101111101011110000100000000000000 *
r-54.68280029296875 $
#6450000000
r-49.37767791748047 "
r-70.59999847412109 &
b110000000011100110011000010000000 *
r-49.37767791748047 $
0(
#6500000000
r-70.59999847412109 "
r5.306175231933594 &
b110000011011011100010000100000000 *
r-70.59999847412109 $
1(
#6550000000
r-65.2938232421875 "
r5.305686950683594 &
b110000110011010010001000110000000 *
r-65.2938232421875 $
#6600000000
r-59.98813629150391 "
r5.305335998535156 &
b110001001011001000000001000000000 *
r-59.98813629150391 $
#6650000000
r-54.68280029296875 "
r5.305122375488281 &
b110001100010111101111001010000000 *
r-54.68280029296875 $
#6700000000
r-49.37767791748047 "
r-70.59999847412109 &
b110001111010110011110001100000000 *
r-49.37767791748047 $
0(
#6750000000
r-70.59999847412109 "
r5.306175231933594 &
b110010010010101001101001110000000 *
r-70.59999847412109 $
1(
#6800000000
r-65.2938232421875 "
r5.305686950683594 &
b110010101010011111100010000000000 *
r-65.2938232421875 $
#6850000000
r-59.98813629150391 "
r5.305335998535156 &
b110011000010010101011010010000000 *
r-59.98813629150391 $
#6900000000
r-54.68280029296875 "
r5.305122375488281 &
b110011011010001011010010100000000 *
r-54.68280029296875 $
#6950000000
r-49.37767791748047 "
r-70.59999847412109 &
b110011110010000001001010110000000 *
r-49.37767791748047 $
0(
#7000000000
r-70.59999847412109 "
r5.306175231933594 &
b110100001001110111000011000000000 *
r-70.59999847412109 $
1(
#7050000000
r-65.2938232421875 "
r5.305686950683594 &
b110100100001101100111011010000000 *
r-65.2938232421875 $
#7100000000
r-59.98813629150391 "
r5.305335998535156 &
b110100111001100010110011100000000 *
r-59.98813629150391 $
#7150000000
r-54.68280029296875 "
r5.305122375488281 &
b110101010001011000101011110000000 *
r-54.68280029296875 $
#7200000000
r-49.37767791748047 "
r-70.59999847412109 &
b110101101001001110100100000000000 *
r-49.37767791748047 $
0(
#7250000000
r-70.59999847412109 "
r5.306175231933594 &
b110110000001000100011100010000000 *
r-70.59999847412109 $
1(
#7300000000
r-65.2938232421875 "
r5.305686950683594 &
b110110011000111010010100100000000 *
r-65.2938232421875 $
#7350000000
r-59.98813629150391 "
r5.305335998535156 &
b110110110000110000001100110000000 *
r-59.98813629150391 $
#7400000000
r-54.68280029296875 "
r5.305122375488281 &
b110111001000100110000101000000000 *
r-54.68280029296875 $
#7450000000
r-49.37767791748047 "
r-70.59999847412109 &
b110111100000011011111101010000000 *
r-49.37767791748047 $
0(
#7500000000
r-70.59999847412109 "
r5.306175231933594 &
b110111111000010001110101100000000 *
r-70.59999847412109 $
1(
#7550000000
r-65.2938232421875 "
r5.305686950683594 &
b111000010000000111101101110000000 *
r-65.2938232421875 $
#7600000000
r-59.98813629150391 "
r5.305335998535156 &
b111000100111111101100110000000000 *
r-59.98813629150391 $
#7650000000
r-54.68280029296875 "
r5.305122375488281 &
b111000111111110011011110010000000 *
r-54.68280029296875 $
#7700000000
r-49.37767791748047 "
r-70.59999847412109 &
b111001010111101001010110100000000 *
r-49.37767791748047 $
0(
#7750000000
r-70.59999847412109 "
r5.306175231933594 &
b111001101111011111001110110000000 *
r-70.59999847412109 $
1(
#7800000000
r-65.2938232421875 "
r5.305686950683594 &
b111010000111010101000111000000000 *
r-65.2938232421875 $
#7850000000
r-59.98813629150391 "
r5.305335998535156 &
b111010011111001010111111010000000 *
r-59.98813629150391 $
#7900000000
r-54.68280029296875 "
r5.305122375488281 &
b111010110111000000110111100000000 *
r-54.68280029296875 $
#7950000000
r-49.37767791748047 "
r-70.59999847412109 &
b111011001110110110101111110000000 *
r-49.37767791748047 $
0(
#8000000000
r-70.59999847412109 "
r5.306175231933594 &
b111011100110101100101000000000000 *
r-70.59999847412109 $
1(
#8050000000
r-65.2938232421875 "
r5.305686950683594 &
b111011111110100010100000010000000 *
r-65.2938232421875 $
#8100000000
r-59.98813629150391 "
r5.305335998535156 &
b111100010110011000011000100000000 *
r-59.98813629150391 $
#8150000000
r-54.68280029296875 "
r5.305122375488281 &
b111100101110001110010000110000000 *
r-54.68280029296875 $
#8200000000
r-49.37767791748047 "
r-70.59999847412109 &
b111101000110000100001001000000000 *
r-49.37767791748047 $
0(
#8250000000
r-70.59999847412109 "
r5.306175231933594 &
b111101011101111010000001010000000 *
r-70.59999847412109 $
1(
#8300000000
r-65.2938232421875 "
r5.305686950683594 &
b111101110101101111111001100000000 *
r-65.2938232421875 $
#8350000000
r-59.98813629150391 "
r5.305335998535156 &
b111110001101100101110001110000000 *
r-59.98813629150391 $
#8400000000
r-54.68280029296875 "
r5.305122375488281 &
b111110100101011011101010000000000 *
r-54.68280029296875 $
#8450000000
r-49.37767791748047 "
r-70.59999847412109 &
b111110111101010001100010010000000 *
r-49.37767791748047 $
0(
#8500000000
r-70.59999847412109 "
r5.306175231933594 &
b111111010101000111011010100000000 *
r-70.59999847412109 $
1(
#8550000000
r-65.2938232421875 "
r5.305686950683594 &
b111111101100111101010010110000000 *
r-65.2938232421875 $
#8600000000
r-59.98813629150391 "
r5.305335998535156 &
b1000000000100110011001011000000000 *
r-59.98813629150391 $
#8650000000
r-54.68280029296875 "
r5.305122375488281 &
b1000000011100101001000011010000000 *
r-54.68280029296875 $
#8700000000
r-49.37767791748047 "
r-70.59999847412109 &
b1000000110100011110111011100000000 *
r-49.37767791748047 $
0(
#8750000000
r-70.59999847412109 "
r5.306175231933594 &
b1000001001100010100110011110000000 *
r-70.59999847412109 $
1(
#8800000000
r-65.2938232421875 "
r5.305686950683594 &
b1000001100100001010101100000000000 *
r-65.2938232421875 $
#8850000000
r-59.98813629150391 "
r5.305335998535156 &
b1000001111100000000100100010000000 *
r-59.98813629150391 $
#8900000000
r-54.68280029296875 "
r5.305122375488281 &
b1000010010011110110011100100000000 *
r-54.68280029296875 $
#8950000000
r-49.37767791748047 "
r-70.59999847412109 &
b1000010101011101100010100110000000 *
r-49.37767791748047 $
0(
#9000000000
r-70.59999847412109 "
r5.306175231933594 &
b1000011000011100010001101000000000 *
r-70.59999847412109 $
1(
#9050000000
r-65.2938232421875 "
r5.305686950683594 &
b1000011011011011000000101010000000 *
r-65.2938232421875 $
#9100000000
r-59.98813629150391 "
r5.305335998535156 &
b1000011110011001101111101100000000 *
r-59.98813629150391 $
#9150000000
r-54.68280029296875 "
r5.305122375488281 &
b1000100001011000011110101110000000 *
r-54.68280029296875 $
#9200000000
r-49.37767791748047 "
r-70.59999847412109 &
b1000100100010111001101110000000000 *
r-49.37767791748047 $
0(
#9250000000
r-70.59999847412109 "
r5.306175231933594 &
b1000100111010101111100110010000000 *
r-70.59999847412109 $
1(
#9300000000
r-65.2938232421875 "
r5.305686950683594 &
b1000101010010100101011110100000000 *
r-65.2938232421875 $
#9350000000
r-59.98813629150391 "
r5.305335998535156 &
b1000101101010011011010110110000000 *
r-59.98813629150391 $
#9400000000
r-54.68280029296875 "
r5.305122375488281 &
b1000110000010010001001111000000000 *
r-54.68280029296875 $
#9450000000
r-49.37767791748047 "
r-70.59999847412109 &
b1000110011010000111000111010000000 *
r-49.37767791748047 $
0(
#9500000000
r-70.59999847412109 "
r5.306175231933594 &
b1000110110001111100111111100000000 *
r-70.59999847412109 $
1(
#9550000000
r-65.2938232421875 "
r5.305686950683594 &
b1000111001001110010110111110000000 *
r-65.2938232421875 $
#9600000000
r-59.98813629150391 "
r5.305335998535156 &
b1000111100001101000110000000000000 *
r-59.98813629150391 $
#9650000000
r-54.68280029296875 "
r5.305122375488281 &
b1000111111001011110101000010000000 *
r-54.68280029296875 $
#9700000000
r-49.37767791748047 "
r-70.59999847412109 &
b1001000010001010100100000100000000 *
r-49.37767791748047 $
0(
#9750000000
r-70.59999847412109 "
r5.306175231933594 &
b1001000101001001010011000110000000 *
r-70.59999847412109 $
1(
#9800000000
r-65.2938232421875 "
r5.305686950683594 &
b1001001000001000000010001000000000 *
r-65.2938232421875 $
#9850000000
r-59.98813629150391 "
r5.305335998535156 &
b1001001011000110110001001010000000 *
r-59.98813629150391 $
#9900000000
r-54.68280029296875 "
r5.305122375488281 &
b1001001110000101100000001100000000 *
r-54.68280029296875 $
#9950000000
r-49.37767791748047 "
r-70.59999847412109 &
b1001010001000100001111001110000000 *
r-49.37767791748047 $
0(
#10000000000
r-70.59999847412109 "
r5.306175231933594 &
b1001010100000010111110010000000000 *
r-70.59999847412109 $
1(
#10050000000
r-65.2938232421875 "
r5.305686950683594 &
b1001010111000001101101010010000000 *
r-65.2938232421875 $
#10100000000
r-59.98813629150391 "
r5.305335998535156 &
b1001011010000000011100010100000000 *
r-59.98813629150391 $
#10150000000
r-54.68280029296875 "
r5.305122375488281 &
b1001011100111111001011010110000000 *
r-54.68280029296875 $
#10200000000
r-49.37767791748047 "
r-70.59999847412109 &
b1001011111111101111010011000000000 *
r-49.37767791748047 $
0(
#10250000000
r-70.59999847412109 "
r5.306175231933594 &
b1001100010111100101001011010000000 *
r-70.59999847412109 $
1(
#10300000000
r-65.2938232421875 "
r5.305686950683594 &
b1001100101111011011000011100000000 *
r-65.2938232421875 $
#10350000000
r-59.98813629150391 "
r5.305335998535156 &
b1001101000111010000111011110000000 *
r-59.98813629150391 $
#10400000000
r-54.68280029296875 "
r5.305122375488281 &
b1001101011111000110110100000000000 *
r-54.68280029296875 $
#10450000000
r-49.37767791748047 "
r-70.59999847412109 &
b1001101110110111100101100010000000 *
r-49.37767791748047 $
0(
#10500000000
r-70.59999847412109 "
r5.306175231933594 &
b1001110001110110010100100100000000 *
r-70.59999847412109 $
1(
#10550000000
r-65.2938232421875 "
r5.305686950683594 &
b1001110100110101000011100110000000 *
r-65.2938232421875 $
#10600000000
r-59.98813629150391 "
r5.305335998535156 &
b1001110111110011110010101000000000 *
r-59.98813629150391 $
#10650000000
r-54.68280029296875 "
r5.305122375488281 &
b1001111010110010100001101010000000 *
r-54.68280029296875 $
#10700000000
r-49.37767791748047 "
r-70.59999847412109 &
b1001111101110001010000101100000000 *
r-49.37767791748047 $
0(
#10750000000
r-70.59999847412109 "
r5.306175231933594 &
b1010000000101111111111101110000000 *
r-70.59999847412109 $
1(
#10800000000
r-65.2938232421875 "
r5.305686950683594 &
b1010000011101110101110110000000000 *
r-65.2938232421875 $
#10850000000
r-59.98813629150391 "
r5.305335998535156 &
b1010000110101101011101110010000000 *
r-59.98813629150391 $
#10900000000
r-54.68280029296875 "
r5.305122375488281 &
b1010001001101100001100110100000000 *
r-54.68280029296875 $
#10950000000
r-49.37767791748047 "
r-70.59999847412109 &
b1010001100101010111011110110000000 *
r-49.37767791748047 $
0(
#11000000000
r-70.59999847412109 "
r5.306175231933594 &
b1010001111101001101010111000000000 *
r-70.59999847412109 $
1(
#11050000000
r-65.2938232421875 "
r5.305686950683594 &
b1010010010101000011001111010000000 *
r-65.2938232421875 $
#11100000000
r-59.98813629150391 "
r5.305335998535156 &
b1010010101100111001000111100000000 *
r-59.98813629150391 $
#11150000000
r-54.68280029296875 "
r5.305122375488281 &
b1010011000100101110111111110000000 *
r-54.68280029296875 $
#11200000000
r-49.37767791748047 "
r-70.59999847412109 &
b1010011011100100100111000000000000 *
r-49.37767791748047 $
0(
#11250000000
r-70.59999847412109 "
r5.306175231933594 &
b1010011110100011010110000010000000 *
r-70.59999847412109 $
1(
#11300000000
r-65.2938232421875 "
r5.305686950683594 &
b1010100001100010000101000100000000 *
r-65.2938232421875 $
#11350000000
r-59.98813629150391 "
r5.305335998535156 &
b1010100100100000110100000110000000 *
r-59.98813629150391 $
#11400000000
r-54.68280029296875 "
r5.305122375488281 &
b1010100111011111100011001000000000 *
r-54.68280029296875 $
#11450000000
r-49.37767791748047 "
r-70.59999847412109 &
b1010101010011110010010001010000000 *
r-49.37767791748047 $
0(
#11500000000
r-70.59999847412109 "
r5.306175231933594 &
b1010101101011101000001001100000000 *
r-70.59999847412109 $
1(
#11550000000
r-65.2938232421875 "
r5.305686950683594 &
b1010110000011011110000001110000000 *
r-65.2938232421875 $
#11600000000
r-59.98813629150391 "
r5.305335998535156 &
b1010110011011010011111010000000000 *
r-59.98813629150391 $
#11650000000
r-54.68280029296875 "
r5.305122375488281 &
b1010110110011001001110010010000000 *
r-54.68280029296875 $
#11700000000
r-49.37767791748047 "
r-70.59999847412109 &
b1010111001010111111101010100000000 *
r-49.37767791748047 $
0(
#11750000000
r-70.59999847412109 "
r5.306175231933594 &
b1010111100010110101100010110000000 *
r-70.59999847412109 $
1(
#11800000000
r-65.2938232421875 "
r5.305686950683594 &
b1010111111010101011011011000000000 *
r-65.2938232421875 $
#11850000000
r-59.98813629150391 "
r5.305335998535156 &
b1011000010010100001010011010000000 *
r-59.98813629150391 $
#11900000000
r-54.68280029296875 "
r5.305122375488281 &
b1011000101010010111001011100000000 *
r-54.68280029296875 $
#11950000000
r-49.37767791748047 "
r-70.59999847412109 &
b1011001000010001101000011110000000 *
r-49.37767791748047 $
0(
#12000000000
r-70.59999847412109 "
r5.306175231933594 &
b1011001011010000010111100000000000 *
r-70.59999847412109 $
1(
#12050000000
r-65.2938232421875 "
r5.305686950683594 &
b1011001110001111000110100010000000 *
r-65.2938232421875 $
#12100000000
r-59.98813629150391 "
r5.305335998535156 &
b1011010001001101110101100100000000 *
r-59.98813629150391 $
#12150000000
r-54.68280029296875 "
r5.305122375488281 &
b1011010100001100100100100110000000 *
r-54.68280029296875 $
#12200000000
r-49.37767791748047 "
r-70.59999847412109 &
b1011010111001011010011101000000000 *
r-49.37767791748047 $
0(
#12250000000
r-70.59999847412109 "
r5.306175231933594 &
b1011011010001010000010101010000000 *
r-70.59999847412109 $
1(
#12300000000
r-65.2938232421875 "
r5.305686950683594 &
b1011011101001000110001101100000000 *
r-65.2938232421875 $
#12350000000
r-59.98813629150391 "
r5.305335998535156 &
b1011100000000111100000101110000000 *
r-59.98813629150391 $
#12400000000
r-54.68280029296875 "
r5.305122375488281 &
b1011100011000110001111110000000000 *
r-54.68280029296875 $
#12450000000
r-49.37767791748047 "
r-70.59999847412109 &
b1011100110000100111110110010000000 *
r-49.37767791748047 $
0(
#12500000000
r-70.59999847412109 "
r5.306175231933594 &
b1011101001000011101101110100000000 *
r-70.59999847412109 $
1(
#12550000000
r-65.2938232421875 "
r5.305686950683594 &
b1011101100000010011100110110000000 *
r-65.2938232421875 $
#12600000000
r-59.98813629150391 "
r5.305335998535156 &
b1011101111000001001011111000000000 *
r-59.98813629150391 $
#12650000000
r-54.68280029296875 "
r5.305122375488281 &
b1011110001111111111010111010000000 *
r-54.68280029296875 $
