neuron_what/build/sim/vcd/top_sim.vcd
$date 2024-06-08 17:33:39.957921 $end
$timescale 1 fs $end
$scope module top $end
$scope module trace_port_gen_i $end
$var real 64 ! i_in_probe $end
$var real 64 " v_out_probe $end
$var real 64 # v_out_exp_probe $end
$var real 64 $ v_out_lin_probe $end
$var real 64 % v_out_i_probe $end
$var real 64 & v_out_i_mult_probe $end
$var real 64 ' dv_out_probe $end
$var reg 1 ( digital_sel_probe $end
$var reg 1 ) emu_dec_cmp $end
$var reg 64 * emu_time $end
$upscope $end
$upscope $end
$enddefinitions $end
#0
$dumpvars
r1 !
r5 "
r0 #
r0 $
r0 %
r5 &
r0 '
0(
1)
b0 *
$end
#3567587328
b11010100101001010001000000000000 *
#7135174656
b110101001010010100010000000000000 *
#10702761984
b1001111101111011110011000000000000 *
#14270349312
b1101010010100101000100000000000000 *
#17837936640
b10000100111001110010101000000000000 *
#21405523968
b10011111011110111100110000000000000 *
#24973111296
b10111010000100000110111000000000000 *
#28540698624
b11010100101001010001000000000000000 *
#32108285952
b11101111001110011011001000000000000 *
#35675873280
b100001001110011100101010000000000000 *
#39243460608
b100100100011000101111011000000000000 *
#42811047936
b100111110111101111001100000000000000 *
#46378635264
b101011001100011000011101000000000000 *
#49946222592
b101110100001000001101110000000000000 *
#53513809920
b110001110101101010111111000000000000 *
#57081397248
b110101001010010100010000000000000000 *
#60648984576
b111000011110111101100001000000000000 *
#64216571904
b111011110011100110110010000000000000 *
#67784159232
b111111001000010000000011000000000000 *
#71351746560
b1000010011100111001010100000000000000 *
#74919333888
b1000101110001100010100101000000000000 *
#78486921216
b1001001000110001011110110000000000000 *
#82054508544
b1001100011010110101000111000000000000 *
#85622095872
b1001111101111011110011000000000000000 *
#89189683200
b1010011000100000111101001000000000000 *
#92757270528
b1010110011000110000111010000000000000 *
#96324857856
b1011001101101011010001011000000000000 *
#99892445184
b1011101000010000011011100000000000000 *
#103460032512
b1100000010110101100101101000000000000 *
#107027619840
b1100011101011010101111110000000000000 *
#110595207168
b1100110111111111111001111000000000000 *
#114162794496
b1101010010100101000100000000000000000 *
#117730381824
b1101101101001010001110001000000000000 *
#121297969152
b1110000111101111011000010000000000000 *
#124865556480
b1110100010010100100010011000000000000 *
#128433143808
b1110111100111001101100100000000000000 *
#132000731136
b1111010111011110110110101000000000000 *
#135568318464
b1111110010000100000000110000000000000 *
#139135905792
b10000001100101001001010111000000000000 *
#142703493120
b10000100111001110010101000000000000000 *
#146271080448
b10001000001110011011111001000000000000 *
#149838667776
b10001011100011000101001010000000000000 *
#153406255104
b10001110110111101110011011000000000000 *
#156973842432
b10010010001100010111101100000000000000 *
#160541429760
b10010101100001000000111101000000000000 *
#164109017088
b10011000110101101010001110000000000000 *
#167676604416
b10011100001010010011011111000000000000 *
#171244191744
b10011111011110111100110000000000000000 *
#174811779072
b10100010110011100110000001000000000000 *
#178379366400
b10100110001000001111010010000000000000 *
#181946953728
b10101001011100111000100011000000000000 *
#185514541056
b10101100110001100001110100000000000000 *
#189082128384
b10110000000110001011000101000000000000 *
#192649715712
b10110011011010110100010110000000000000 *
#196217303040
b10110110101111011101100111000000000000 *
#199784890368
b10111010000100000110111000000000000000 *
#203352477696
b10111101011000110000001001000000000000 *
#206920065024
b11000000101101011001011010000000000000 *
#210487652352
b11000100000010000010101011000000000000 *
#214055239680
b11000111010110101011111100000000000000 *
#217622827008
b11001010101011010101001101000000000000 *
#221190414336
b11001101111111111110011110000000000000 *
#224758001664
b11010001010100100111101111000000000000 *
#228325588992
b11010100101001010001000000000000000000 *
#231893176320
b11010111111101111010010001000000000000 *
#235460763648
b11011011010010100011100010000000000000 *
#239028350976
b11011110100111001100110011000000000000 *
#242595938304
b11100001111011110110000100000000000000 *
#246163525632
b11100101010000011111010101000000000000 *
#249731112960
b11101000100101001000100110000000000000 *
#253298700288
b11101011111001110001110111000000000000 *
#256866287616
b11101111001110011011001000000000000000 *
#260433874944
b11110010100011000100011001000000000000 *
#264001462272
b11110101110111101101101010000000000000 *
#267569049600
b11111001001100010110111011000000000000 *
#271136636928
b11111100100001000000001100000000000000 *
#274704224256
b11111111110101101001011101000000000000 *
#278271811584
b100000011001010010010101110000000000000 *
#281839398912
b100000110011110111011111111000000000000 *
#285406986240
b100001001110011100101010000000000000000 *
#288974573568
b100001101001000001110100001000000000000 *
#292542160896
b100010000011100110111110010000000000000 *
#296109748224
b100010011110001100001000011000000000000 *
#299677335552
b100010111000110001010010100000000000000 *
#303244922880
b100011010011010110011100101000000000000 *
#306812510208
b100011101101111011100110110000000000000 *
#310380097536
b100100001000100000110000111000000000000 *
#313947684864
b100100100011000101111011000000000000000 *
#317515272192
b100100111101101011000101001000000000000 *
#321082859520
b100101011000010000001111010000000000000 *
#324650446848
b100101110010110101011001011000000000000 *
#328218034176
b100110001101011010100011100000000000000 *
#331785621504
b100110100111111111101101101000000000000 *
#335353208832
b100111000010100100110111110000000000000 *
#338920796160
b100111011101001010000001111000000000000 *
#342488383488
b100111110111101111001100000000000000000 *
#346055970816
b101000010010010100010110001000000000000 *
#349623558144
b101000101100111001100000010000000000000 *
#353191145472
b101001000111011110101010011000000000000 *
#356758732800
b101001100010000011110100100000000000000 *
#360326320128
b101001111100101000111110101000000000000 *
#363893907456
b101010010111001110001000110000000000000 *
#367461494784
b101010110001110011010010111000000000000 *
#371029082112
b101011001100011000011101000000000000000 *
#374596669440
b101011100110111101100111001000000000000 *
#378164256768
b101100000001100010110001010000000000000 *
#381731844096
b101100011100000111111011011000000000000 *
#385299431424
b101100110110101101000101100000000000000 *
#388867018752
b101101010001010010001111101000000000000 *
#392434606080
b101101101011110111011001110000000000000 *
#396002193408
b101110000110011100100011111000000000000 *
#399569780736
b101110100001000001101110000000000000000 *
#403137368064
b101110111011100110111000001000000000000 *
#406704955392
b101111010110001100000010010000000000000 *
#410272542720
b101111110000110001001100011000000000000 *
#413840130048
b110000001011010110010110100000000000000 *
#417407717376
b110000100101111011100000101000000000000 *
#420975304704
b110001000000100000101010110000000000000 *
#424542892032
b110001011011000101110100111000000000000 *
#428110479360
b110001110101101010111111000000000000000 *
#431678066688
b110010010000010000001001001000000000000 *
#435245654016
b110010101010110101010011010000000000000 *
#438813241344
b110011000101011010011101011000000000000 *
#442380828672
b110011011111111111100111100000000000000 *
#445948416000
b110011111010100100110001101000000000000 *
#449516003328
b110100010101001001111011110000000000000 *
#453083590656
b110100101111101111000101111000000000000 *
#456651177984
b110101001010010100010000000000000000000 *
#460218765312
b110101100100111001011010001000000000000 *
#463786352640
b110101111111011110100100010000000000000 *
#467353939968
b110110011010000011101110011000000000000 *
#470921527296
b110110110100101000111000100000000000000 *
#474489114624
b110111001111001110000010101000000000000 *
#478056701952
b110111101001110011001100110000000000000 *
#481624289280
b111000000100011000010110111000000000000 *
#485191876608
b111000011110111101100001000000000000000 *
#488759463936
b111000111001100010101011001000000000000 *
#492327051264
b111001010100000111110101010000000000000 *
#495894638592
b111001101110101100111111011000000000000 *
#499462225920
b111010001001010010001001100000000000000 *
#503029813248
b111010100011110111010011101000000000000 *
#506597400576
b111010111110011100011101110000000000000 *
#510164987904
b111011011001000001100111111000000000000 *
#513732575232
b111011110011100110110010000000000000000 *
#517300162560
b111100001110001011111100001000000000000 *
#520867749888
b111100101000110001000110010000000000000 *
#524435337216
b111101000011010110010000011000000000000 *
#528002924544
b111101011101111011011010100000000000000 *
#531570511872
b111101111000100000100100101000000000000 *
#535138099200
b111110010011000101101110110000000000000 *
#538705686528
b111110101101101010111000111000000000000 *
#542273273856
b111111001000010000000011000000000000000 *
#545840861184
b111111100010110101001101001000000000000 *
#549408448512
b111111111101011010010111010000000000000 *
#552976035840
b1000000010111111111100001011000000000000 *
#556543623168
b1000000110010100100101011100000000000000 *
#560111210496
b1000001001101001001110101101000000000000 *
#563678797824
b1000001100111101110111111110000000000000 *
#567246385152
b1000010000010010100001001111000000000000 *
#570813972480
b1000010011100111001010100000000000000000 *
#574381559808
b1000010110111011110011110001000000000000 *
#577949147136
b1000011010010000011101000010000000000000 *
#581516734464
b1000011101100101000110010011000000000000 *
#585084321792
b1000100000111001101111100100000000000000 *
#588651909120
b1000100100001110011000110101000000000000 *
#592219496448
b1000100111100011000010000110000000000000 *
#595787083776
b1000101010110111101011010111000000000000 *
#599354671104
b1000101110001100010100101000000000000000 *
#602922258432
b1000110001100000111101111001000000000000 *
#606489845760
b1000110100110101100111001010000000000000 *
#610057433088
b1000111000001010010000011011000000000000 *
#613625020416
b1000111011011110111001101100000000000000 *
#617192607744
b1000111110110011100010111101000000000000 *
#620760195072
b1001000010001000001100001110000000000000 *
#624327782400
b1001000101011100110101011111000000000000 *
#627895369728
b1001001000110001011110110000000000000000 *
#631462957056
b1001001100000110001000000001000000000000 *
#635030544384
b1001001111011010110001010010000000000000 *
#638598131712
b1001010010101111011010100011000000000000 *
#642165719040
b1001010110000100000011110100000000000000 *
#645733306368
b1001011001011000101101000101000000000000 *
#649300893696
b1001011100101101010110010110000000000000 *
#652868481024
b1001100000000001111111100111000000000000 *
#656436068352
b1001100011010110101000111000000000000000 *
#660003655680
b1001100110101011010010001001000000000000 *
#663571243008
b1001101001111111111011011010000000000000 *
#667138830336
b1001101101010100100100101011000000000000 *
#670706417664
b1001110000101001001101111100000000000000 *
#674274004992
b1001110011111101110111001101000000000000 *
#677841592320
b1001110111010010100000011110000000000000 *
#681409179648
b1001111010100111001001101111000000000000 *
#684976766976
b1001111101111011110011000000000000000000 *
#688544354304
b1010000001010000011100010001000000000000 *
#692111941632
b1010000100100101000101100010000000000000 *
#695679528960
b1010000111111001101110110011000000000000 *
#699247116288
b1010001011001110011000000100000000000000 *
#702814703616
b1010001110100011000001010101000000000000 *
#706382290944
b1010010001110111101010100110000000000000 *
#709949878272
b1010010101001100010011110111000000000000 *
#713517465600
b1010011000100000111101001000000000000000 *
#717085052928
b1010011011110101100110011001000000000000 *
#720652640256
b1010011111001010001111101010000000000000 *
#724220227584
b1010100010011110111000111011000000000000 *
#727787814912
b1010100101110011100010001100000000000000 *
#731355402240
b1010101001001000001011011101000000000000 *
#734922989568
b1010101100011100110100101110000000000000 *
#738490576896
b1010101111110001011101111111000000000000 *
#742058164224
b1010110011000110000111010000000000000000 *
#745625751552
b1010110110011010110000100001000000000000 *
#749193338880
b1010111001101111011001110010000000000000 *
#752760926208
b1010111101000100000011000011000000000000 *
#756328513536
b1011000000011000101100010100000000000000 *
#759896100864
b1011000011101101010101100101000000000000 *
#763463688192
b1011000111000001111110110110000000000000 *
#767031275520
b1011001010010110101000000111000000000000 *
#770598862848
b1011001101101011010001011000000000000000 *
#774166450176
b1011010000111111111010101001000000000000 *
#777734037504
b1011010100010100100011111010000000000000 *
#781301624832
b1011010111101001001101001011000000000000 *
#784869212160
b1011011010111101110110011100000000000000 *
#788436799488
b1011011110010010011111101101000000000000 *
#792004386816
b1011100001100111001000111110000000000000 *
#795571974144
b1011100100111011110010001111000000000000 *
#799139561472
b1011101000010000011011100000000000000000 *
#802707148800
b1011101011100101000100110001000000000000 *
#806274736128
b1011101110111001101110000010000000000000 *
#809842323456
b1011110010001110010111010011000000000000 *
#813409910784
b1011110101100011000000100100000000000000 *
#816977498112
b1011111000110111101001110101000000000000 *
#820545085440
b1011111100001100010011000110000000000000 *
#824112672768
b1011111111100000111100010111000000000000 *
#827680260096
b1100000010110101100101101000000000000000 *
#831247847424
b1100000110001010001110111001000000000000 *
#834815434752
b1100001001011110111000001010000000000000 *
#838383022080
b1100001100110011100001011011000000000000 *
#841950609408
b1100010000001000001010101100000000000000 *
#845518196736
b1100010011011100110011111101000000000000 *
#849085784064
b1100010110110001011101001110000000000000 *
#852653371392
b1100011010000110000110011111000000000000 *
#856220958720
b1100011101011010101111110000000000000000 *
#859788546048
b1100100000101111011001000001000000000000 *
#863356133376
b1100100100000100000010010010000000000000 *
#866923720704
b1100100111011000101011100011000000000000 *
#870491308032
b1100101010101101010100110100000000000000 *
#874058895360
b1100101110000001111110000101000000000000 *
#877626482688
b1100110001010110100111010110000000000000 *
#881194070016
b1100110100101011010000100111000000000000 *
#884761657344
b1100110111111111111001111000000000000000 *
#888329244672
b1100111011010100100011001001000000000000 *
#891896832000
b1100111110101001001100011010000000000000 *
#895464419328
b1101000001111101110101101011000000000000 *
#899032006656
b1101000101010010011110111100000000000000 *
#902599593984
b1101001000100111001000001101000000000000 *
#906167181312
b1101001011111011110001011110000000000000 *
#909734768640
b1101001111010000011010101111000000000000 *
#913302355968
b1101010010100101000100000000000000000000 *
#916869943296
b1101010101111001101101010001000000000000 *
#920437530624
b1101011001001110010110100010000000000000 *
#924005117952
b1101011100100010111111110011000000000000 *
#927572705280
b1101011111110111101001000100000000000000 *
#931140292608
b1101100011001100010010010101000000000000 *
#934707879936
b1101100110100000111011100110000000000000 *
#938275467264
b1101101001110101100100110111000000000000 *
#941843054592
b1101101101001010001110001000000000000000 *
#945410641920
b1101110000011110110111011001000000000000 *
#948978229248
b1101110011110011100000101010000000000000 *
#952545816576
b1101110111001000001001111011000000000000 *
#956113403904
b1101111010011100110011001100000000000000 *
#959680991232
b1101111101110001011100011101000000000000 *
#963248578560
b1110000001000110000101101110000000000000 *
#966816165888
b1110000100011010101110111111000000000000 *
#970383753216
b1110000111101111011000010000000000000000 *
#973951340544
b1110001011000100000001100001000000000000 *
#977518927872
b1110001110011000101010110010000000000000 *
#981086515200
b1110010001101101010100000011000000000000 *
#984654102528
b1110010101000001111101010100000000000000 *
#988221689856
b1110011000010110100110100101000000000000 *
#991789277184
b1110011011101011001111110110000000000000 *
#995356864512
b1110011110111111111001000111000000000000 *
#998924451840
b1110100010010100100010011000000000000000 *
#1002492039168
b1110100101101001001011101001000000000000 *
#1006059626496
b1110101000111101110100111010000000000000 *
#1009627213824
b1110101100010010011110001011000000000000 *
#1013194801152
b1110101111100111000111011100000000000000 *
#1016762388480
b1110110010111011110000101101000000000000 *
#1020329975808
b1110110110010000011001111110000000000000 *
#1023897563136
b1110111001100101000011001111000000000000 *
#1027465150464
b1110111100111001101100100000000000000000 *
#1031032737792
b1111000000001110010101110001000000000000 *
#1034600325120
b1111000011100010111111000010000000000000 *
#1038167912448
b1111000110110111101000010011000000000000 *
#1041735499776
b1111001010001100010001100100000000000000 *
#1045303087104
b1111001101100000111010110101000000000000 *
#1048870674432
b1111010000110101100100000110000000000000 *
#1052438261760
b1111010100001010001101010111000000000000 *
#1056005849088
b1111010111011110110110101000000000000000 *
#1059573436416
b1111011010110011011111111001000000000000 *
#1063141023744
b1111011110001000001001001010000000000000 *
#1066708611072
b1111100001011100110010011011000000000000 *
#1070276198400
b1111100100110001011011101100000000000000 *
#1073843785728
b1111101000000110000100111101000000000000 *
#1077411373056
b1111101011011010101110001110000000000000 *
#1080978960384
b1111101110101111010111011111000000000000 *
#1084546547712
b1111110010000100000000110000000000000000 *
#1088114135040
b1111110101011000101010000001000000000000 *
#1091681722368
b1111111000101101010011010010000000000000 *
#1095249309696
b1111111100000001111100100011000000000000 *
#1098816897024
b1111111111010110100101110100000000000000 *
#1102384484352
b10000000010101011001111000101000000000000 *
#1105952071680
b10000000101111111111000010110000000000000 *
#1109519659008
b10000001001010100100001100111000000000000 *
#1113087246336
b10000001100101001001010111000000000000000 *
#1116654833664
b10000001111111101110100001001000000000000 *
#1120222420992
b10000010011010010011101011010000000000000 *
#1123790008320
b10000010110100111000110101011000000000000 *
#1127357595648
b10000011001111011101111111100000000000000 *
#1130925182976
b10000011101010000011001001101000000000000 *
#1134492770304
b10000100000100101000010011110000000000000 *
#1138060357632
b10000100011111001101011101111000000000000 *
#1141627944960
b10000100111001110010101000000000000000000 *
#1145195532288
b10000101010100010111110010001000000000000 *
#1148763119616
b10000101101110111100111100010000000000000 *
#1152330706944
b10000110001001100010000110011000000000000 *
#1155898294272
b10000110100100000111010000100000000000000 *
#1159465881600
b10000110111110101100011010101000000000000 *
#1163033468928
b10000111011001010001100100110000000000000 *
#1166601056256
b10000111110011110110101110111000000000000 *
#1170168643584
b10001000001110011011111001000000000000000 *
#1173736230912
b10001000101001000001000011001000000000000 *
#1177303818240
b10001001000011100110001101010000000000000 *
#1180871405568
b10001001011110001011010111011000000000000 *
#1184438992896
b10001001111000110000100001100000000000000 *
#1188006580224
b10001010010011010101101011101000000000000 *
#1191574167552
b10001010101101111010110101110000000000000 *
#1195141754880
b10001011001000011111111111111000000000000 *
#1198709342208
b10001011100011000101001010000000000000000 *
#1202276929536
b10001011111101101010010100001000000000000 *
#1205844516864
b10001100011000001111011110010000000000000 *
#1209412104192
b10001100110010110100101000011000000000000 *
#1212979691520
b10001101001101011001110010100000000000000 *
#1216547278848
b10001101100111111110111100101000000000000 *
#1220114866176
b10001110000010100100000110110000000000000 *
#1223682453504
b10001110011101001001010000111000000000000 *
#1227250040832
b10001110110111101110011011000000000000000 *
#1230817628160
b10001111010010010011100101001000000000000 *
#1234385215488
b10001111101100111000101111010000000000000 *
#1237952802816
b10010000000111011101111001011000000000000 *
#1241520390144
b10010000100010000011000011100000000000000 *
#1245087977472
b10010000111100101000001101101000000000000 *
#1248655564800
b10010001010111001101010111110000000000000 *
#1252223152128
b10010001110001110010100001111000000000000 *
#1255790739456
b10010010001100010111101100000000000000000 *
#1259358326784
b10010010100110111100110110001000000000000 *
#1262925914112
b10010011000001100010000000010000000000000 *
#1266493501440
b10010011011100000111001010011000000000000 *
#1270061088768
b10010011110110101100010100100000000000000 *
#1273628676096
b10010100010001010001011110101000000000000 *
#1277196263424
b10010100101011110110101000110000000000000 *
#1280763850752
b10010101000110011011110010111000000000000 *
#1284331438080
b10010101100001000000111101000000000000000 *
#1287899025408
b10010101111011100110000111001000000000000 *
#1291466612736
b10010110010110001011010001010000000000000 *
#1295034200064
b10010110110000110000011011011000000000000 *
#1298601787392
b10010111001011010101100101100000000000000 *
#1302169374720
b10010111100101111010101111101000000000000 *
#1305736962048
b10011000000000011111111001110000000000000 *
#1309304549376
b10011000011011000101000011111000000000000 *
#1312872136704
b10011000110101101010001110000000000000000 *
#1316439724032
b10011001010000001111011000001000000000000 *
#1320007311360
b10011001101010110100100010010000000000000 *
#1323574898688
b10011010000101011001101100011000000000000 *
#1327142486016
b10011010011111111110110110100000000000000 *
#1330710073344
b10011010111010100100000000101000000000000 *
#1334277660672
b10011011010101001001001010110000000000000 *
#1337845248000
b10011011101111101110010100111000000000000 *
#1341412835328
b10011100001010010011011111000000000000000 *
#1344980422656
b10011100100100111000101001001000000000000 *
#1348548009984
b10011100111111011101110011010000000000000 *
#1352115597312
b10011101011010000010111101011000000000000 *
#1355683184640
b10011101110100101000000111100000000000000 *
#1359250771968
b10011110001111001101010001101000000000000 *
#1362818359296
b10011110101001110010011011110000000000000 *
#1366385946624
b10011111000100010111100101111000000000000 *
#1369953533952
b10011111011110111100110000000000000000000 *
#1373521121280
b10011111111001100001111010001000000000000 *
#1377088708608
b10100000010100000111000100010000000000000 *
#1380656295936
b10100000101110101100001110011000000000000 *
#1384223883264
b10100001001001010001011000100000000000000 *
#1387791470592
b10100001100011110110100010101000000000000 *
#1391359057920
b10100001111110011011101100110000000000000 *
#1394926645248
b10100010011001000000110110111000000000000 *
#1398494232576
b10100010110011100110000001000000000000000 *
#1402061819904
b10100011001110001011001011001000000000000 *
#1405629407232
b10100011101000110000010101010000000000000 *
#1409196994560
b10100100000011010101011111011000000000000 *
#1412764581888
b10100100011101111010101001100000000000000 *
#1416332169216
b10100100111000011111110011101000000000000 *
#1419899756544
b10100101010011000100111101110000000000000 *
#1423467343872
b10100101101101101010000111111000000000000 *
#1427034931200
b10100110001000001111010010000000000000000 *
#1430602518528
b10100110100010110100011100001000000000000 *
#1434170105856
b10100110111101011001100110010000000000000 *
#1437737693184
b10100111010111111110110000011000000000000 *
#1441305280512
b10100111110010100011111010100000000000000 *
#1444872867840
b10101000001101001001000100101000000000000 *
#1448440455168
b10101000100111101110001110110000000000000 *
#1452008042496
b10101001000010010011011000111000000000000 *
#1455575629824
b10101001011100111000100011000000000000000 *
#1459143217152
b10101001110111011101101101001000000000000 *
#1462710804480
b10101010010010000010110111010000000000000 *
#1466278391808
b10101010101100101000000001011000000000000 *
#1469845979136
b10101011000111001101001011100000000000000 *
#1473413566464
b10101011100001110010010101101000000000000 *
#1476981153792
b10101011111100010111011111110000000000000 *
#1480548741120
b10101100010110111100101001111000000000000 *
#1484116328448
b10101100110001100001110100000000000000000 *
#1487683915776
b10101101001100000110111110001000000000000 *
#1491251503104
b10101101100110101100001000010000000000000 *
#1494819090432
b10101110000001010001010010011000000000000 *
#1498386677760
b10101110011011110110011100100000000000000 *
#1501954265088
b10101110110110011011100110101000000000000 *
#1505521852416
b10101111010001000000110000110000000000000 *
#1509089439744
b10101111101011100101111010111000000000000 *
#1512657027072
b10110000000110001011000101000000000000000 *
#1516224614400
b10110000100000110000001111001000000000000 *
#1519792201728
b10110000111011010101011001010000000000000 *
#1523359789056
b10110001010101111010100011011000000000000 *
#1526927376384
b10110001110000011111101101100000000000000 *
#1530494963712
b10110010001011000100110111101000000000000 *
#1534062551040
b10110010100101101010000001110000000000000 *
#1537630138368
b10110011000000001111001011111000000000000 *
#1541197725696
b10110011011010110100010110000000000000000 *
#1544765313024
b10110011110101011001100000001000000000000 *
#1548332900352
b10110100001111111110101010010000000000000 *
#1551900487680
b10110100101010100011110100011000000000000 *
#1555468075008
b10110101000101001000111110100000000000000 *
#1559035662336
b10110101011111101110001000101000000000000 *
#1562603249664
b10110101111010010011010010110000000000000 *
#1566170836992
b10110110010100111000011100111000000000000 *
#1569738424320
b10110110101111011101100111000000000000000 *
#1573306011648
b10110111001010000010110001001000000000000 *
#1576873598976
b10110111100100100111111011010000000000000 *
#1580441186304
b10110111111111001101000101011000000000000 *
#1584008773632
b10111000011001110010001111100000000000000 *
#1587576360960
b10111000110100010111011001101000000000000 *
#1591143948288
b10111001001110111100100011110000000000000 *
#1594711535616
b10111001101001100001101101111000000000000 *
#1598279122944
b10111010000100000110111000000000000000000 *
#1601846710272
b10111010011110101100000010001000000000000 *
#1605414297600
b10111010111001010001001100010000000000000 *
#1608981884928
b10111011010011110110010110011000000000000 *
#1612549472256
b10111011101110011011100000100000000000000 *
#1616117059584
b10111100001001000000101010101000000000000 *
#1619684646912
b10111100100011100101110100110000000000000 *
#1623252234240
b10111100111110001010111110111000000000000 *
#1626819821568
b10111101011000110000001001000000000000000 *
#1630387408896
b10111101110011010101010011001000000000000 *
#1633954996224
b10111110001101111010011101010000000000000 *
#1637522583552
b10111110101000011111100111011000000000000 *
#1641090170880
b10111111000011000100110001100000000000000 *
#1644657758208
b10111111011101101001111011101000000000000 *
#1648225345536
b10111111111000001111000101110000000000000 *
#1651792932864
b11000000010010110100001111111000000000000 *
#1655360520192
b11000000101101011001011010000000000000000 *
#1658928107520
b11000001000111111110100100001000000000000 *
#1662495694848
b11000001100010100011101110010000000000000 *
#1666063282176
b11000001111101001000111000011000000000000 *
#1669630869504
b11000010010111101110000010100000000000000 *
#1673198456832
b11000010110010010011001100101000000000000 *
#1676766044160
b11000011001100111000010110110000000000000 *
#1680333631488
b11000011100111011101100000111000000000000 *
#1683901218816
b11000100000010000010101011000000000000000 *
#1687468806144
b11000100011100100111110101001000000000000 *
#1691036393472
b11000100110111001100111111010000000000000 *
#1694603980800
b11000101010001110010001001011000000000000 *
#1698171568128
b11000101101100010111010011100000000000000 *
#1701739155456
b11000110000110111100011101101000000000000 *
#1705306742784
b11000110100001100001100111110000000000000 *
#1708874330112
b11000110111100000110110001111000000000000 *
#1712441917440
b11000111010110101011111100000000000000000 *
#1716009504768
b11000111110001010001000110001000000000000 *
#1719577092096
b11001000001011110110010000010000000000000 *
#1723144679424
b11001000100110011011011010011000000000000 *
#1726712266752
b11001001000001000000100100100000000000000 *
#1730279854080
b11001001011011100101101110101000000000000 *
#1733847441408
b11001001110110001010111000110000000000000 *
#1737415028736
b11001010010000110000000010111000000000000 *
#1740982616064
b11001010101011010101001101000000000000000 *
#1744550203392
b11001011000101111010010111001000000000000 *
#1748117790720
b11001011100000011111100001010000000000000 *
#1751685378048
b11001011111011000100101011011000000000000 *
#1755252965376
b11001100010101101001110101100000000000000 *
#1758820552704
b11001100110000001110111111101000000000000 *
#1762388140032
b11001101001010110100001001110000000000000 *
#1765955727360
b11001101100101011001010011111000000000000 *
#1769523314688
b11001101111111111110011110000000000000000 *
#1773090902016
b11001110011010100011101000001000000000000 *
#1776658489344
b11001110110101001000110010010000000000000 *
#1780226076672
b11001111001111101101111100011000000000000 *
#1783793664000
b11001111101010010011000110100000000000000 *
#1787361251328
b11010000000100111000010000101000000000000 *
#1790928838656
b11010000011111011101011010110000000000000 *
#1794496425984
b11010000111010000010100100111000000000000 *
#1798064013312
b11010001010100100111101111000000000000000 *
#1801631600640
b11010001101111001100111001001000000000000 *
#1805199187968
b11010010001001110010000011010000000000000 *
#1808766775296
b11010010100100010111001101011000000000000 *
#1812334362624
b11010010111110111100010111100000000000000 *
#1815901949952
b11010011011001100001100001101000000000000 *
#1819469537280
b11010011110100000110101011110000000000000 *
#1823037124608
b11010100001110101011110101111000000000000 *
#1826604711936
b11010100101001010001000000000000000000000 *
#1830172299264
b11010101000011110110001010001000000000000 *
#1833739886592
b11010101011110011011010100010000000000000 *
#1837307473920
b11010101111001000000011110011000000000000 *
#1840875061248
b11010110010011100101101000100000000000000 *
#1844442648576
b11010110101110001010110010101000000000000 *
#1848010235904
b11010111001000101111111100110000000000000 *
#1851577823232
b11010111100011010101000110111000000000000 *
#1855145410560
b11010111111101111010010001000000000000000 *
#1858712997888
b11011000011000011111011011001000000000000 *
#1862280585216
b11011000110011000100100101010000000000000 *
#1865848172544
b11011001001101101001101111011000000000000 *
#1869415759872
b11011001101000001110111001100000000000000 *
#1872983347200
b11011010000010110100000011101000000000000 *
#1876550934528
b11011010011101011001001101110000000000000 *
#1880118521856
b11011010110111111110010111111000000000000 *
#1883686109184
b11011011010010100011100010000000000000000 *
#1887253696512
b11011011101101001000101100001000000000000 *
#1890821283840
b11011100000111101101110110010000000000000 *
#1894388871168
b11011100100010010011000000011000000000000 *
#1897956458496
b11011100111100111000001010100000000000000 *
#1901524045824
b11011101010111011101010100101000000000000 *
#1905091633152
b11011101110010000010011110110000000000000 *
#1908659220480
b11011110001100100111101000111000000000000 *
#1912226807808
b11011110100111001100110011000000000000000 *
#1915794395136
b11011111000001110001111101001000000000000 *
#1919361982464
b11011111011100010111000111010000000000000 *
#1922929569792
b11011111110110111100010001011000000000000 *
#1926497157120
b11100000010001100001011011100000000000000 *
#1930064744448
b11100000101100000110100101101000000000000 *
#1933632331776
b11100001000110101011101111110000000000000 *
#1937199919104
b11100001100001010000111001111000000000000 *
#1940767506432
b11100001111011110110000100000000000000000 *
#1944335093760
b11100010010110011011001110001000000000000 *
#1947902681088
b11100010110001000000011000010000000000000 *
#1951470268416
b11100011001011100101100010011000000000000 *
#1955037855744
b11100011100110001010101100100000000000000 *
#1958605443072
b11100100000000101111110110101000000000000 *
#1962173030400
b11100100011011010101000000110000000000000 *
#1965740617728
b11100100110101111010001010111000000000000 *
#1969308205056
b11100101010000011111010101000000000000000 *
#1972875792384
b11100101101011000100011111001000000000000 *
#1976443379712
b11100110000101101001101001010000000000000 *
#1980010967040
b11100110100000001110110011011000000000000 *
#1983578554368
b11100110111010110011111101100000000000000 *
#1987146141696
b11100111010101011001000111101000000000000 *
#1990713729024
b11100111101111111110010001110000000000000 *
#1994281316352
b11101000001010100011011011111000000000000 *
#1997848903680
b11101000100101001000100110000000000000000 *
#2001416491008
b11101000111111101101110000001000000000000 *
#2004984078336
b11101001011010010010111010010000000000000 *
#2008551665664
b11101001110100111000000100011000000000000 *
#2012119252992
b11101010001111011101001110100000000000000 *
#2015686840320
b11101010101010000010011000101000000000000 *
#2019254427648
b11101011000100100111100010110000000000000 *
#2022822014976
b11101011011111001100101100111000000000000 *
#2026389602304
b11101011111001110001110111000000000000000 *
#2029957189632
b11101100010100010111000001001000000000000 *
#2033524776960
b11101100101110111100001011010000000000000 *
#2037092364288
b11101101001001100001010101011000000000000 *
#2040659951616
b11101101100100000110011111100000000000000 *
#2044227538944
b11101101111110101011101001101000000000000 *
#2047795126272
b11101110011001010000110011110000000000000 *
#2051362713600
b11101110110011110101111101111000000000000 *
#2054930300928
b11101111001110011011001000000000000000000 *
#2058497888256
b11101111101001000000010010001000000000000 *
#2062065475584
b11110000000011100101011100010000000000000 *
#2065633062912
b11110000011110001010100110011000000000000 *
#2069200650240
b11110000111000101111110000100000000000000 *
#2072768237568
b11110001010011010100111010101000000000000 *
#2076335824896
b11110001101101111010000100110000000000000 *
#2079903412224
b11110010001000011111001110111000000000000 *
#2083470999552
b11110010100011000100011001000000000000000 *
#2087038586880
b11110010111101101001100011001000000000000 *
#2090606174208
b11110011011000001110101101010000000000000 *
#2094173761536
b11110011110010110011110111011000000000000 *
#2097741348864
b11110100001101011001000001100000000000000 *
#2101308936192
b11110100100111111110001011101000000000000 *
#2104876523520
b11110101000010100011010101110000000000000 *
#2108444110848
b11110101011101001000011111111000000000000 *
#2112011698176
b11110101110111101101101010000000000000000 *
#2115579285504
b11110110010010010010110100001000000000000 *
#2119146872832
b11110110101100110111111110010000000000000 *
#2122714460160
b11110111000111011101001000011000000000000 *
#2126282047488
b11110111100010000010010010100000000000000 *
#2129849634816
b11110111111100100111011100101000000000000 *
#2133417222144
b11111000010111001100100110110000000000000 *
#2136984809472
b11111000110001110001110000111000000000000 *
#2140552396800
b11111001001100010110111011000000000000000 *
#2144119984128
b11111001100110111100000101001000000000000 *
#2147687571456
b11111010000001100001001111010000000000000 *
#2151255158784
b11111010011100000110011001011000000000000 *
#2154822746112
b11111010110110101011100011100000000000000 *
