neuron/build/sim/vcd/top_sim.vcd
$date 2024-06-06 15:23:46.712683 $end
$timescale 1 fs $end
$scope module top $end
$scope module trace_port_gen_i $end
$var real 64 ! i_in_probe $end
$var real 64 " v_out_probe $end
$var real 64 # v_out_exp_probe $end
$var real 64 $ v_out_lin_probe $end
$var real 64 % v_out_i_probe $end
$var real 64 & v_out_i_mult_probe $end
$var real 64 ' dv_out_probe $end
$var reg 1 ( digital_sel_probe $end
$var reg 1 ) emu_dec_cmp $end
$var reg 64 * emu_time $end
$upscope $end
$upscope $end
$enddefinitions $end
#0
$dumpvars
r5.859375050931703e-06 !
r-70 "
r0 #
r-70 $
r0.00299835205078125 %
r0.00052642822265625 &
r0 '
1(
1)
b0 *
$end
#5000000
r26.03955078125 "
r-70.59999847412109 &
b10011000100101101000000 *
r26.03955078125 $
0(
#10000000
r-0.07080078125 "
b100110001001011010000000 *
r-0.07080078125 $
#15000000
b111001001110000111000000 *
#20000000
b1001100010010110100000000 *
#25000000
b1011111010111100001000000 *
#30000000
b1110010011100001110000000 *
#35000000
b10000101100000111011000000 *
#40000000
b10011000100101101000000000 *
#45000000
b10101011101010010101000000 *
#50000000
b10111110101111000010000000 *
#55000000
b11010001110011101111000000 *
#60000000
b11100100111000011100000000 *
#65000000
b11110111111101001001000000 *
#70000000
b100001011000001110110000000 *
#75000000
b100011110000110100011000000 *
#80000000
b100110001001011010000000000 *
#85000000
b101000100001111111101000000 *
#90000000
b101010111010100101010000000 *
#95000000
b101101010011001010111000000 *
#100000000
b101111101011110000100000000 *
#105000000
b110010000100010110001000000 *
#110000000
b110100011100111011110000000 *
#115000000
b110110110101100001011000000 *
#120000000
b111001001110000111000000000 *
#125000000
b111011100110101100101000000 *
#130000000
b111101111111010010010000000 *
#135000000
b1000000010111110111111000000 *
#140000000
b1000010110000011101100000000 *
#145000000
b1000101001001000011001000000 *
#150000000
b1000111100001101000110000000 *
#155000000
b1001001111010001110011000000 *
#160000000
b1001100010010110100000000000 *
#165000000
b1001110101011011001101000000 *
#170000000
b1010001000011111111010000000 *
#175000000
b1010011011100100100111000000 *
#180000000
b1010101110101001010100000000 *
#185000000
b1011000001101110000001000000 *
#190000000
b1011010100110010101110000000 *
#195000000
b1011100111110111011011000000 *
#200000000
b1011111010111100001000000000 *
#205000000
b1100001110000000110101000000 *
#210000000
b1100100001000101100010000000 *
#215000000
b1100110100001010001111000000 *
#220000000
b1101000111001110111100000000 *
#225000000
b1101011010010011101001000000 *
#230000000
b1101101101011000010110000000 *
#235000000
b1110000000011101000011000000 *
#240000000
b1110010011100001110000000000 *
#245000000
b1110100110100110011101000000 *
#250000000
b1110111001101011001010000000 *
#255000000
b1111001100101111110111000000 *
#260000000
b1111011111110100100100000000 *
#265000000
b1111110010111001010001000000 *
#270000000
b10000000101111101111110000000 *
#275000000
b10000011001000010101011000000 *
#280000000
b10000101100000111011000000000 *
#285000000
b10000111111001100000101000000 *
#290000000
b10001010010010000110010000000 *
#295000000
b10001100101010101011111000000 *
#300000000
b10001111000011010001100000000 *
#305000000
b10010001011011110111001000000 *
#310000000
b10010011110100011100110000000 *
#315000000
b10010110001101000010011000000 *
#320000000
b10011000100101101000000000000 *
#325000000
b10011010111110001101101000000 *
#330000000
b10011101010110110011010000000 *
#335000000
b10011111101111011000111000000 *
#340000000
b10100010000111111110100000000 *
#345000000
b10100100100000100100001000000 *
#350000000
b10100110111001001001110000000 *
#355000000
b10101001010001101111011000000 *
#360000000
b10101011101010010101000000000 *
#365000000
b10101110000010111010101000000 *
#370000000
b10110000011011100000010000000 *
#375000000
b10110010110100000101111000000 *
#380000000
b10110101001100101011100000000 *
#385000000
b10110111100101010001001000000 *
#390000000
b10111001111101110110110000000 *
#395000000
b10111100010110011100011000000 *
#400000000
b10111110101111000010000000000 *
#405000000
b11000001000111100111101000000 *
#410000000
b11000011100000001101010000000 *
#415000000
b11000101111000110010111000000 *
#420000000
b11001000010001011000100000000 *
#425000000
b11001010101001111110001000000 *
#430000000
b11001101000010100011110000000 *
#435000000
b11001111011011001001011000000 *
#440000000
b11010001110011101111000000000 *
#445000000
b11010100001100010100101000000 *
#450000000
b11010110100100111010010000000 *
#455000000
b11011000111101011111111000000 *
#460000000
b11011011010110000101100000000 *
#465000000
b11011101101110101011001000000 *
#470000000
b11100000000111010000110000000 *
#475000000
b11100010011111110110011000000 *
#480000000
b11100100111000011100000000000 *
#485000000
b11100111010001000001101000000 *
#490000000
b11101001101001100111010000000 *
#495000000
b11101100000010001100111000000 *
#500000000
b11101110011010110010100000000 *
#505000000
b11110000110011011000001000000 *
#510000000
b11110011001011111101110000000 *
#515000000
b11110101100100100011011000000 *
#520000000
b11110111111101001001000000000 *
#525000000
b11111010010101101110101000000 *
#530000000
b11111100101110010100010000000 *
#535000000
b11111111000110111001111000000 *
#540000000
b100000001011111011111100000000 *
#545000000
b100000011111000000101001000000 *
#550000000
b100000110010000101010110000000 *
#555000000
b100001000101001010000011000000 *
#560000000
b100001011000001110110000000000 *
#565000000
b100001101011010011011101000000 *
#570000000
b100001111110011000001010000000 *
#575000000
b100010010001011100110111000000 *
#580000000
b100010100100100001100100000000 *
#585000000
b100010110111100110010001000000 *
#590000000
b100011001010101010111110000000 *
#595000000
b100011011101101111101011000000 *
#600000000
b100011110000110100011000000000 *
#605000000
b100100000011111001000101000000 *
#610000000
b100100010110111101110010000000 *
#615000000
b100100101010000010011111000000 *
#620000000
b100100111101000111001100000000 *
#625000000
b100101010000001011111001000000 *
#630000000
b100101100011010000100110000000 *
#635000000
b100101110110010101010011000000 *
#640000000
b100110001001011010000000000000 *
#645000000
b100110011100011110101101000000 *
#650000000
b100110101111100011011010000000 *
#655000000
b100111000010101000000111000000 *
#660000000
b100111010101101100110100000000 *
#665000000
b100111101000110001100001000000 *
#670000000
b100111111011110110001110000000 *
#675000000
b101000001110111010111011000000 *
#680000000
b101000100001111111101000000000 *
#685000000
b101000110101000100010101000000 *
#690000000
b101001001000001001000010000000 *
#695000000
b101001011011001101101111000000 *
#700000000
b101001101110010010011100000000 *
#705000000
b101010000001010111001001000000 *
#710000000
b101010010100011011110110000000 *
#715000000
b101010100111100000100011000000 *
#720000000
b101010111010100101010000000000 *
#725000000
b101011001101101001111101000000 *
#730000000
b101011100000101110101010000000 *
#735000000
b101011110011110011010111000000 *
#740000000
b101100000110111000000100000000 *
#745000000
b101100011001111100110001000000 *
#750000000
b101100101101000001011110000000 *
#755000000
b101101000000000110001011000000 *
#760000000
b101101010011001010111000000000 *
#765000000
b101101100110001111100101000000 *
#770000000
b101101111001010100010010000000 *
#775000000
b101110001100011000111111000000 *
#780000000
b101110011111011101101100000000 *
#785000000
b101110110010100010011001000000 *
#790000000
b101111000101100111000110000000 *
#795000000
b101111011000101011110011000000 *
#800000000
b101111101011110000100000000000 *
#805000000
b101111111110110101001101000000 *
#810000000
b110000010001111001111010000000 *
#815000000
b110000100100111110100111000000 *
#820000000
b110000111000000011010100000000 *
#825000000
b110001001011001000000001000000 *
#830000000
b110001011110001100101110000000 *
#835000000
b110001110001010001011011000000 *
#840000000
b110010000100010110001000000000 *
#845000000
b110010010111011010110101000000 *
#850000000
b110010101010011111100010000000 *
#855000000
b110010111101100100001111000000 *
#860000000
b110011010000101000111100000000 *
#865000000
b110011100011101101101001000000 *
#870000000
b110011110110110010010110000000 *
#875000000
b110100001001110111000011000000 *
#880000000
b110100011100111011110000000000 *
#885000000
b110100110000000000011101000000 *
#890000000
b110101000011000101001010000000 *
#895000000
b110101010110001001110111000000 *
#900000000
b110101101001001110100100000000 *
#905000000
b110101111100010011010001000000 *
#910000000
b110110001111010111111110000000 *
#915000000
b110110100010011100101011000000 *
#920000000
b110110110101100001011000000000 *
#925000000
b110111001000100110000101000000 *
#930000000
b110111011011101010110010000000 *
#935000000
b110111101110101111011111000000 *
#940000000
b111000000001110100001100000000 *
#945000000
b111000010100111000111001000000 *
#950000000
b111000100111111101100110000000 *
#955000000
b111000111011000010010011000000 *
#960000000
b111001001110000111000000000000 *
#965000000
b111001100001001011101101000000 *
#970000000
b111001110100010000011010000000 *
#975000000
b111010000111010101000111000000 *
#980000000
b111010011010011001110100000000 *
#985000000
b111010101101011110100001000000 *
#990000000
b111011000000100011001110000000 *
#995000000
b111011010011100111111011000000 *
#1000000000
b111011100110101100101000000000 *
#1005000000
b111011111001110001010101000000 *
#1010000000
b111100001100110110000010000000 *
#1015000000
b111100011111111010101111000000 *
#1020000000
b111100110010111111011100000000 *
#1025000000
b111101000110000100001001000000 *
#1030000000
b111101011001001000110110000000 *
#1035000000
b111101101100001101100011000000 *
#1040000000
b111101111111010010010000000000 *
#1045000000
b111110010010010110111101000000 *
#1050000000
b111110100101011011101010000000 *
#1055000000
b111110111000100000010111000000 *
#1060000000
b111111001011100101000100000000 *
#1065000000
b111111011110101001110001000000 *
#1070000000
b111111110001101110011110000000 *
#1075000000
b1000000000100110011001011000000 *
#1080000000
b1000000010111110111111000000000 *
#1085000000
b1000000101010111100100101000000 *
#1090000000
b1000000111110000001010010000000 *
#1095000000
b1000001010001000101111111000000 *
#1100000000
b1000001100100001010101100000000 *
#1105000000
b1000001110111001111011001000000 *
#1110000000
b1000010001010010100000110000000 *
#1115000000
b1000010011101011000110011000000 *
#1120000000
b1000010110000011101100000000000 *
#1125000000
b1000011000011100010001101000000 *
#1130000000
b1000011010110100110111010000000 *
#1135000000
b1000011101001101011100111000000 *
#1140000000
b1000011111100110000010100000000 *
#1145000000
b1000100001111110101000001000000 *
#1150000000
b1000100100010111001101110000000 *
#1155000000
b1000100110101111110011011000000 *
#1160000000
b1000101001001000011001000000000 *
#1165000000
b1000101011100000111110101000000 *
#1170000000
b1000101101111001100100010000000 *
#1175000000
b1000110000010010001001111000000 *
#1180000000
b1000110010101010101111100000000 *
#1185000000
b1000110101000011010101001000000 *
#1190000000
b1000110111011011111010110000000 *
#1195000000
b1000111001110100100000011000000 *
#1200000000
b1000111100001101000110000000000 *
#1205000000
b1000111110100101101011101000000 *
#1210000000
b1001000000111110010001010000000 *
#1215000000
b1001000011010110110110111000000 *
#1220000000
b1001000101101111011100100000000 *
#1225000000
b1001001000001000000010001000000 *
#1230000000
b1001001010100000100111110000000 *
#1235000000
b1001001100111001001101011000000 *
#1240000000
b1001001111010001110011000000000 *
#1245000000
b1001010001101010011000101000000 *
#1250000000
b1001010100000010111110010000000 *
#1255000000
b1001010110011011100011111000000 *
#1260000000
b1001011000110100001001100000000 *
#1265000000
b1001011011001100101111001000000 *
#1270000000
b1001011101100101010100110000000 *
#1275000000
b1001011111111101111010011000000 *
#1280000000
b1001100010010110100000000000000 *
#1285000000
b1001100100101111000101101000000 *
#1290000000
b1001100111000111101011010000000 *
#1295000000
b1001101001100000010000111000000 *
#1300000000
b1001101011111000110110100000000 *
#1305000000
b1001101110010001011100001000000 *
#1310000000
b1001110000101010000001110000000 *
#1315000000
b1001110011000010100111011000000 *
#1320000000
b1001110101011011001101000000000 *
#1325000000
b1001110111110011110010101000000 *
#1330000000
b1001111010001100011000010000000 *
#1335000000
b1001111100100100111101111000000 *
#1340000000
b1001111110111101100011100000000 *
#1345000000
b1010000001010110001001001000000 *
#1350000000
b1010000011101110101110110000000 *
#1355000000
b1010000110000111010100011000000 *
#1360000000
b1010001000011111111010000000000 *
#1365000000
b1010001010111000011111101000000 *
#1370000000
b1010001101010001000101010000000 *
#1375000000
b1010001111101001101010111000000 *
#1380000000
b1010010010000010010000100000000 *
#1385000000
b1010010100011010110110001000000 *
#1390000000
b1010010110110011011011110000000 *
#1395000000
b1010011001001100000001011000000 *
#1400000000
b1010011011100100100111000000000 *
#1405000000
b1010011101111101001100101000000 *
#1410000000
b1010100000010101110010010000000 *
#1415000000
b1010100010101110010111111000000 *
#1420000000
b1010100101000110111101100000000 *
#1425000000
b1010100111011111100011001000000 *
#1430000000
b1010101001111000001000110000000 *
#1435000000
b1010101100010000101110011000000 *
#1440000000
b1010101110101001010100000000000 *
#1445000000
b1010110001000001111001101000000 *
#1450000000
b1010110011011010011111010000000 *
#1455000000
b1010110101110011000100111000000 *
#1460000000
b1010111000001011101010100000000 *
#1465000000
b1010111010100100010000001000000 *
#1470000000
b1010111100111100110101110000000 *
#1475000000
b1010111111010101011011011000000 *
#1480000000
b1011000001101110000001000000000 *
#1485000000
b1011000100000110100110101000000 *
#1490000000
b1011000110011111001100010000000 *
#1495000000
b1011001000110111110001111000000 *
#1500000000
b1011001011010000010111100000000 *
#1505000000
b1011001101101000111101001000000 *
#1510000000
b1011010000000001100010110000000 *
#1515000000
b1011010010011010001000011000000 *
#1520000000
b1011010100110010101110000000000 *
#1525000000
b1011010111001011010011101000000 *
#1530000000
b1011011001100011111001010000000 *
#1535000000
b1011011011111100011110111000000 *
#1540000000
b1011011110010101000100100000000 *
#1545000000
b1011100000101101101010001000000 *
#1550000000
b1011100011000110001111110000000 *
#1555000000
b1011100101011110110101011000000 *
#1560000000
b1011100111110111011011000000000 *
#1565000000
b1011101010010000000000101000000 *
#1570000000
b1011101100101000100110010000000 *
#1575000000
b1011101111000001001011111000000 *
#1580000000
b1011110001011001110001100000000 *
#1585000000
b1011110011110010010111001000000 *
#1590000000
b1011110110001010111100110000000 *
#1595000000
b1011111000100011100010011000000 *
#1600000000
b1011111010111100001000000000000 *
#1605000000
b1011111101010100101101101000000 *
#1610000000
b1011111111101101010011010000000 *
#1615000000
b1100000010000101111000111000000 *
#1620000000
b1100000100011110011110100000000 *
#1625000000
b1100000110110111000100001000000 *
#1630000000
b1100001001001111101001110000000 *
#1635000000
b1100001011101000001111011000000 *
#1640000000
b1100001110000000110101000000000 *
#1645000000
b1100010000011001011010101000000 *
#1650000000
b1100010010110010000000010000000 *
#1655000000
b1100010101001010100101111000000 *
#1660000000
b1100010111100011001011100000000 *
#1665000000
b1100011001111011110001001000000 *
#1670000000
b1100011100010100010110110000000 *
#1675000000
b1100011110101100111100011000000 *
#1680000000
b1100100001000101100010000000000 *
#1685000000
b1100100011011110000111101000000 *
#1690000000
b1100100101110110101101010000000 *
#1695000000
b1100101000001111010010111000000 *
#1700000000
b1100101010100111111000100000000 *
#1705000000
b1100101101000000011110001000000 *
#1710000000
b1100101111011001000011110000000 *
#1715000000
b1100110001110001101001011000000 *
#1720000000
b1100110100001010001111000000000 *
#1725000000
b1100110110100010110100101000000 *
#1730000000
b1100111000111011011010010000000 *
#1735000000
b1100111011010011111111111000000 *
#1740000000
b1100111101101100100101100000000 *
#1745000000
b1101000000000101001011001000000 *
#1750000000
b1101000010011101110000110000000 *
#1755000000
b1101000100110110010110011000000 *
#1760000000
b1101000111001110111100000000000 *
#1765000000
b1101001001100111100001101000000 *
#1770000000
b1101001100000000000111010000000 *
#1775000000
b1101001110011000101100111000000 *
#1780000000
b1101010000110001010010100000000 *
#1785000000
b1101010011001001111000001000000 *
#1790000000
b1101010101100010011101110000000 *
#1795000000
b1101010111111011000011011000000 *
#1800000000
b1101011010010011101001000000000 *
#1805000000
b1101011100101100001110101000000 *
#1810000000
b1101011111000100110100010000000 *
#1815000000
b1101100001011101011001111000000 *
#1820000000
b1101100011110101111111100000000 *
#1825000000
b1101100110001110100101001000000 *
#1830000000
b1101101000100111001010110000000 *
#1835000000
b1101101010111111110000011000000 *
#1840000000
b1101101101011000010110000000000 *
#1845000000
b1101101111110000111011101000000 *
#1850000000
b1101110010001001100001010000000 *
#1855000000
b1101110100100010000110111000000 *
#1860000000
b1101110110111010101100100000000 *
#1865000000
b1101111001010011010010001000000 *
#1870000000
b1101111011101011110111110000000 *
#1875000000
b1101111110000100011101011000000 *
#1880000000
b1110000000011101000011000000000 *
#1885000000
b1110000010110101101000101000000 *
#1890000000
b1110000101001110001110010000000 *
#1895000000
b1110000111100110110011111000000 *
#1900000000
b1110001001111111011001100000000 *
#1905000000
b1110001100010111111111001000000 *
#1910000000
b1110001110110000100100110000000 *
#1915000000
b1110010001001001001010011000000 *
#1920000000
b1110010011100001110000000000000 *
#1925000000
b1110010101111010010101101000000 *
#1930000000
b1110011000010010111011010000000 *
#1935000000
b1110011010101011100000111000000 *
#1940000000
b1110011101000100000110100000000 *
#1945000000
b1110011111011100101100001000000 *
#1950000000
b1110100001110101010001110000000 *
#1955000000
b1110100100001101110111011000000 *
#1960000000
b1110100110100110011101000000000 *
#1965000000
b1110101000111111000010101000000 *
#1970000000
b1110101011010111101000010000000 *
#1975000000
b1110101101110000001101111000000 *
#1980000000
b1110110000001000110011100000000 *
#1985000000
b1110110010100001011001001000000 *
#1990000000
b1110110100111001111110110000000 *
#1995000000
b1110110111010010100100011000000 *
#2000000000
b1110111001101011001010000000000 *
#2005000000
b1110111100000011101111101000000 *
#2010000000
b1110111110011100010101010000000 *
#2015000000
b1111000000110100111010111000000 *
#2020000000
b1111000011001101100000100000000 *
#2025000000
b1111000101100110000110001000000 *
#2030000000
b1111000111111110101011110000000 *
#2035000000
b1111001010010111010001011000000 *
#2040000000
b1111001100101111110111000000000 *
#2045000000
b1111001111001000011100101000000 *
#2050000000
b1111010001100001000010010000000 *
#2055000000
b1111010011111001100111111000000 *
#2060000000
b1111010110010010001101100000000 *
#2065000000
b1111011000101010110011001000000 *
#2070000000
b1111011011000011011000110000000 *
#2075000000
b1111011101011011111110011000000 *
#2080000000
b1111011111110100100100000000000 *
#2085000000
b1111100010001101001001101000000 *
#2090000000
b1111100100100101101111010000000 *
#2095000000
b1111100110111110010100111000000 *
#2100000000
b1111101001010110111010100000000 *
#2105000000
b1111101011101111100000001000000 *
#2110000000
b1111101110001000000101110000000 *
#2115000000
b1111110000100000101011011000000 *
#2120000000
b1111110010111001010001000000000 *
#2125000000
b1111110101010001110110101000000 *
#2130000000
b1111110111101010011100010000000 *
#2135000000
b1111111010000011000001111000000 *
#2140000000
b1111111100011011100111100000000 *
#2145000000
b1111111110110100001101001000000 *
#2150000000
b10000000001001100110010110000000 *
#2155000000
b10000000011100101011000011000000 *
#2160000000
b10000000101111101111110000000000 *
#2165000000
b10000001000010110100011101000000 *
#2170000000
b10000001010101111001001010000000 *
#2175000000
b10000001101000111101110111000000 *
#2180000000
b10000001111100000010100100000000 *
#2185000000
b10000010001111000111010001000000 *
#2190000000
b10000010100010001011111110000000 *
#2195000000
b10000010110101010000101011000000 *
#2200000000
b10000011001000010101011000000000 *
#2205000000
b10000011011011011010000101000000 *
#2210000000
b10000011101110011110110010000000 *
#2215000000
b10000100000001100011011111000000 *
#2220000000
b10000100010100101000001100000000 *
#2225000000
b10000100100111101100111001000000 *
#2230000000
b10000100111010110001100110000000 *
#2235000000
b10000101001101110110010011000000 *
#2240000000
b10000101100000111011000000000000 *
#2245000000
b10000101110011111111101101000000 *
#2250000000
b10000110000111000100011010000000 *
#2255000000
b10000110011010001001000111000000 *
#2260000000
b10000110101101001101110100000000 *
#2265000000
b10000111000000010010100001000000 *
#2270000000
b10000111010011010111001110000000 *
#2275000000
b10000111100110011011111011000000 *
#2280000000
b10000111111001100000101000000000 *
#2285000000
b10001000001100100101010101000000 *
#2290000000
b10001000011111101010000010000000 *
#2295000000
b10001000110010101110101111000000 *
#2300000000
b10001001000101110011011100000000 *
#2305000000
b10001001011000111000001001000000 *
#2310000000
b10001001101011111100110110000000 *
#2315000000
b10001001111111000001100011000000 *
#2320000000
b10001010010010000110010000000000 *
#2325000000
b10001010100101001010111101000000 *
#2330000000
b10001010111000001111101010000000 *
#2335000000
b10001011001011010100010111000000 *
#2340000000
b10001011011110011001000100000000 *
#2345000000
b10001011110001011101110001000000 *
#2350000000
b10001100000100100010011110000000 *
#2355000000
b10001100010111100111001011000000 *
#2360000000
b10001100101010101011111000000000 *
#2365000000
b10001100111101110000100101000000 *
#2370000000
b10001101010000110101010010000000 *
#2375000000
b10001101100011111001111111000000 *
#2380000000
b10001101110110111110101100000000 *
#2385000000
b10001110001010000011011001000000 *
#2390000000
b10001110011101001000000110000000 *
#2395000000
b10001110110000001100110011000000 *
#2400000000
b10001111000011010001100000000000 *
#2405000000
b10001111010110010110001101000000 *
#2410000000
b10001111101001011010111010000000 *
#2415000000
b10001111111100011111100111000000 *
#2420000000
b10010000001111100100010100000000 *
#2425000000
b10010000100010101001000001000000 *
#2430000000
b10010000110101101101101110000000 *
#2435000000
b10010001001000110010011011000000 *
#2440000000
b10010001011011110111001000000000 *
#2445000000
b10010001101110111011110101000000 *
#2450000000
b10010010000010000000100010000000 *
#2455000000
b10010010010101000101001111000000 *
#2460000000
b10010010101000001001111100000000 *
#2465000000
b10010010111011001110101001000000 *
#2470000000
b10010011001110010011010110000000 *
#2475000000
b10010011100001011000000011000000 *
#2480000000
b10010011110100011100110000000000 *
#2485000000
b10010100000111100001011101000000 *
#2490000000
b10010100011010100110001010000000 *
#2495000000
b10010100101101101010110111000000 *
#2500000000
b10010101000000101111100100000000 *
#2505000000
b10010101010011110100010001000000 *
#2510000000
b10010101100110111000111110000000 *
#2515000000
b10010101111001111101101011000000 *
#2520000000
b10010110001101000010011000000000 *
#2525000000
b10010110100000000111000101000000 *
#2530000000
b10010110110011001011110010000000 *
#2535000000
b10010111000110010000011111000000 *
#2540000000
b10010111011001010101001100000000 *
#2545000000
b10010111101100011001111001000000 *
#2550000000
b10010111111111011110100110000000 *
#2555000000
b10011000010010100011010011000000 *
#2560000000
b10011000100101101000000000000000 *
#2565000000
b10011000111000101100101101000000 *
#2570000000
b10011001001011110001011010000000 *
#2575000000
b10011001011110110110000111000000 *
#2580000000
b10011001110001111010110100000000 *
#2585000000
b10011010000100111111100001000000 *
#2590000000
b10011010011000000100001110000000 *
#2595000000
b10011010101011001000111011000000 *
#2600000000
b10011010111110001101101000000000 *
#2605000000
b10011011010001010010010101000000 *
#2610000000
b10011011100100010111000010000000 *
#2615000000
b10011011110111011011101111000000 *
#2620000000
b10011100001010100000011100000000 *
#2625000000
b10011100011101100101001001000000 *
#2630000000
b10011100110000101001110110000000 *
#2635000000
b10011101000011101110100011000000 *
#2640000000
b10011101010110110011010000000000 *
#2645000000
b10011101101001110111111101000000 *
#2650000000
b10011101111100111100101010000000 *
#2655000000
b10011110010000000001010111000000 *
#2660000000
b10011110100011000110000100000000 *
#2665000000
b10011110110110001010110001000000 *
#2670000000
b10011111001001001111011110000000 *
#2675000000
b10011111011100010100001011000000 *
#2680000000
b10011111101111011000111000000000 *
#2685000000
b10100000000010011101100101000000 *
#2690000000
b10100000010101100010010010000000 *
#2695000000
b10100000101000100110111111000000 *
#2700000000
b10100000111011101011101100000000 *
#2705000000
b10100001001110110000011001000000 *
#2710000000
b10100001100001110101000110000000 *
#2715000000
b10100001110100111001110011000000 *
#2720000000
b10100010000111111110100000000000 *
#2725000000
b10100010011011000011001101000000 *
#2730000000
b10100010101110000111111010000000 *
#2735000000
b10100011000001001100100111000000 *
#2740000000
b10100011010100010001010100000000 *
#2745000000
b10100011100111010110000001000000 *
#2750000000
b10100011111010011010101110000000 *
#2755000000
b10100100001101011111011011000000 *
#2760000000
b10100100100000100100001000000000 *
#2765000000
b10100100110011101000110101000000 *
#2770000000
b10100101000110101101100010000000 *
#2775000000
b10100101011001110010001111000000 *
#2780000000
b10100101101100110110111100000000 *
#2785000000
b10100101111111111011101001000000 *
#2790000000
b10100110010011000000010110000000 *
#2795000000
b10100110100110000101000011000000 *
#2800000000
b10100110111001001001110000000000 *
#2805000000
b10100111001100001110011101000000 *
#2810000000
b10100111011111010011001010000000 *
#2815000000
b10100111110010010111110111000000 *
#2820000000
b10101000000101011100100100000000 *
#2825000000
b10101000011000100001010001000000 *
#2830000000
b10101000101011100101111110000000 *
#2835000000
b10101000111110101010101011000000 *
#2840000000
b10101001010001101111011000000000 *
#2845000000
b10101001100100110100000101000000 *
#2850000000
b10101001110111111000110010000000 *
#2855000000
b10101010001010111101011111000000 *
#2860000000
b10101010011110000010001100000000 *
#2865000000
b10101010110001000110111001000000 *
#2870000000
b10101011000100001011100110000000 *
#2875000000
b10101011010111010000010011000000 *
#2880000000
b10101011101010010101000000000000 *
#2885000000
b10101011111101011001101101000000 *
#2890000000
b10101100010000011110011010000000 *
#2895000000
b10101100100011100011000111000000 *
#2900000000
b10101100110110100111110100000000 *
#2905000000
b10101101001001101100100001000000 *
#2910000000
b10101101011100110001001110000000 *
#2915000000
b10101101101111110101111011000000 *
#2920000000
b10101110000010111010101000000000 *
#2925000000
b10101110010101111111010101000000 *
#2930000000
b10101110101001000100000010000000 *
#2935000000
b10101110111100001000101111000000 *
#2940000000
b10101111001111001101011100000000 *
#2945000000
b10101111100010010010001001000000 *
#2950000000
b10101111110101010110110110000000 *
#2955000000
b10110000001000011011100011000000 *
#2960000000
b10110000011011100000010000000000 *
#2965000000
b10110000101110100100111101000000 *
#2970000000
b10110001000001101001101010000000 *
#2975000000
b10110001010100101110010111000000 *
#2980000000
b10110001100111110011000100000000 *
#2985000000
b10110001111010110111110001000000 *
#2990000000
b10110010001101111100011110000000 *
#2995000000
b10110010100001000001001011000000 *
#3000000000
b10110010110100000101111000000000 *
#3005000000
b10110011000111001010100101000000 *
#3010000000
b10110011011010001111010010000000 *
#3015000000
b10110011101101010011111111000000 *
#3020000000
b10110100000000011000101100000000 *
#3025000000
b10110100010011011101011001000000 *
#3030000000
b10110100100110100010000110000000 *
#3035000000
b10110100111001100110110011000000 *
#3040000000
b10110101001100101011100000000000 *
#3045000000
b10110101011111110000001101000000 *
#3050000000
b10110101110010110100111010000000 *
#3055000000
b10110110000101111001100111000000 *
#3060000000
b10110110011000111110010100000000 *
#3065000000
b10110110101100000011000001000000 *
#3070000000
b10110110111111000111101110000000 *
#3075000000
b10110111010010001100011011000000 *
#3080000000
b10110111100101010001001000000000 *
#3085000000
b10110111111000010101110101000000 *
#3090000000
b10111000001011011010100010000000 *
#3095000000
b10111000011110011111001111000000 *
#3100000000
b10111000110001100011111100000000 *
#3105000000
b10111001000100101000101001000000 *
#3110000000
b10111001010111101101010110000000 *
#3115000000
b10111001101010110010000011000000 *
#3120000000
b10111001111101110110110000000000 *
#3125000000
b10111010010000111011011101000000 *
#3130000000
b10111010100100000000001010000000 *
#3135000000
b10111010110111000100110111000000 *
#3140000000
b10111011001010001001100100000000 *
#3145000000
b10111011011101001110010001000000 *
#3150000000
b10111011110000010010111110000000 *
#3155000000
b10111100000011010111101011000000 *
#3160000000
b10111100010110011100011000000000 *
#3165000000
b10111100101001100001000101000000 *
#3170000000
b10111100111100100101110010000000 *
#3175000000
b10111101001111101010011111000000 *
#3180000000
b10111101100010101111001100000000 *
#3185000000
b10111101110101110011111001000000 *
#3190000000
b10111110001000111000100110000000 *
#3195000000
b10111110011011111101010011000000 *
#3200000000
b10111110101111000010000000000000 *
#3205000000
b10111111000010000110101101000000 *
#3210000000
b10111111010101001011011010000000 *
#3215000000
b10111111101000010000000111000000 *
#3220000000
b10111111111011010100110100000000 *
#3225000000
b11000000001110011001100001000000 *
#3230000000
b11000000100001011110001110000000 *
#3235000000
b11000000110100100010111011000000 *
#3240000000
b11000001000111100111101000000000 *
#3245000000
b11000001011010101100010101000000 *
#3250000000
b11000001101101110001000010000000 *
#3255000000
b11000010000000110101101111000000 *
#3260000000
b11000010010011111010011100000000 *
#3265000000
b11000010100110111111001001000000 *
#3270000000
b11000010111010000011110110000000 *
#3275000000
b11000011001101001000100011000000 *
#3280000000
b11000011100000001101010000000000 *
#3285000000
b11000011110011010001111101000000 *
#3290000000
b11000100000110010110101010000000 *
#3295000000
b11000100011001011011010111000000 *
#3300000000
b11000100101100100000000100000000 *
#3305000000
b11000100111111100100110001000000 *
#3310000000
b11000101010010101001011110000000 *
#3315000000
b11000101100101101110001011000000 *
#3320000000
b11000101111000110010111000000000 *
#3325000000
b11000110001011110111100101000000 *
#3330000000
b11000110011110111100010010000000 *
#3335000000
b11000110110010000000111111000000 *
#3340000000
b11000111000101000101101100000000 *
#3345000000
b11000111011000001010011001000000 *
#3350000000
b11000111101011001111000110000000 *
#3355000000
b11000111111110010011110011000000 *
#3360000000
b11001000010001011000100000000000 *
#3365000000
b11001000100100011101001101000000 *
#3370000000
b11001000110111100001111010000000 *
#3375000000
b11001001001010100110100111000000 *
#3380000000
b11001001011101101011010100000000 *
#3385000000
b11001001110000110000000001000000 *
#3390000000
b11001010000011110100101110000000 *
#3395000000
b11001010010110111001011011000000 *
#3400000000
b11001010101001111110001000000000 *
#3405000000
b11001010111101000010110101000000 *
#3410000000
b11001011010000000111100010000000 *
#3415000000
b11001011100011001100001111000000 *
#3420000000
b11001011110110010000111100000000 *
#3425000000
b11001100001001010101101001000000 *
#3430000000
b11001100011100011010010110000000 *
#3435000000
b11001100101111011111000011000000 *
#3440000000
b11001101000010100011110000000000 *
#3445000000
b11001101010101101000011101000000 *
#3450000000
b11001101101000101101001010000000 *
#3455000000
b11001101111011110001110111000000 *
#3460000000
b11001110001110110110100100000000 *
#3465000000
b11001110100001111011010001000000 *
#3470000000
b11001110110100111111111110000000 *
#3475000000
b11001111001000000100101011000000 *
#3480000000
b11001111011011001001011000000000 *
#3485000000
b11001111101110001110000101000000 *
#3490000000
b11010000000001010010110010000000 *
#3495000000
b11010000010100010111011111000000 *
#3500000000
b11010000100111011100001100000000 *
#3505000000
b11010000111010100000111001000000 *
#3510000000
b11010001001101100101100110000000 *
#3515000000
b11010001100000101010010011000000 *
#3520000000
b11010001110011101111000000000000 *
#3525000000
b11010010000110110011101101000000 *
#3530000000
b11010010011001111000011010000000 *
#3535000000
b11010010101100111101000111000000 *
#3540000000
b11010011000000000001110100000000 *
#3545000000
b11010011010011000110100001000000 *
#3550000000
b11010011100110001011001110000000 *
#3555000000
b11010011111001001111111011000000 *
#3560000000
b11010100001100010100101000000000 *
#3565000000
b11010100011111011001010101000000 *
#3570000000
b11010100110010011110000010000000 *
