neuron_diffeq/build/sim/raw_results/top_sim.vcd
$date
	Thu Jun  6 15:58:53 2024
$end
$version
	Icarus Verilog
$end
$timescale
	1ps
$end
$scope module top $end
$scope module trace_port_gen_i $end
$var wire 1 ! digital_sel_probe $end
$upscope $end
$upscope $end
$scope module top $end
$scope module trace_port_gen_i $end
$var wire 25 " i_in_probe [24:0] $end
$upscope $end
$upscope $end
$scope module top $end
$scope module trace_port_gen_i $end
$var wire 25 # v_out_probe [24:0] $end
$upscope $end
$upscope $end
$scope module top $end
$scope module trace_port_gen_i $end
$var wire 25 $ v_out_exp_probe [24:0] $end
$upscope $end
$upscope $end
$scope module top $end
$scope module trace_port_gen_i $end
$var wire 25 % v_out_lin_probe [24:0] $end
$upscope $end
$upscope $end
$scope module top $end
$scope module trace_port_gen_i $end
$var wire 25 & v_out_i_probe [24:0] $end
$upscope $end
$upscope $end
$scope module top $end
$scope module trace_port_gen_i $end
$var wire 25 ' v_out_i_mult_probe [24:0] $end
$upscope $end
$upscope $end
$scope module top $end
$scope module trace_port_gen_i $end
$var wire 25 ( dv_out_probe [24:0] $end
$upscope $end
$upscope $end
$scope module top $end
$scope module trace_port_gen_i $end
$var wire 64 ) emu_time [63:0] $end
$upscope $end
$upscope $end
$scope module top $end
$scope module trace_port_gen_i $end
$var wire 1 * emu_dec_cmp $end
$upscope $end
$upscope $end
$enddefinitions $end
#0
$dumpvars
x*
bx )
b0 (
b0 '
b110001001 &
bx %
b0 $
bx #
b110001001001101110100110 "
x!
$end
#10000
b10101001110011000011 '
1!
1*
b0 )
b1011100101100110011001101 %
b1011100101100110011001101 #
#50000
b10101001110010000011 '
b10111110101111000010000000 )
b1011111010110100110010000 %
b1011111010110100110010000 #
#90000
b10101001110001010101 '
b101111101011110000100000000 )
b1100010000000011000010011 %
b1100010000000011000010011 #
#130000
b10101001110000111001 '
b1000111100001101000110000000 )
b1100100101010001001101000 %
b1100100101010001001101000 #
#170000
b1011100101100110011001101 '
0!
b1011111010111100001000000000 )
b1100111010011111010100001 %
b1100111010011111010100001 #
#210000
b10101001110011000011 '
1!
b1110111001101011001010000000 )
b1011100101100110011001101 %
b1011100101100110011001101 #
#250000
b10101001110010000011 '
b10001111000011010001100000000 )
b1011111010110100110010000 %
b1011111010110100110010000 #
#290000
b10101001110001010101 '
b10100110111001001001110000000 )
b1100010000000011000010011 %
b1100010000000011000010011 #
#330000
b10101001110000111001 '
b10111110101111000010000000000 )
b1100100101010001001101000 %
b1100100101010001001101000 #
#370000
b1011100101100110011001101 '
0!
b11010110100100111010010000000 )
b1100111010011111010100001 %
b1100111010011111010100001 #
#410000
b10101001110011000011 '
1!
b11101110011010110010100000000 )
b1011100101100110011001101 %
b1011100101100110011001101 #
#450000
b10101001110010000011 '
b100000110010000101010110000000 )
b1011111010110100110010000 %
b1011111010110100110010000 #
#490000
b10101001110001010101 '
b100011110000110100011000000000 )
b1100010000000011000010011 %
b1100010000000011000010011 #
#530000
b10101001110000111001 '
b100110101111100011011010000000 )
b1100100101010001001101000 %
b1100100101010001001101000 #
#570000
b1011100101100110011001101 '
0!
b101001101110010010011100000000 )
b1100111010011111010100001 %
b1100111010011111010100001 #
#610000
b10101001110011000011 '
1!
b101100101101000001011110000000 )
b1011100101100110011001101 %
b1011100101100110011001101 #
#650000
b10101001110010000011 '
b101111101011110000100000000000 )
b1011111010110100110010000 %
b1011111010110100110010000 #
#690000
b10101001110001010101 '
b110010101010011111100010000000 )
b1100010000000011000010011 %
b1100010000000011000010011 #
#730000
b10101001110000111001 '
b110101101001001110100100000000 )
b1100100101010001001101000 %
b1100100101010001001101000 #
#770000
b1011100101100110011001101 '
0!
b111000100111111101100110000000 )
b1100111010011111010100001 %
b1100111010011111010100001 #
#810000
b10101001110011000011 '
1!
b111011100110101100101000000000 )
b1011100101100110011001101 %
b1011100101100110011001101 #
#850000
b10101001110010000011 '
b111110100101011011101010000000 )
b1011111010110100110010000 %
b1011111010110100110010000 #
#890000
b10101001110001010101 '
b1000001100100001010101100000000 )
b1100010000000011000010011 %
b1100010000000011000010011 #
#930000
b10101001110000111001 '
b1000100100010111001101110000000 )
b1100100101010001001101000 %
b1100100101010001001101000 #
#970000
b1011100101100110011001101 '
0!
b1000111100001101000110000000000 )
b1100111010011111010100001 %
b1100111010011111010100001 #
#1010000
b10101001110011000011 '
1!
b1001010100000010111110010000000 )
b1011100101100110011001101 %
b1011100101100110011001101 #
#1050000
b10101001110010000011 '
b1001101011111000110110100000000 )
b1011111010110100110010000 %
b1011111010110100110010000 #
#1090000
b10101001110001010101 '
b1010000011101110101110110000000 )
b1100010000000011000010011 %
b1100010000000011000010011 #
#1130000
b10101001110000111001 '
b1010011011100100100111000000000 )
b1100100101010001001101000 %
b1100100101010001001101000 #
#1170000
b1011100101100110011001101 '
0!
b1010110011011010011111010000000 )
b1100111010011111010100001 %
b1100111010011111010100001 #
#1210000
b10101001110011000011 '
1!
b1011001011010000010111100000000 )
b1011100101100110011001101 %
b1011100101100110011001101 #
#1250000
b10101001110010000011 '
b1011100011000110001111110000000 )
b1011111010110100110010000 %
b1011111010110100110010000 #
#1290000
b10101001110001010101 '
b1011111010111100001000000000000 )
b1100010000000011000010011 %
b1100010000000011000010011 #
#1330000
b10101001110000111001 '
b1100010010110010000000010000000 )
b1100100101010001001101000 %
b1100100101010001001101000 #
#1370000
b1011100101100110011001101 '
0!
b1100101010100111111000100000000 )
b1100111010011111010100001 %
b1100111010011111010100001 #
#1410000
b10101001110011000011 '
1!
b1101000010011101110000110000000 )
b1011100101100110011001101 %
b1011100101100110011001101 #
#1450000
b10101001110010000011 '
b1101011010010011101001000000000 )
b1011111010110100110010000 %
b1011111010110100110010000 #
#1490000
b10101001110001010101 '
b1101110010001001100001010000000 )
b1100010000000011000010011 %
b1100010000000011000010011 #
#1530000
b10101001110000111001 '
b1110001001111111011001100000000 )
b1100100101010001001101000 %
b1100100101010001001101000 #
#1570000
b1011100101100110011001101 '
0!
b1110100001110101010001110000000 )
b1100111010011111010100001 %
b1100111010011111010100001 #
#1610000
b10101001110011000011 '
1!
b1110111001101011001010000000000 )
b1011100101100110011001101 %
b1011100101100110011001101 #
#1650000
b10101001110010000011 '
b1111010001100001000010010000000 )
b1011111010110100110010000 %
b1011111010110100110010000 #
#1690000
b10101001110001010101 '
b1111101001010110111010100000000 )
b1100010000000011000010011 %
b1100010000000011000010011 #
#1730000
b10101001110000111001 '
b10000000001001100110010110000000 )
b1100100101010001001101000 %
b1100100101010001001101000 #
#1770000
b1011100101100110011001101 '
0!
b10000011001000010101011000000000 )
b1100111010011111010100001 %
b1100111010011111010100001 #
#1810000
b10101001110011000011 '
1!
b10000110000111000100011010000000 )
b1011100101100110011001101 %
b1011100101100110011001101 #
#1850000
b10101001110010000011 '
b10001001000101110011011100000000 )
b1011111010110100110010000 %
b1011111010110100110010000 #
#1890000
b10101001110001010101 '
b10001100000100100010011110000000 )
b1100010000000011000010011 %
b1100010000000011000010011 #
#1930000
b10101001110000111001 '
b10001111000011010001100000000000 )
b1100100101010001001101000 %
b1100100101010001001101000 #
#1970000
b1011100101100110011001101 '
0!
b10010010000010000000100010000000 )
b1100111010011111010100001 %
b1100111010011111010100001 #
#2010000
b10101001110011000011 '
1!
b10010101000000101111100100000000 )
b1011100101100110011001101 %
b1011100101100110011001101 #
#2050000
b10101001110010000011 '
b10010111111111011110100110000000 )
b1011111010110100110010000 %
b1011111010110100110010000 #
#2090000
b10101001110001010101 '
b10011010111110001101101000000000 )
b1100010000000011000010011 %
b1100010000000011000010011 #
#2130000
b10101001110000111001 '
b10011101111100111100101010000000 )
b1100100101010001001101000 %
b1100100101010001001101000 #
#2170000
b1011100101100110011001101 '
0!
b10100000111011101011101100000000 )
b1100111010011111010100001 %
b1100111010011111010100001 #
#2210000
b10101001110011000011 '
1!
b10100011111010011010101110000000 )
b1011100101100110011001101 %
b1011100101100110011001101 #
#2250000
b10101001110010000011 '
b10100110111001001001110000000000 )
b1011111010110100110010000 %
b1011111010110100110010000 #
#2290000
b10101001110001010101 '
b10101001110111111000110010000000 )
b1100010000000011000010011 %
b1100010000000011000010011 #
#2330000
b10101001110000111001 '
b10101100110110100111110100000000 )
b1100100101010001001101000 %
b1100100101010001001101000 #
#2370000
b1011100101100110011001101 '
0!
b10101111110101010110110110000000 )
b1100111010011111010100001 %
b1100111010011111010100001 #
#2410000
b10101001110011000011 '
1!
b10110010110100000101111000000000 )
b1011100101100110011001101 %
b1011100101100110011001101 #
#2450000
b10101001110010000011 '
b10110101110010110100111010000000 )
b1011111010110100110010000 %
b1011111010110100110010000 #
#2490000
b10101001110001010101 '
b10111000110001100011111100000000 )
b1100010000000011000010011 %
b1100010000000011000010011 #
#2530000
b10101001110000111001 '
b10111011110000010010111110000000 )
b1100100101010001001101000 %
b1100100101010001001101000 #
#2570000
b1011100101100110011001101 '
0!
b10111110101111000010000000000000 )
b1100111010011111010100001 %
b1100111010011111010100001 #
#2610000
b10101001110011000011 '
1!
b11000001101101110001000010000000 )
b1011100101100110011001101 %
b1011100101100110011001101 #
#2650000
b10101001110010000011 '
b11000100101100100000000100000000 )
b1011111010110100110010000 %
b1011111010110100110010000 #
#2690000
b10101001110001010101 '
b11000111101011001111000110000000 )
b1100010000000011000010011 %
b1100010000000011000010011 #
#2730000
b10101001110000111001 '
b11001010101001111110001000000000 )
b1100100101010001001101000 %
b1100100101010001001101000 #
#2770000
b1011100101100110011001101 '
0!
b11001101101000101101001010000000 )
b1100111010011111010100001 %
b1100111010011111010100001 #
#2810000
b10101001110011000011 '
1!
b11010000100111011100001100000000 )
b1011100101100110011001101 %
b1011100101100110011001101 #
#2850000
b10101001110010000011 '
b11010011100110001011001110000000 )
b1011111010110100110010000 %
b1011111010110100110010000 #
#2890000
b10101001110001010101 '
b11010110100100111010010000000000 )
b1100010000000011000010011 %
b1100010000000011000010011 #
#2930000
b10101001110000111001 '
b11011001100011101001010010000000 )
b1100100101010001001101000 %
b1100100101010001001101000 #
#2970000
b1011100101100110011001101 '
0!
b11011100100010011000010100000000 )
b1100111010011111010100001 %
b1100111010011111010100001 #
#3010000
b10101001110011000011 '
1!
b11011111100001000111010110000000 )
b1011100101100110011001101 %
b1011100101100110011001101 #
#3050000
b10101001110010000011 '
b11100010011111110110011000000000 )
b1011111010110100110010000 %
b1011111010110100110010000 #
#3090000
b10101001110001010101 '
b11100101011110100101011010000000 )
b1100010000000011000010011 %
b1100010000000011000010011 #
#3130000
b10101001110000111001 '
b11101000011101010100011100000000 )
b1100100101010001001101000 %
b1100100101010001001101000 #
#3170000
b1011100101100110011001101 '
0!
b11101011011100000011011110000000 )
b1100111010011111010100001 %
b1100111010011111010100001 #
#3210000
b10101001110011000011 '
1!
b11101110011010110010100000000000 )
b1011100101100110011001101 %
b1011100101100110011001101 #
#3250000
b10101001110010000011 '
b11110001011001100001100010000000 )
b1011111010110100110010000 %
b1011111010110100110010000 #
#3290000
b10101001110001010101 '
b11110100011000010000100100000000 )
b1100010000000011000010011 %
b1100010000000011000010011 #
#3330000
b10101001110000111001 '
b11110111010110111111100110000000 )
b1100100101010001001101000 %
b1100100101010001001101000 #
#3370000
b1011100101100110011001101 '
0!
b11111010010101101110101000000000 )
b1100111010011111010100001 %
b1100111010011111010100001 #
#3410000
b10101001110011000011 '
1!
b11111101010100011101101010000000 )
b1011100101100110011001101 %
b1011100101100110011001101 #
#3450000
b10101001110010000011 '
b100000000010011001100101100000000 )
b1011111010110100110010000 %
b1011111010110100110010000 #
#3490000
b10101001110001010101 '
b100000011010001111011101110000000 )
b1100010000000011000010011 %
b1100010000000011000010011 #
#3530000
b10101001110000111001 '
b100000110010000101010110000000000 )
b1100100101010001001101000 %
b1100100101010001001101000 #
#3570000
b1011100101100110011001101 '
0!
b100001001001111011001110010000000 )
b1100111010011111010100001 %
b1100111010011111010100001 #
#3610000
b10101001110011000011 '
1!
b100001100001110001000110100000000 )
b1011100101100110011001101 %
b1011100101100110011001101 #
#3650000
b10101001110010000011 '
b100001111001100110111110110000000 )
b1011111010110100110010000 %
b1011111010110100110010000 #
#3690000
b10101001110001010101 '
b100010010001011100110111000000000 )
b1100010000000011000010011 %
b1100010000000011000010011 #
#3730000
b10101001110000111001 '
b100010101001010010101111010000000 )
b1100100101010001001101000 %
b1100100101010001001101000 #
#3770000
b1011100101100110011001101 '
0!
b100011000001001000100111100000000 )
b1100111010011111010100001 %
b1100111010011111010100001 #
#3810000
b10101001110011000011 '
1!
b100011011000111110011111110000000 )
b1011100101100110011001101 %
b1011100101100110011001101 #
#3850000
b10101001110010000011 '
b100011110000110100011000000000000 )
b1011111010110100110010000 %
b1011111010110100110010000 #
#3890000
b10101001110001010101 '
b100100001000101010010000010000000 )
b1100010000000011000010011 %
b1100010000000011000010011 #
#3930000
b10101001110000111001 '
b100100100000100000001000100000000 )
b1100100101010001001101000 %
b1100100101010001001101000 #
#3970000
b1011100101100110011001101 '
0!
b100100111000010110000000110000000 )
b1100111010011111010100001 %
b1100111010011111010100001 #
#4010000
b10101001110011000011 '
1!
b100101010000001011111001000000000 )
b1011100101100110011001101 %
b1011100101100110011001101 #
#4050000
b10101001110010000011 '
b100101101000000001110001010000000 )
b1011111010110100110010000 %
b1011111010110100110010000 #
#4090000
b10101001110001010101 '
b100101111111110111101001100000000 )
b1100010000000011000010011 %
b1100010000000011000010011 #
#4130000
b10101001110000111001 '
b100110010111101101100001110000000 )
b1100100101010001001101000 %
b1100100101010001001101000 #
#4170000
b1011100101100110011001101 '
0!
b100110101111100011011010000000000 )
b1100111010011111010100001 %
b1100111010011111010100001 #
#4210000
b10101001110011000011 '
1!
b100111000111011001010010010000000 )
b1011100101100110011001101 %
b1011100101100110011001101 #
#4250000
b10101001110010000011 '
b100111011111001111001010100000000 )
b1011111010110100110010000 %
b1011111010110100110010000 #
#4290000
b10101001110001010101 '
b100111110111000101000010110000000 )
b1100010000000011000010011 %
b1100010000000011000010011 #
#4330000
b10101001110000111001 '
b101000001110111010111011000000000 )
b1100100101010001001101000 %
b1100100101010001001101000 #
#4370000
b1011100101100110011001101 '
0!
b101000100110110000110011010000000 )
b1100111010011111010100001 %
b1100111010011111010100001 #
#4410000
b10101001110011000011 '
1!
b101000111110100110101011100000000 )
b1011100101100110011001101 %
b1011100101100110011001101 #
#4450000
b10101001110010000011 '
b101001010110011100100011110000000 )
b1011111010110100110010000 %
b1011111010110100110010000 #
#4490000
b10101001110001010101 '
b101001101110010010011100000000000 )
b1100010000000011000010011 %
b1100010000000011000010011 #
#4530000
b10101001110000111001 '
b101010000110001000010100010000000 )
b1100100101010001001101000 %
b1100100101010001001101000 #
#4570000
b1011100101100110011001101 '
0!
b101010011101111110001100100000000 )
b1100111010011111010100001 %
b1100111010011111010100001 #
#4610000
b10101001110011000011 '
1!
b101010110101110100000100110000000 )
b1011100101100110011001101 %
b1011100101100110011001101 #
#4650000
b10101001110010000011 '
b101011001101101001111101000000000 )
b1011111010110100110010000 %
b1011111010110100110010000 #
#4690000
b10101001110001010101 '
b101011100101011111110101010000000 )
b1100010000000011000010011 %
b1100010000000011000010011 #
#4730000
b10101001110000111001 '
b101011111101010101101101100000000 )
b1100100101010001001101000 %
b1100100101010001001101000 #
#4770000
b1011100101100110011001101 '
0!
b101100010101001011100101110000000 )
b1100111010011111010100001 %
b1100111010011111010100001 #
#4810000
b10101001110011000011 '
1!
b101100101101000001011110000000000 )
b1011100101100110011001101 %
b1011100101100110011001101 #
#4850000
b10101001110010000011 '
b101101000100110111010110010000000 )
b1011111010110100110010000 %
b1011111010110100110010000 #
#4890000
b10101001110001010101 '
b101101011100101101001110100000000 )
b1100010000000011000010011 %
b1100010000000011000010011 #
#4930000
b10101001110000111001 '
b101101110100100011000110110000000 )
b1100100101010001001101000 %
b1100100101010001001101000 #
#4970000
b1011100101100110011001101 '
0!
b101110001100011000111111000000000 )
b1100111010011111010100001 %
b1100111010011111010100001 #
#5010000
b10101001110011000011 '
1!
b101110100100001110110111010000000 )
b1011100101100110011001101 %
b1011100101100110011001101 #
#5050000
b10101001110010000011 '
b101110111100000100101111100000000 )
b1011111010110100110010000 %
b1011111010110100110010000 #
#5090000
b10101001110001010101 '
b101111010011111010100111110000000 )
b1100010000000011000010011 %
b1100010000000011000010011 #
#5130000
b10101001110000111001 '
b101111101011110000100000000000000 )
b1100100101010001001101000 %
b1100100101010001001101000 #
#5170000
b1011100101100110011001101 '
0!
b110000000011100110011000010000000 )
b1100111010011111010100001 %
b1100111010011111010100001 #
#5210000
b10101001110011000011 '
1!
b110000011011011100010000100000000 )
b1011100101100110011001101 %
b1011100101100110011001101 #
#5250000
b10101001110010000011 '
b110000110011010010001000110000000 )
b1011111010110100110010000 %
b1011111010110100110010000 #
#5290000
b10101001110001010101 '
b110001001011001000000001000000000 )
b1100010000000011000010011 %
b1100010000000011000010011 #
#5330000
b10101001110000111001 '
b110001100010111101111001010000000 )
b1100100101010001001101000 %
b1100100101010001001101000 #
#5370000
b1011100101100110011001101 '
0!
b110001111010110011110001100000000 )
b1100111010011111010100001 %
b1100111010011111010100001 #
#5410000
b10101001110011000011 '
1!
b110010010010101001101001110000000 )
b1011100101100110011001101 %
b1011100101100110011001101 #
#5450000
b10101001110010000011 '
b110010101010011111100010000000000 )
b1011111010110100110010000 %
b1011111010110100110010000 #
#5490000
b10101001110001010101 '
b110011000010010101011010010000000 )
b1100010000000011000010011 %
b1100010000000011000010011 #
#5530000
b10101001110000111001 '
b110011011010001011010010100000000 )
b1100100101010001001101000 %
b1100100101010001001101000 #
#5570000
b1011100101100110011001101 '
0!
b110011110010000001001010110000000 )
b1100111010011111010100001 %
b1100111010011111010100001 #
#5610000
b10101001110011000011 '
1!
b110100001001110111000011000000000 )
b1011100101100110011001101 %
b1011100101100110011001101 #
#5650000
b10101001110010000011 '
b110100100001101100111011010000000 )
b1011111010110100110010000 %
b1011111010110100110010000 #
#5690000
b10101001110001010101 '
b110100111001100010110011100000000 )
b1100010000000011000010011 %
b1100010000000011000010011 #
#5730000
b10101001110000111001 '
b110101010001011000101011110000000 )
b1100100101010001001101000 %
b1100100101010001001101000 #
#5770000
b1011100101100110011001101 '
0!
b110101101001001110100100000000000 )
b1100111010011111010100001 %
b1100111010011111010100001 #
#5810000
b10101001110011000011 '
1!
b110110000001000100011100010000000 )
b1011100101100110011001101 %
b1011100101100110011001101 #
#5850000
b10101001110010000011 '
b110110011000111010010100100000000 )
b1011111010110100110010000 %
b1011111010110100110010000 #
#5890000
b10101001110001010101 '
b110110110000110000001100110000000 )
b1100010000000011000010011 %
b1100010000000011000010011 #
#5930000
b10101001110000111001 '
b110111001000100110000101000000000 )
b1100100101010001001101000 %
b1100100101010001001101000 #
#5970000
b1011100101100110011001101 '
0!
b110111100000011011111101010000000 )
b1100111010011111010100001 %
b1100111010011111010100001 #
#6010000
b10101001110011000011 '
1!
b110111111000010001110101100000000 )
b1011100101100110011001101 %
b1011100101100110011001101 #
#6050000
b10101001110010000011 '
b111000010000000111101101110000000 )
b1011111010110100110010000 %
b1011111010110100110010000 #
#6090000
b10101001110001010101 '
b111000100111111101100110000000000 )
b1100010000000011000010011 %
b1100010000000011000010011 #
#6130000
b10101001110000111001 '
b111000111111110011011110010000000 )
b1100100101010001001101000 %
b1100100101010001001101000 #
#6170000
b1011100101100110011001101 '
0!
b111001010111101001010110100000000 )
b1100111010011111010100001 %
b1100111010011111010100001 #
#6210000
b10101001110011000011 '
1!
b111001101111011111001110110000000 )
b1011100101100110011001101 %
b1011100101100110011001101 #
#6250000
b10101001110010000011 '
b111010000111010101000111000000000 )
b1011111010110100110010000 %
b1011111010110100110010000 #
#6290000
b10101001110001010101 '
b111010011111001010111111010000000 )
b1100010000000011000010011 %
b1100010000000011000010011 #
#6330000
b10101001110000111001 '
b111010110111000000110111100000000 )
b1100100101010001001101000 %
b1100100101010001001101000 #
#6370000
b1011100101100110011001101 '
0!
b111011001110110110101111110000000 )
b1100111010011111010100001 %
b1100111010011111010100001 #
#6410000
b10101001110011000011 '
1!
b111011100110101100101000000000000 )
b1011100101100110011001101 %
b1011100101100110011001101 #
#6450000
b10101001110010000011 '
b111011111110100010100000010000000 )
b1011111010110100110010000 %
b1011111010110100110010000 #
#6490000
b10101001110001010101 '
b111100010110011000011000100000000 )
b1100010000000011000010011 %
b1100010000000011000010011 #
#6530000
b10101001110000111001 '
b111100101110001110010000110000000 )
b1100100101010001001101000 %
b1100100101010001001101000 #
#6570000
b1011100101100110011001101 '
0!
b111101000110000100001001000000000 )
b1100111010011111010100001 %
b1100111010011111010100001 #
#6610000
b10101001110011000011 '
1!
b111101011101111010000001010000000 )
b1011100101100110011001101 %
b1011100101100110011001101 #
#6650000
b10101001110010000011 '
b111101110101101111111001100000000 )
b1011111010110100110010000 %
b1011111010110100110010000 #
#6690000
b10101001110001010101 '
b111110001101100101110001110000000 )
b1100010000000011000010011 %
b1100010000000011000010011 #
#6730000
b10101001110000111001 '
b111110100101011011101010000000000 )
b1100100101010001001101000 %
b1100100101010001001101000 #
#6770000
b1011100101100110011001101 '
0!
b111110111101010001100010010000000 )
b1100111010011111010100001 %
b1100111010011111010100001 #
#6810000
b10101001110011000011 '
1!
b111111010101000111011010100000000 )
b1011100101100110011001101 %
b1011100101100110011001101 #
#6850000
b10101001110010000011 '
b111111101100111101010010110000000 )
b1011111010110100110010000 %
b1011111010110100110010000 #
#6890000
b10101001110001010101 '
b1000000000100110011001011000000000 )
b1100010000000011000010011 %
b1100010000000011000010011 #
#6930000
b10101001110000111001 '
b1000000011100101001000011010000000 )
b1100100101010001001101000 %
b1100100101010001001101000 #
#6970000
b1011100101100110011001101 '
0!
b1000000110100011110111011100000000 )
b1100111010011111010100001 %
b1100111010011111010100001 #
#7010000
b10101001110011000011 '
1!
b1000001001100010100110011110000000 )
b1011100101100110011001101 %
b1011100101100110011001101 #
#7050000
b10101001110010000011 '
b1000001100100001010101100000000000 )
b1011111010110100110010000 %
b1011111010110100110010000 #
#7090000
b10101001110001010101 '
b1000001111100000000100100010000000 )
b1100010000000011000010011 %
b1100010000000011000010011 #
#7130000
b10101001110000111001 '
b1000010010011110110011100100000000 )
b1100100101010001001101000 %
b1100100101010001001101000 #
#7170000
b1011100101100110011001101 '
0!
b1000010101011101100010100110000000 )
b1100111010011111010100001 %
b1100111010011111010100001 #
#7210000
b10101001110011000011 '
1!
b1000011000011100010001101000000000 )
b1011100101100110011001101 %
b1011100101100110011001101 #
#7250000
b10101001110010000011 '
b1000011011011011000000101010000000 )
b1011111010110100110010000 %
b1011111010110100110010000 #
#7290000
b10101001110001010101 '
b1000011110011001101111101100000000 )
b1100010000000011000010011 %
b1100010000000011000010011 #
#7330000
b10101001110000111001 '
b1000100001011000011110101110000000 )
b1100100101010001001101000 %
b1100100101010001001101000 #
#7370000
b1011100101100110011001101 '
0!
b1000100100010111001101110000000000 )
b1100111010011111010100001 %
b1100111010011111010100001 #
#7410000
b10101001110011000011 '
1!
b1000100111010101111100110010000000 )
b1011100101100110011001101 %
b1011100101100110011001101 #
#7450000
b10101001110010000011 '
b1000101010010100101011110100000000 )
b1011111010110100110010000 %
b1011111010110100110010000 #
#7490000
b10101001110001010101 '
b1000101101010011011010110110000000 )
b1100010000000011000010011 %
b1100010000000011000010011 #
#7530000
b10101001110000111001 '
b1000110000010010001001111000000000 )
b1100100101010001001101000 %
b1100100101010001001101000 #
#7570000
b1011100101100110011001101 '
0!
b1000110011010000111000111010000000 )
b1100111010011111010100001 %
b1100111010011111010100001 #
#7610000
b10101001110011000011 '
1!
b1000110110001111100111111100000000 )
b1011100101100110011001101 %
b1011100101100110011001101 #
#7650000
b10101001110010000011 '
b1000111001001110010110111110000000 )
b1011111010110100110010000 %
b1011111010110100110010000 #
#7690000
b10101001110001010101 '
b1000111100001101000110000000000000 )
b1100010000000011000010011 %
b1100010000000011000010011 #
#7730000
b10101001110000111001 '
b1000111111001011110101000010000000 )
b1100100101010001001101000 %
b1100100101010001001101000 #
#7770000
b1011100101100110011001101 '
0!
b1001000010001010100100000100000000 )
b1100111010011111010100001 %
b1100111010011111010100001 #
#7810000
b10101001110011000011 '
1!
b1001000101001001010011000110000000 )
b1011100101100110011001101 %
b1011100101100110011001101 #
#7850000
b10101001110010000011 '
b1001001000001000000010001000000000 )
b1011111010110100110010000 %
b1011111010110100110010000 #
#7890000
b10101001110001010101 '
b1001001011000110110001001010000000 )
b1100010000000011000010011 %
b1100010000000011000010011 #
#7930000
b10101001110000111001 '
b1001001110000101100000001100000000 )
b1100100101010001001101000 %
b1100100101010001001101000 #
#7970000
b1011100101100110011001101 '
0!
b1001010001000100001111001110000000 )
b1100111010011111010100001 %
b1100111010011111010100001 #
#8010000
b10101001110011000011 '
1!
b1001010100000010111110010000000000 )
b1011100101100110011001101 %
b1011100101100110011001101 #
#8050000
b10101001110010000011 '
b1001010111000001101101010010000000 )
b1011111010110100110010000 %
b1011111010110100110010000 #
#8090000
b10101001110001010101 '
b1001011010000000011100010100000000 )
b1100010000000011000010011 %
b1100010000000011000010011 #
#8130000
b10101001110000111001 '
b1001011100111111001011010110000000 )
b1100100101010001001101000 %
b1100100101010001001101000 #
#8170000
b1011100101100110011001101 '
0!
b1001011111111101111010011000000000 )
b1100111010011111010100001 %
b1100111010011111010100001 #
#8210000
b10101001110011000011 '
1!
b1001100010111100101001011010000000 )
b1011100101100110011001101 %
b1011100101100110011001101 #
#8250000
b10101001110010000011 '
b1001100101111011011000011100000000 )
b1011111010110100110010000 %
b1011111010110100110010000 #
#8290000
b10101001110001010101 '
b1001101000111010000111011110000000 )
b1100010000000011000010011 %
b1100010000000011000010011 #
#8330000
b10101001110000111001 '
b1001101011111000110110100000000000 )
b1100100101010001001101000 %
b1100100101010001001101000 #
#8370000
b1011100101100110011001101 '
0!
b1001101110110111100101100010000000 )
b1100111010011111010100001 %
b1100111010011111010100001 #
#8410000
b10101001110011000011 '
1!
b1001110001110110010100100100000000 )
b1011100101100110011001101 %
b1011100101100110011001101 #
#8450000
b10101001110010000011 '
b1001110100110101000011100110000000 )
b1011111010110100110010000 %
b1011111010110100110010000 #
#8490000
b10101001110001010101 '
b1001110111110011110010101000000000 )
b1100010000000011000010011 %
b1100010000000011000010011 #
#8530000
b10101001110000111001 '
b1001111010110010100001101010000000 )
b1100100101010001001101000 %
b1100100101010001001101000 #
#8570000
b1011100101100110011001101 '
0!
b1001111101110001010000101100000000 )
b1100111010011111010100001 %
b1100111010011111010100001 #
#8610000
b10101001110011000011 '
1!
b1010000000101111111111101110000000 )
b1011100101100110011001101 %
b1011100101100110011001101 #
#8650000
b10101001110010000011 '
b1010000011101110101110110000000000 )
b1011111010110100110010000 %
b1011111010110100110010000 #
#8690000
b10101001110001010101 '
b1010000110101101011101110010000000 )
b1100010000000011000010011 %
b1100010000000011000010011 #
#8730000
b10101001110000111001 '
b1010001001101100001100110100000000 )
b1100100101010001001101000 %
b1100100101010001001101000 #
#8770000
b1011100101100110011001101 '
0!
b1010001100101010111011110110000000 )
b1100111010011111010100001 %
b1100111010011111010100001 #
#8810000
b10101001110011000011 '
1!
b1010001111101001101010111000000000 )
b1011100101100110011001101 %
b1011100101100110011001101 #
#8850000
b10101001110010000011 '
b1010010010101000011001111010000000 )
b1011111010110100110010000 %
b1011111010110100110010000 #
#8890000
b10101001110001010101 '
b1010010101100111001000111100000000 )
b1100010000000011000010011 %
b1100010000000011000010011 #
#8930000
b10101001110000111001 '
b1010011000100101110111111110000000 )
b1100100101010001001101000 %
b1100100101010001001101000 #
#8970000
b1011100101100110011001101 '
0!
b1010011011100100100111000000000000 )
b1100111010011111010100001 %
b1100111010011111010100001 #
#9010000
b10101001110011000011 '
1!
b1010011110100011010110000010000000 )
b1011100101100110011001101 %
b1011100101100110011001101 #
#9050000
b10101001110010000011 '
b1010100001100010000101000100000000 )
b1011111010110100110010000 %
b1011111010110100110010000 #
#9090000
b10101001110001010101 '
b1010100100100000110100000110000000 )
b1100010000000011000010011 %
b1100010000000011000010011 #
#9130000
b10101001110000111001 '
b1010100111011111100011001000000000 )
b1100100101010001001101000 %
b1100100101010001001101000 #
#9170000
b1011100101100110011001101 '
0!
b1010101010011110010010001010000000 )
b1100111010011111010100001 %
b1100111010011111010100001 #
#9210000
b10101001110011000011 '
1!
b1010101101011101000001001100000000 )
b1011100101100110011001101 %
b1011100101100110011001101 #
#9250000
b10101001110010000011 '
b1010110000011011110000001110000000 )
b1011111010110100110010000 %
b1011111010110100110010000 #
#9290000
b10101001110001010101 '
b1010110011011010011111010000000000 )
b1100010000000011000010011 %
b1100010000000011000010011 #
#9330000
b10101001110000111001 '
b1010110110011001001110010010000000 )
b1100100101010001001101000 %
b1100100101010001001101000 #
#9370000
b1011100101100110011001101 '
0!
b1010111001010111111101010100000000 )
b1100111010011111010100001 %
b1100111010011111010100001 #
#9410000
b10101001110011000011 '
1!
b1010111100010110101100010110000000 )
b1011100101100110011001101 %
b1011100101100110011001101 #
#9450000
b10101001110010000011 '
b1010111111010101011011011000000000 )
b1011111010110100110010000 %
b1011111010110100110010000 #
#9490000
b10101001110001010101 '
b1011000010010100001010011010000000 )
b1100010000000011000010011 %
b1100010000000011000010011 #
#9530000
b10101001110000111001 '
b1011000101010010111001011100000000 )
b1100100101010001001101000 %
b1100100101010001001101000 #
#9570000
b1011100101100110011001101 '
0!
b1011001000010001101000011110000000 )
b1100111010011111010100001 %
b1100111010011111010100001 #
#9610000
b10101001110011000011 '
1!
b1011001011010000010111100000000000 )
b1011100101100110011001101 %
b1011100101100110011001101 #
#9650000
b10101001110010000011 '
b1011001110001111000110100010000000 )
b1011111010110100110010000 %
b1011111010110100110010000 #
