neuron/build/sim/raw_results/top_sim.vcd
$date
	Thu Jun  6 15:23:46 2024
$end
$version
	Icarus Verilog
$end
$timescale
	1ps
$end
$scope module top $end
$scope module trace_port_gen_i $end
$var wire 1 ! digital_sel_probe $end
$upscope $end
$upscope $end
$scope module top $end
$scope module trace_port_gen_i $end
$var wire 25 " i_in_probe [24:0] $end
$upscope $end
$upscope $end
$scope module top $end
$scope module trace_port_gen_i $end
$var wire 25 # v_out_probe [24:0] $end
$upscope $end
$upscope $end
$scope module top $end
$scope module trace_port_gen_i $end
$var wire 25 $ v_out_exp_probe [24:0] $end
$upscope $end
$upscope $end
$scope module top $end
$scope module trace_port_gen_i $end
$var wire 25 % v_out_lin_probe [24:0] $end
$upscope $end
$upscope $end
$scope module top $end
$scope module trace_port_gen_i $end
$var wire 25 & v_out_i_probe [24:0] $end
$upscope $end
$upscope $end
$scope module top $end
$scope module trace_port_gen_i $end
$var wire 25 ' v_out_i_mult_probe [24:0] $end
$upscope $end
$upscope $end
$scope module top $end
$scope module trace_port_gen_i $end
$var wire 25 ( dv_out_probe [24:0] $end
$upscope $end
$upscope $end
$scope module top $end
$scope module trace_port_gen_i $end
$var wire 64 ) emu_time [63:0] $end
$upscope $end
$upscope $end
$scope module top $end
$scope module trace_port_gen_i $end
$var wire 1 * emu_dec_cmp $end
$upscope $end
$upscope $end
$enddefinitions $end
#0
$dumpvars
x*
bx )
b0 (
b0 '
b110001001 &
bx %
b0 $
bx #
b110001001001101110100110 "
x!
$end
#10000
b1000101 '
1!
1*
b0 )
b1011101000000000000000000 %
b1011101000000000000000000 #
#50000
b1011100101100110011001101 '
0!
b10011000100101101000000 )
b1101000001010001000000 %
b1101000001010001000000 #
#90000
b100110001001011010000000 )
b1111111111101101111000000 %
b1111111111101101111000000 #
#130000
b111001001110000111000000 )
#170000
b1001100010010110100000000 )
#210000
b1011111010111100001000000 )
#250000
b1110010011100001110000000 )
#290000
b10000101100000111011000000 )
#330000
b10011000100101101000000000 )
#370000
b10101011101010010101000000 )
#410000
b10111110101111000010000000 )
#450000
b11010001110011101111000000 )
#490000
b11100100111000011100000000 )
#530000
b11110111111101001001000000 )
#570000
b100001011000001110110000000 )
#610000
b100011110000110100011000000 )
#650000
b100110001001011010000000000 )
#690000
b101000100001111111101000000 )
#730000
b101010111010100101010000000 )
#770000
b101101010011001010111000000 )
#810000
b101111101011110000100000000 )
#850000
b110010000100010110001000000 )
#890000
b110100011100111011110000000 )
#930000
b110110110101100001011000000 )
#970000
b111001001110000111000000000 )
#1010000
b111011100110101100101000000 )
#1050000
b111101111111010010010000000 )
#1090000
b1000000010111110111111000000 )
#1130000
b1000010110000011101100000000 )
#1170000
b1000101001001000011001000000 )
#1210000
b1000111100001101000110000000 )
#1250000
b1001001111010001110011000000 )
#1290000
b1001100010010110100000000000 )
#1330000
b1001110101011011001101000000 )
#1370000
b1010001000011111111010000000 )
#1410000
b1010011011100100100111000000 )
#1450000
b1010101110101001010100000000 )
#1490000
b1011000001101110000001000000 )
#1530000
b1011010100110010101110000000 )
#1570000
b1011100111110111011011000000 )
#1610000
b1011111010111100001000000000 )
#1650000
b1100001110000000110101000000 )
#1690000
b1100100001000101100010000000 )
#1730000
b1100110100001010001111000000 )
#1770000
b1101000111001110111100000000 )
#1810000
b1101011010010011101001000000 )
#1850000
b1101101101011000010110000000 )
#1890000
b1110000000011101000011000000 )
#1930000
b1110010011100001110000000000 )
#1970000
b1110100110100110011101000000 )
#2010000
b1110111001101011001010000000 )
#2050000
b1111001100101111110111000000 )
#2090000
b1111011111110100100100000000 )
#2130000
b1111110010111001010001000000 )
#2170000
b10000000101111101111110000000 )
#2210000
b10000011001000010101011000000 )
#2250000
b10000101100000111011000000000 )
#2290000
b10000111111001100000101000000 )
#2330000
b10001010010010000110010000000 )
#2370000
b10001100101010101011111000000 )
#2410000
b10001111000011010001100000000 )
#2450000
b10010001011011110111001000000 )
#2490000
b10010011110100011100110000000 )
#2530000
b10010110001101000010011000000 )
#2570000
b10011000100101101000000000000 )
#2610000
b10011010111110001101101000000 )
#2650000
b10011101010110110011010000000 )
#2690000
b10011111101111011000111000000 )
#2730000
b10100010000111111110100000000 )
#2770000
b10100100100000100100001000000 )
#2810000
b10100110111001001001110000000 )
#2850000
b10101001010001101111011000000 )
#2890000
b10101011101010010101000000000 )
#2930000
b10101110000010111010101000000 )
#2970000
b10110000011011100000010000000 )
#3010000
b10110010110100000101111000000 )
#3050000
b10110101001100101011100000000 )
#3090000
b10110111100101010001001000000 )
#3130000
b10111001111101110110110000000 )
#3170000
b10111100010110011100011000000 )
#3210000
b10111110101111000010000000000 )
#3250000
b11000001000111100111101000000 )
#3290000
b11000011100000001101010000000 )
#3330000
b11000101111000110010111000000 )
#3370000
b11001000010001011000100000000 )
#3410000
b11001010101001111110001000000 )
#3450000
b11001101000010100011110000000 )
#3490000
b11001111011011001001011000000 )
#3530000
b11010001110011101111000000000 )
#3570000
b11010100001100010100101000000 )
#3610000
b11010110100100111010010000000 )
#3650000
b11011000111101011111111000000 )
#3690000
b11011011010110000101100000000 )
#3730000
b11011101101110101011001000000 )
#3770000
b11100000000111010000110000000 )
#3810000
b11100010011111110110011000000 )
#3850000
b11100100111000011100000000000 )
#3890000
b11100111010001000001101000000 )
#3930000
b11101001101001100111010000000 )
#3970000
b11101100000010001100111000000 )
#4010000
b11101110011010110010100000000 )
#4050000
b11110000110011011000001000000 )
#4090000
b11110011001011111101110000000 )
#4130000
b11110101100100100011011000000 )
#4170000
b11110111111101001001000000000 )
#4210000
b11111010010101101110101000000 )
#4250000
b11111100101110010100010000000 )
#4290000
b11111111000110111001111000000 )
#4330000
b100000001011111011111100000000 )
#4370000
b100000011111000000101001000000 )
#4410000
b100000110010000101010110000000 )
#4450000
b100001000101001010000011000000 )
#4490000
b100001011000001110110000000000 )
#4530000
b100001101011010011011101000000 )
#4570000
b100001111110011000001010000000 )
#4610000
b100010010001011100110111000000 )
#4650000
b100010100100100001100100000000 )
#4690000
b100010110111100110010001000000 )
#4730000
b100011001010101010111110000000 )
#4770000
b100011011101101111101011000000 )
#4810000
b100011110000110100011000000000 )
#4850000
b100100000011111001000101000000 )
#4890000
b100100010110111101110010000000 )
#4930000
b100100101010000010011111000000 )
#4970000
b100100111101000111001100000000 )
#5010000
b100101010000001011111001000000 )
#5050000
b100101100011010000100110000000 )
#5090000
b100101110110010101010011000000 )
#5130000
b100110001001011010000000000000 )
#5170000
b100110011100011110101101000000 )
#5210000
b100110101111100011011010000000 )
#5250000
b100111000010101000000111000000 )
#5290000
b100111010101101100110100000000 )
#5330000
b100111101000110001100001000000 )
#5370000
b100111111011110110001110000000 )
#5410000
b101000001110111010111011000000 )
#5450000
b101000100001111111101000000000 )
#5490000
b101000110101000100010101000000 )
#5530000
b101001001000001001000010000000 )
#5570000
b101001011011001101101111000000 )
#5610000
b101001101110010010011100000000 )
#5650000
b101010000001010111001001000000 )
#5690000
b101010010100011011110110000000 )
#5730000
b101010100111100000100011000000 )
#5770000
b101010111010100101010000000000 )
#5810000
b101011001101101001111101000000 )
#5850000
b101011100000101110101010000000 )
#5890000
b101011110011110011010111000000 )
#5930000
b101100000110111000000100000000 )
#5970000
b101100011001111100110001000000 )
#6010000
b101100101101000001011110000000 )
#6050000
b101101000000000110001011000000 )
#6090000
b101101010011001010111000000000 )
#6130000
b101101100110001111100101000000 )
#6170000
b101101111001010100010010000000 )
#6210000
b101110001100011000111111000000 )
#6250000
b101110011111011101101100000000 )
#6290000
b101110110010100010011001000000 )
#6330000
b101111000101100111000110000000 )
#6370000
b101111011000101011110011000000 )
#6410000
b101111101011110000100000000000 )
#6450000
b101111111110110101001101000000 )
#6490000
b110000010001111001111010000000 )
#6530000
b110000100100111110100111000000 )
#6570000
b110000111000000011010100000000 )
#6610000
b110001001011001000000001000000 )
#6650000
b110001011110001100101110000000 )
#6690000
b110001110001010001011011000000 )
#6730000
b110010000100010110001000000000 )
#6770000
b110010010111011010110101000000 )
#6810000
b110010101010011111100010000000 )
#6850000
b110010111101100100001111000000 )
#6890000
b110011010000101000111100000000 )
#6930000
b110011100011101101101001000000 )
#6970000
b110011110110110010010110000000 )
#7010000
b110100001001110111000011000000 )
#7050000
b110100011100111011110000000000 )
#7090000
b110100110000000000011101000000 )
#7130000
b110101000011000101001010000000 )
#7170000
b110101010110001001110111000000 )
#7210000
b110101101001001110100100000000 )
#7250000
b110101111100010011010001000000 )
#7290000
b110110001111010111111110000000 )
#7330000
b110110100010011100101011000000 )
#7370000
b110110110101100001011000000000 )
#7410000
b110111001000100110000101000000 )
#7450000
b110111011011101010110010000000 )
#7490000
b110111101110101111011111000000 )
#7530000
b111000000001110100001100000000 )
#7570000
b111000010100111000111001000000 )
#7610000
b111000100111111101100110000000 )
#7650000
b111000111011000010010011000000 )
#7690000
b111001001110000111000000000000 )
#7730000
b111001100001001011101101000000 )
#7770000
b111001110100010000011010000000 )
#7810000
b111010000111010101000111000000 )
#7850000
b111010011010011001110100000000 )
#7890000
b111010101101011110100001000000 )
#7930000
b111011000000100011001110000000 )
#7970000
b111011010011100111111011000000 )
#8010000
b111011100110101100101000000000 )
#8050000
b111011111001110001010101000000 )
#8090000
b111100001100110110000010000000 )
#8130000
b111100011111111010101111000000 )
#8170000
b111100110010111111011100000000 )
#8210000
b111101000110000100001001000000 )
#8250000
b111101011001001000110110000000 )
#8290000
b111101101100001101100011000000 )
#8330000
b111101111111010010010000000000 )
#8370000
b111110010010010110111101000000 )
#8410000
b111110100101011011101010000000 )
#8450000
b111110111000100000010111000000 )
#8490000
b111111001011100101000100000000 )
#8530000
b111111011110101001110001000000 )
#8570000
b111111110001101110011110000000 )
#8610000
b1000000000100110011001011000000 )
#8650000
b1000000010111110111111000000000 )
#8690000
b1000000101010111100100101000000 )
#8730000
b1000000111110000001010010000000 )
#8770000
b1000001010001000101111111000000 )
#8810000
b1000001100100001010101100000000 )
#8850000
b1000001110111001111011001000000 )
#8890000
b1000010001010010100000110000000 )
#8930000
b1000010011101011000110011000000 )
#8970000
b1000010110000011101100000000000 )
#9010000
b1000011000011100010001101000000 )
#9050000
b1000011010110100110111010000000 )
#9090000
b1000011101001101011100111000000 )
#9130000
b1000011111100110000010100000000 )
#9170000
b1000100001111110101000001000000 )
#9210000
b1000100100010111001101110000000 )
#9250000
b1000100110101111110011011000000 )
#9290000
b1000101001001000011001000000000 )
#9330000
b1000101011100000111110101000000 )
#9370000
b1000101101111001100100010000000 )
#9410000
b1000110000010010001001111000000 )
#9450000
b1000110010101010101111100000000 )
#9490000
b1000110101000011010101001000000 )
#9530000
b1000110111011011111010110000000 )
#9570000
b1000111001110100100000011000000 )
#9610000
b1000111100001101000110000000000 )
#9650000
b1000111110100101101011101000000 )
#9690000
b1001000000111110010001010000000 )
#9730000
b1001000011010110110110111000000 )
#9770000
b1001000101101111011100100000000 )
#9810000
b1001001000001000000010001000000 )
#9850000
b1001001010100000100111110000000 )
#9890000
b1001001100111001001101011000000 )
#9930000
b1001001111010001110011000000000 )
#9970000
b1001010001101010011000101000000 )
#10010000
b1001010100000010111110010000000 )
#10050000
b1001010110011011100011111000000 )
#10090000
b1001011000110100001001100000000 )
#10130000
b1001011011001100101111001000000 )
#10170000
b1001011101100101010100110000000 )
#10210000
b1001011111111101111010011000000 )
#10250000
b1001100010010110100000000000000 )
#10290000
b1001100100101111000101101000000 )
#10330000
b1001100111000111101011010000000 )
#10370000
b1001101001100000010000111000000 )
#10410000
b1001101011111000110110100000000 )
#10450000
b1001101110010001011100001000000 )
#10490000
b1001110000101010000001110000000 )
#10530000
b1001110011000010100111011000000 )
#10570000
b1001110101011011001101000000000 )
#10610000
b1001110111110011110010101000000 )
#10650000
b1001111010001100011000010000000 )
#10690000
b1001111100100100111101111000000 )
#10730000
b1001111110111101100011100000000 )
#10770000
b1010000001010110001001001000000 )
#10810000
b1010000011101110101110110000000 )
#10850000
b1010000110000111010100011000000 )
#10890000
b1010001000011111111010000000000 )
#10930000
b1010001010111000011111101000000 )
#10970000
b1010001101010001000101010000000 )
#11010000
b1010001111101001101010111000000 )
#11050000
b1010010010000010010000100000000 )
#11090000
b1010010100011010110110001000000 )
#11130000
b1010010110110011011011110000000 )
#11170000
b1010011001001100000001011000000 )
#11210000
b1010011011100100100111000000000 )
#11250000
b1010011101111101001100101000000 )
#11290000
b1010100000010101110010010000000 )
#11330000
b1010100010101110010111111000000 )
#11370000
b1010100101000110111101100000000 )
#11410000
b1010100111011111100011001000000 )
#11450000
b1010101001111000001000110000000 )
#11490000
b1010101100010000101110011000000 )
#11530000
b1010101110101001010100000000000 )
#11570000
b1010110001000001111001101000000 )
#11610000
b1010110011011010011111010000000 )
#11650000
b1010110101110011000100111000000 )
#11690000
b1010111000001011101010100000000 )
#11730000
b1010111010100100010000001000000 )
#11770000
b1010111100111100110101110000000 )
#11810000
b1010111111010101011011011000000 )
#11850000
b1011000001101110000001000000000 )
#11890000
b1011000100000110100110101000000 )
#11930000
b1011000110011111001100010000000 )
#11970000
b1011001000110111110001111000000 )
#12010000
b1011001011010000010111100000000 )
#12050000
b1011001101101000111101001000000 )
#12090000
b1011010000000001100010110000000 )
#12130000
b1011010010011010001000011000000 )
#12170000
b1011010100110010101110000000000 )
#12210000
b1011010111001011010011101000000 )
#12250000
b1011011001100011111001010000000 )
#12290000
b1011011011111100011110111000000 )
#12330000
b1011011110010101000100100000000 )
#12370000
b1011100000101101101010001000000 )
#12410000
b1011100011000110001111110000000 )
#12450000
b1011100101011110110101011000000 )
#12490000
b1011100111110111011011000000000 )
#12530000
b1011101010010000000000101000000 )
#12570000
b1011101100101000100110010000000 )
#12610000
b1011101111000001001011111000000 )
#12650000
b1011110001011001110001100000000 )
#12690000
b1011110011110010010111001000000 )
#12730000
b1011110110001010111100110000000 )
#12770000
b1011111000100011100010011000000 )
#12810000
b1011111010111100001000000000000 )
#12850000
b1011111101010100101101101000000 )
#12890000
b1011111111101101010011010000000 )
#12930000
b1100000010000101111000111000000 )
#12970000
b1100000100011110011110100000000 )
#13010000
b1100000110110111000100001000000 )
#13050000
b1100001001001111101001110000000 )
#13090000
b1100001011101000001111011000000 )
#13130000
b1100001110000000110101000000000 )
#13170000
b1100010000011001011010101000000 )
#13210000
b1100010010110010000000010000000 )
#13250000
b1100010101001010100101111000000 )
#13290000
b1100010111100011001011100000000 )
#13330000
b1100011001111011110001001000000 )
#13370000
b1100011100010100010110110000000 )
#13410000
b1100011110101100111100011000000 )
#13450000
b1100100001000101100010000000000 )
#13490000
b1100100011011110000111101000000 )
#13530000
b1100100101110110101101010000000 )
#13570000
b1100101000001111010010111000000 )
#13610000
b1100101010100111111000100000000 )
#13650000
b1100101101000000011110001000000 )
#13690000
b1100101111011001000011110000000 )
#13730000
b1100110001110001101001011000000 )
#13770000
b1100110100001010001111000000000 )
#13810000
b1100110110100010110100101000000 )
#13850000
b1100111000111011011010010000000 )
#13890000
b1100111011010011111111111000000 )
#13930000
b1100111101101100100101100000000 )
#13970000
b1101000000000101001011001000000 )
#14010000
b1101000010011101110000110000000 )
#14050000
b1101000100110110010110011000000 )
#14090000
b1101000111001110111100000000000 )
#14130000
b1101001001100111100001101000000 )
#14170000
b1101001100000000000111010000000 )
#14210000
b1101001110011000101100111000000 )
#14250000
b1101010000110001010010100000000 )
#14290000
b1101010011001001111000001000000 )
#14330000
b1101010101100010011101110000000 )
#14370000
b1101010111111011000011011000000 )
#14410000
b1101011010010011101001000000000 )
#14450000
b1101011100101100001110101000000 )
#14490000
b1101011111000100110100010000000 )
#14530000
b1101100001011101011001111000000 )
#14570000
b1101100011110101111111100000000 )
#14610000
b1101100110001110100101001000000 )
#14650000
b1101101000100111001010110000000 )
#14690000
b1101101010111111110000011000000 )
#14730000
b1101101101011000010110000000000 )
#14770000
b1101101111110000111011101000000 )
#14810000
b1101110010001001100001010000000 )
#14850000
b1101110100100010000110111000000 )
#14890000
b1101110110111010101100100000000 )
#14930000
b1101111001010011010010001000000 )
#14970000
b1101111011101011110111110000000 )
#15010000
b1101111110000100011101011000000 )
#15050000
b1110000000011101000011000000000 )
#15090000
b1110000010110101101000101000000 )
#15130000
b1110000101001110001110010000000 )
#15170000
b1110000111100110110011111000000 )
#15210000
b1110001001111111011001100000000 )
#15250000
b1110001100010111111111001000000 )
#15290000
b1110001110110000100100110000000 )
#15330000
b1110010001001001001010011000000 )
#15370000
b1110010011100001110000000000000 )
#15410000
b1110010101111010010101101000000 )
#15450000
b1110011000010010111011010000000 )
#15490000
b1110011010101011100000111000000 )
#15530000
b1110011101000100000110100000000 )
#15570000
b1110011111011100101100001000000 )
#15610000
b1110100001110101010001110000000 )
#15650000
b1110100100001101110111011000000 )
#15690000
b1110100110100110011101000000000 )
#15730000
b1110101000111111000010101000000 )
#15770000
b1110101011010111101000010000000 )
#15810000
b1110101101110000001101111000000 )
#15850000
b1110110000001000110011100000000 )
#15890000
b1110110010100001011001001000000 )
#15930000
b1110110100111001111110110000000 )
#15970000
b1110110111010010100100011000000 )
#16010000
b1110111001101011001010000000000 )
#16050000
b1110111100000011101111101000000 )
#16090000
b1110111110011100010101010000000 )
#16130000
b1111000000110100111010111000000 )
#16170000
b1111000011001101100000100000000 )
#16210000
b1111000101100110000110001000000 )
#16250000
b1111000111111110101011110000000 )
#16290000
b1111001010010111010001011000000 )
#16330000
b1111001100101111110111000000000 )
#16370000
b1111001111001000011100101000000 )
#16410000
b1111010001100001000010010000000 )
#16450000
b1111010011111001100111111000000 )
#16490000
b1111010110010010001101100000000 )
#16530000
b1111011000101010110011001000000 )
#16570000
b1111011011000011011000110000000 )
#16610000
b1111011101011011111110011000000 )
#16650000
b1111011111110100100100000000000 )
#16690000
b1111100010001101001001101000000 )
#16730000
b1111100100100101101111010000000 )
#16770000
b1111100110111110010100111000000 )
#16810000
b1111101001010110111010100000000 )
#16850000
b1111101011101111100000001000000 )
#16890000
b1111101110001000000101110000000 )
#16930000
b1111110000100000101011011000000 )
#16970000
b1111110010111001010001000000000 )
#17010000
b1111110101010001110110101000000 )
#17050000
b1111110111101010011100010000000 )
#17090000
b1111111010000011000001111000000 )
#17130000
b1111111100011011100111100000000 )
#17170000
b1111111110110100001101001000000 )
#17210000
b10000000001001100110010110000000 )
#17250000
b10000000011100101011000011000000 )
#17290000
b10000000101111101111110000000000 )
#17330000
b10000001000010110100011101000000 )
#17370000
b10000001010101111001001010000000 )
#17410000
b10000001101000111101110111000000 )
#17450000
b10000001111100000010100100000000 )
#17490000
b10000010001111000111010001000000 )
#17530000
b10000010100010001011111110000000 )
#17570000
b10000010110101010000101011000000 )
#17610000
b10000011001000010101011000000000 )
#17650000
b10000011011011011010000101000000 )
#17690000
b10000011101110011110110010000000 )
#17730000
b10000100000001100011011111000000 )
#17770000
b10000100010100101000001100000000 )
#17810000
b10000100100111101100111001000000 )
#17850000
b10000100111010110001100110000000 )
#17890000
b10000101001101110110010011000000 )
#17930000
b10000101100000111011000000000000 )
#17970000
b10000101110011111111101101000000 )
#18010000
b10000110000111000100011010000000 )
#18050000
b10000110011010001001000111000000 )
#18090000
b10000110101101001101110100000000 )
#18130000
b10000111000000010010100001000000 )
#18170000
b10000111010011010111001110000000 )
#18210000
b10000111100110011011111011000000 )
#18250000
b10000111111001100000101000000000 )
#18290000
b10001000001100100101010101000000 )
#18330000
b10001000011111101010000010000000 )
#18370000
b10001000110010101110101111000000 )
#18410000
b10001001000101110011011100000000 )
#18450000
b10001001011000111000001001000000 )
#18490000
b10001001101011111100110110000000 )
#18530000
b10001001111111000001100011000000 )
#18570000
b10001010010010000110010000000000 )
#18610000
b10001010100101001010111101000000 )
#18650000
b10001010111000001111101010000000 )
#18690000
b10001011001011010100010111000000 )
#18730000
b10001011011110011001000100000000 )
#18770000
b10001011110001011101110001000000 )
#18810000
b10001100000100100010011110000000 )
#18850000
b10001100010111100111001011000000 )
#18890000
b10001100101010101011111000000000 )
#18930000
b10001100111101110000100101000000 )
#18970000
b10001101010000110101010010000000 )
#19010000
b10001101100011111001111111000000 )
#19050000
b10001101110110111110101100000000 )
#19090000
b10001110001010000011011001000000 )
#19130000
b10001110011101001000000110000000 )
#19170000
b10001110110000001100110011000000 )
#19210000
b10001111000011010001100000000000 )
#19250000
b10001111010110010110001101000000 )
#19290000
b10001111101001011010111010000000 )
#19330000
b10001111111100011111100111000000 )
#19370000
b10010000001111100100010100000000 )
#19410000
b10010000100010101001000001000000 )
#19450000
b10010000110101101101101110000000 )
#19490000
b10010001001000110010011011000000 )
#19530000
b10010001011011110111001000000000 )
#19570000
b10010001101110111011110101000000 )
#19610000
b10010010000010000000100010000000 )
#19650000
b10010010010101000101001111000000 )
#19690000
b10010010101000001001111100000000 )
#19730000
b10010010111011001110101001000000 )
#19770000
b10010011001110010011010110000000 )
#19810000
b10010011100001011000000011000000 )
#19850000
b10010011110100011100110000000000 )
#19890000
b10010100000111100001011101000000 )
#19930000
b10010100011010100110001010000000 )
#19970000
b10010100101101101010110111000000 )
#20010000
b10010101000000101111100100000000 )
#20050000
b10010101010011110100010001000000 )
#20090000
b10010101100110111000111110000000 )
#20130000
b10010101111001111101101011000000 )
#20170000
b10010110001101000010011000000000 )
#20210000
b10010110100000000111000101000000 )
#20250000
b10010110110011001011110010000000 )
#20290000
b10010111000110010000011111000000 )
#20330000
b10010111011001010101001100000000 )
#20370000
b10010111101100011001111001000000 )
#20410000
b10010111111111011110100110000000 )
#20450000
b10011000010010100011010011000000 )
#20490000
b10011000100101101000000000000000 )
#20530000
b10011000111000101100101101000000 )
#20570000
b10011001001011110001011010000000 )
#20610000
b10011001011110110110000111000000 )
#20650000
b10011001110001111010110100000000 )
#20690000
b10011010000100111111100001000000 )
#20730000
b10011010011000000100001110000000 )
#20770000
b10011010101011001000111011000000 )
#20810000
b10011010111110001101101000000000 )
#20850000
b10011011010001010010010101000000 )
#20890000
b10011011100100010111000010000000 )
#20930000
b10011011110111011011101111000000 )
#20970000
b10011100001010100000011100000000 )
#21010000
b10011100011101100101001001000000 )
#21050000
b10011100110000101001110110000000 )
#21090000
b10011101000011101110100011000000 )
#21130000
b10011101010110110011010000000000 )
#21170000
b10011101101001110111111101000000 )
#21210000
b10011101111100111100101010000000 )
#21250000
b10011110010000000001010111000000 )
#21290000
b10011110100011000110000100000000 )
#21330000
b10011110110110001010110001000000 )
#21370000
b10011111001001001111011110000000 )
#21410000
b10011111011100010100001011000000 )
#21450000
b10011111101111011000111000000000 )
#21490000
b10100000000010011101100101000000 )
#21530000
b10100000010101100010010010000000 )
#21570000
b10100000101000100110111111000000 )
#21610000
b10100000111011101011101100000000 )
#21650000
b10100001001110110000011001000000 )
#21690000
b10100001100001110101000110000000 )
#21730000
b10100001110100111001110011000000 )
#21770000
b10100010000111111110100000000000 )
#21810000
b10100010011011000011001101000000 )
#21850000
b10100010101110000111111010000000 )
#21890000
b10100011000001001100100111000000 )
#21930000
b10100011010100010001010100000000 )
#21970000
b10100011100111010110000001000000 )
#22010000
b10100011111010011010101110000000 )
#22050000
b10100100001101011111011011000000 )
#22090000
b10100100100000100100001000000000 )
#22130000
b10100100110011101000110101000000 )
#22170000
b10100101000110101101100010000000 )
#22210000
b10100101011001110010001111000000 )
#22250000
b10100101101100110110111100000000 )
#22290000
b10100101111111111011101001000000 )
#22330000
b10100110010011000000010110000000 )
#22370000
b10100110100110000101000011000000 )
#22410000
b10100110111001001001110000000000 )
#22450000
b10100111001100001110011101000000 )
#22490000
b10100111011111010011001010000000 )
#22530000
b10100111110010010111110111000000 )
#22570000
b10101000000101011100100100000000 )
#22610000
b10101000011000100001010001000000 )
#22650000
b10101000101011100101111110000000 )
#22690000
b10101000111110101010101011000000 )
#22730000
b10101001010001101111011000000000 )
#22770000
b10101001100100110100000101000000 )
#22810000
b10101001110111111000110010000000 )
#22850000
b10101010001010111101011111000000 )
#22890000
b10101010011110000010001100000000 )
#22930000
b10101010110001000110111001000000 )
#22970000
b10101011000100001011100110000000 )
#23010000
b10101011010111010000010011000000 )
#23050000
b10101011101010010101000000000000 )
#23090000
b10101011111101011001101101000000 )
#23130000
b10101100010000011110011010000000 )
#23170000
b10101100100011100011000111000000 )
#23210000
b10101100110110100111110100000000 )
#23250000
b10101101001001101100100001000000 )
#23290000
b10101101011100110001001110000000 )
#23330000
b10101101101111110101111011000000 )
#23370000
b10101110000010111010101000000000 )
#23410000
b10101110010101111111010101000000 )
#23450000
b10101110101001000100000010000000 )
#23490000
b10101110111100001000101111000000 )
#23530000
b10101111001111001101011100000000 )
#23570000
b10101111100010010010001001000000 )
#23610000
b10101111110101010110110110000000 )
#23650000
b10110000001000011011100011000000 )
#23690000
b10110000011011100000010000000000 )
#23730000
b10110000101110100100111101000000 )
#23770000
b10110001000001101001101010000000 )
#23810000
b10110001010100101110010111000000 )
#23850000
b10110001100111110011000100000000 )
#23890000
b10110001111010110111110001000000 )
#23930000
b10110010001101111100011110000000 )
#23970000
b10110010100001000001001011000000 )
#24010000
b10110010110100000101111000000000 )
#24050000
b10110011000111001010100101000000 )
#24090000
b10110011011010001111010010000000 )
#24130000
b10110011101101010011111111000000 )
#24170000
b10110100000000011000101100000000 )
#24210000
b10110100010011011101011001000000 )
#24250000
b10110100100110100010000110000000 )
#24290000
b10110100111001100110110011000000 )
#24330000
b10110101001100101011100000000000 )
#24370000
b10110101011111110000001101000000 )
#24410000
b10110101110010110100111010000000 )
#24450000
b10110110000101111001100111000000 )
#24490000
b10110110011000111110010100000000 )
#24530000
b10110110101100000011000001000000 )
#24570000
b10110110111111000111101110000000 )
#24610000
b10110111010010001100011011000000 )
#24650000
b10110111100101010001001000000000 )
#24690000
b10110111111000010101110101000000 )
#24730000
b10111000001011011010100010000000 )
#24770000
b10111000011110011111001111000000 )
#24810000
b10111000110001100011111100000000 )
#24850000
b10111001000100101000101001000000 )
#24890000
b10111001010111101101010110000000 )
#24930000
b10111001101010110010000011000000 )
#24970000
b10111001111101110110110000000000 )
#25010000
b10111010010000111011011101000000 )
#25050000
b10111010100100000000001010000000 )
#25090000
b10111010110111000100110111000000 )
#25130000
b10111011001010001001100100000000 )
#25170000
b10111011011101001110010001000000 )
#25210000
b10111011110000010010111110000000 )
#25250000
b10111100000011010111101011000000 )
#25290000
b10111100010110011100011000000000 )
#25330000
b10111100101001100001000101000000 )
#25370000
b10111100111100100101110010000000 )
#25410000
b10111101001111101010011111000000 )
#25450000
b10111101100010101111001100000000 )
#25490000
b10111101110101110011111001000000 )
#25530000
b10111110001000111000100110000000 )
#25570000
b10111110011011111101010011000000 )
#25610000
b10111110101111000010000000000000 )
#25650000
b10111111000010000110101101000000 )
#25690000
b10111111010101001011011010000000 )
#25730000
b10111111101000010000000111000000 )
#25770000
b10111111111011010100110100000000 )
#25810000
b11000000001110011001100001000000 )
#25850000
b11000000100001011110001110000000 )
#25890000
b11000000110100100010111011000000 )
#25930000
b11000001000111100111101000000000 )
#25970000
b11000001011010101100010101000000 )
#26010000
b11000001101101110001000010000000 )
#26050000
b11000010000000110101101111000000 )
#26090000
b11000010010011111010011100000000 )
#26130000
b11000010100110111111001001000000 )
#26170000
b11000010111010000011110110000000 )
#26210000
b11000011001101001000100011000000 )
#26250000
b11000011100000001101010000000000 )
#26290000
b11000011110011010001111101000000 )
#26330000
b11000100000110010110101010000000 )
#26370000
b11000100011001011011010111000000 )
#26410000
b11000100101100100000000100000000 )
#26450000
b11000100111111100100110001000000 )
#26490000
b11000101010010101001011110000000 )
#26530000
b11000101100101101110001011000000 )
#26570000
b11000101111000110010111000000000 )
#26610000
b11000110001011110111100101000000 )
#26650000
b11000110011110111100010010000000 )
#26690000
b11000110110010000000111111000000 )
#26730000
b11000111000101000101101100000000 )
#26770000
b11000111011000001010011001000000 )
#26810000
b11000111101011001111000110000000 )
#26850000
b11000111111110010011110011000000 )
#26890000
b11001000010001011000100000000000 )
#26930000
b11001000100100011101001101000000 )
#26970000
b11001000110111100001111010000000 )
#27010000
b11001001001010100110100111000000 )
#27050000
b11001001011101101011010100000000 )
#27090000
b11001001110000110000000001000000 )
#27130000
b11001010000011110100101110000000 )
#27170000
b11001010010110111001011011000000 )
#27210000
b11001010101001111110001000000000 )
#27250000
b11001010111101000010110101000000 )
#27290000
b11001011010000000111100010000000 )
#27330000
b11001011100011001100001111000000 )
#27370000
b11001011110110010000111100000000 )
#27410000
b11001100001001010101101001000000 )
#27450000
b11001100011100011010010110000000 )
#27490000
b11001100101111011111000011000000 )
#27530000
b11001101000010100011110000000000 )
#27570000
b11001101010101101000011101000000 )
#27610000
b11001101101000101101001010000000 )
#27650000
b11001101111011110001110111000000 )
#27690000
b11001110001110110110100100000000 )
#27730000
b11001110100001111011010001000000 )
#27770000
b11001110110100111111111110000000 )
#27810000
b11001111001000000100101011000000 )
#27850000
b11001111011011001001011000000000 )
#27890000
b11001111101110001110000101000000 )
#27930000
b11010000000001010010110010000000 )
#27970000
b11010000010100010111011111000000 )
#28010000
b11010000100111011100001100000000 )
#28050000
b11010000111010100000111001000000 )
#28090000
b11010001001101100101100110000000 )
#28130000
b11010001100000101010010011000000 )
#28170000
b11010001110011101111000000000000 )
#28210000
b11010010000110110011101101000000 )
#28250000
b11010010011001111000011010000000 )
#28290000
b11010010101100111101000111000000 )
#28330000
b11010011000000000001110100000000 )
#28370000
b11010011010011000110100001000000 )
#28410000
b11010011100110001011001110000000 )
#28450000
b11010011111001001111111011000000 )
#28490000
b11010100001100010100101000000000 )
#28530000
b11010100011111011001010101000000 )
#28570000
b11010100110010011110000010000000 )
#28610000
b11010101000101100010101111000000 )
#28650000
b11010101011000100111011100000000 )
#28690000
b11010101101011101100001001000000 )
#28730000
b11010101111110110000110110000000 )
#28770000
b11010110010001110101100011000000 )
