neuron_what/build/sim/raw_results/top_sim.vcd
$date
	Sat Jun  8 17:33:39 2024
$end
$version
	Icarus Verilog
$end
$timescale
	1ps
$end
$scope module top $end
$scope module trace_port_gen_i $end
$var wire 1 ! digital_sel_probe $end
$upscope $end
$upscope $end
$scope module top $end
$scope module trace_port_gen_i $end
$var wire 25 " i_in_probe [24:0] $end
$upscope $end
$upscope $end
$scope module top $end
$scope module trace_port_gen_i $end
$var wire 25 # v_out_probe [24:0] $end
$upscope $end
$upscope $end
$scope module top $end
$scope module trace_port_gen_i $end
$var wire 25 $ v_out_exp_probe [24:0] $end
$upscope $end
$upscope $end
$scope module top $end
$scope module trace_port_gen_i $end
$var wire 25 % v_out_lin_probe [24:0] $end
$upscope $end
$upscope $end
$scope module top $end
$scope module trace_port_gen_i $end
$var wire 25 & v_out_i_probe [24:0] $end
$upscope $end
$upscope $end
$scope module top $end
$scope module trace_port_gen_i $end
$var wire 25 ' v_out_i_mult_probe [24:0] $end
$upscope $end
$upscope $end
$scope module top $end
$scope module trace_port_gen_i $end
$var wire 25 ( dv_out_probe [24:0] $end
$upscope $end
$upscope $end
$scope module top $end
$scope module trace_port_gen_i $end
$var wire 64 ) emu_time [63:0] $end
$upscope $end
$upscope $end
$scope module top $end
$scope module trace_port_gen_i $end
$var wire 1 * emu_dec_cmp $end
$upscope $end
$upscope $end
$enddefinitions $end
#0
$dumpvars
x*
bx )
bz (
b10100000000000000000000 '
bz &
bz %
bz $
bx #
b100000000000000000000000 "
z!
$end
#10000
1*
b0 )
b10100000000000000000000 #
#50000
b11010100101001010001000000000000 )
#90000
b110101001010010100010000000000000 )
#130000
b1001111101111011110011000000000000 )
#170000
b1101010010100101000100000000000000 )
#210000
b10000100111001110010101000000000000 )
#250000
b10011111011110111100110000000000000 )
#290000
b10111010000100000110111000000000000 )
#330000
b11010100101001010001000000000000000 )
#370000
b11101111001110011011001000000000000 )
#410000
b100001001110011100101010000000000000 )
#450000
b100100100011000101111011000000000000 )
#490000
b100111110111101111001100000000000000 )
#530000
b101011001100011000011101000000000000 )
#570000
b101110100001000001101110000000000000 )
#610000
b110001110101101010111111000000000000 )
#650000
b110101001010010100010000000000000000 )
#690000
b111000011110111101100001000000000000 )
#730000
b111011110011100110110010000000000000 )
#770000
b111111001000010000000011000000000000 )
#810000
b1000010011100111001010100000000000000 )
#850000
b1000101110001100010100101000000000000 )
#890000
b1001001000110001011110110000000000000 )
#930000
b1001100011010110101000111000000000000 )
#970000
b1001111101111011110011000000000000000 )
#1010000
b1010011000100000111101001000000000000 )
#1050000
b1010110011000110000111010000000000000 )
#1090000
b1011001101101011010001011000000000000 )
#1130000
b1011101000010000011011100000000000000 )
#1170000
b1100000010110101100101101000000000000 )
#1210000
b1100011101011010101111110000000000000 )
#1250000
b1100110111111111111001111000000000000 )
#1290000
b1101010010100101000100000000000000000 )
#1330000
b1101101101001010001110001000000000000 )
#1370000
b1110000111101111011000010000000000000 )
#1410000
b1110100010010100100010011000000000000 )
#1450000
b1110111100111001101100100000000000000 )
#1490000
b1111010111011110110110101000000000000 )
#1530000
b1111110010000100000000110000000000000 )
#1570000
b10000001100101001001010111000000000000 )
#1610000
b10000100111001110010101000000000000000 )
#1650000
b10001000001110011011111001000000000000 )
#1690000
b10001011100011000101001010000000000000 )
#1730000
b10001110110111101110011011000000000000 )
#1770000
b10010010001100010111101100000000000000 )
#1810000
b10010101100001000000111101000000000000 )
#1850000
b10011000110101101010001110000000000000 )
#1890000
b10011100001010010011011111000000000000 )
#1930000
b10011111011110111100110000000000000000 )
#1970000
b10100010110011100110000001000000000000 )
#2010000
b10100110001000001111010010000000000000 )
#2050000
b10101001011100111000100011000000000000 )
#2090000
b10101100110001100001110100000000000000 )
#2130000
b10110000000110001011000101000000000000 )
#2170000
b10110011011010110100010110000000000000 )
#2210000
b10110110101111011101100111000000000000 )
#2250000
b10111010000100000110111000000000000000 )
#2290000
b10111101011000110000001001000000000000 )
#2330000
b11000000101101011001011010000000000000 )
#2370000
b11000100000010000010101011000000000000 )
#2410000
b11000111010110101011111100000000000000 )
#2450000
b11001010101011010101001101000000000000 )
#2490000
b11001101111111111110011110000000000000 )
#2530000
b11010001010100100111101111000000000000 )
#2570000
b11010100101001010001000000000000000000 )
#2610000
b11010111111101111010010001000000000000 )
#2650000
b11011011010010100011100010000000000000 )
#2690000
b11011110100111001100110011000000000000 )
#2730000
b11100001111011110110000100000000000000 )
#2770000
b11100101010000011111010101000000000000 )
#2810000
b11101000100101001000100110000000000000 )
#2850000
b11101011111001110001110111000000000000 )
#2890000
b11101111001110011011001000000000000000 )
#2930000
b11110010100011000100011001000000000000 )
#2970000
b11110101110111101101101010000000000000 )
#3010000
b11111001001100010110111011000000000000 )
#3050000
b11111100100001000000001100000000000000 )
#3090000
b11111111110101101001011101000000000000 )
#3130000
b100000011001010010010101110000000000000 )
#3170000
b100000110011110111011111111000000000000 )
#3210000
b100001001110011100101010000000000000000 )
#3250000
b100001101001000001110100001000000000000 )
#3290000
b100010000011100110111110010000000000000 )
#3330000
b100010011110001100001000011000000000000 )
#3370000
b100010111000110001010010100000000000000 )
#3410000
b100011010011010110011100101000000000000 )
#3450000
b100011101101111011100110110000000000000 )
#3490000
b100100001000100000110000111000000000000 )
#3530000
b100100100011000101111011000000000000000 )
#3570000
b100100111101101011000101001000000000000 )
#3610000
b100101011000010000001111010000000000000 )
#3650000
b100101110010110101011001011000000000000 )
#3690000
b100110001101011010100011100000000000000 )
#3730000
b100110100111111111101101101000000000000 )
#3770000
b100111000010100100110111110000000000000 )
#3810000
b100111011101001010000001111000000000000 )
#3850000
b100111110111101111001100000000000000000 )
#3890000
b101000010010010100010110001000000000000 )
#3930000
b101000101100111001100000010000000000000 )
#3970000
b101001000111011110101010011000000000000 )
#4010000
b101001100010000011110100100000000000000 )
#4050000
b101001111100101000111110101000000000000 )
#4090000
b101010010111001110001000110000000000000 )
#4130000
b101010110001110011010010111000000000000 )
#4170000
b101011001100011000011101000000000000000 )
#4210000
b101011100110111101100111001000000000000 )
#4250000
b101100000001100010110001010000000000000 )
#4290000
b101100011100000111111011011000000000000 )
#4330000
b101100110110101101000101100000000000000 )
#4370000
b101101010001010010001111101000000000000 )
#4410000
b101101101011110111011001110000000000000 )
#4450000
b101110000110011100100011111000000000000 )
#4490000
b101110100001000001101110000000000000000 )
#4530000
b101110111011100110111000001000000000000 )
#4570000
b101111010110001100000010010000000000000 )
#4610000
b101111110000110001001100011000000000000 )
#4650000
b110000001011010110010110100000000000000 )
#4690000
b110000100101111011100000101000000000000 )
#4730000
b110001000000100000101010110000000000000 )
#4770000
b110001011011000101110100111000000000000 )
#4810000
b110001110101101010111111000000000000000 )
#4850000
b110010010000010000001001001000000000000 )
#4890000
b110010101010110101010011010000000000000 )
#4930000
b110011000101011010011101011000000000000 )
#4970000
b110011011111111111100111100000000000000 )
#5010000
b110011111010100100110001101000000000000 )
#5050000
b110100010101001001111011110000000000000 )
#5090000
b110100101111101111000101111000000000000 )
#5130000
b110101001010010100010000000000000000000 )
#5170000
b110101100100111001011010001000000000000 )
#5210000
b110101111111011110100100010000000000000 )
#5250000
b110110011010000011101110011000000000000 )
#5290000
b110110110100101000111000100000000000000 )
#5330000
b110111001111001110000010101000000000000 )
#5370000
b110111101001110011001100110000000000000 )
#5410000
b111000000100011000010110111000000000000 )
#5450000
b111000011110111101100001000000000000000 )
#5490000
b111000111001100010101011001000000000000 )
#5530000
b111001010100000111110101010000000000000 )
#5570000
b111001101110101100111111011000000000000 )
#5610000
b111010001001010010001001100000000000000 )
#5650000
b111010100011110111010011101000000000000 )
#5690000
b111010111110011100011101110000000000000 )
#5730000
b111011011001000001100111111000000000000 )
#5770000
b111011110011100110110010000000000000000 )
#5810000
b111100001110001011111100001000000000000 )
#5850000
b111100101000110001000110010000000000000 )
#5890000
b111101000011010110010000011000000000000 )
#5930000
b111101011101111011011010100000000000000 )
#5970000
b111101111000100000100100101000000000000 )
#6010000
b111110010011000101101110110000000000000 )
#6050000
b111110101101101010111000111000000000000 )
#6090000
b111111001000010000000011000000000000000 )
#6130000
b111111100010110101001101001000000000000 )
#6170000
b111111111101011010010111010000000000000 )
#6210000
b1000000010111111111100001011000000000000 )
#6250000
b1000000110010100100101011100000000000000 )
#6290000
b1000001001101001001110101101000000000000 )
#6330000
b1000001100111101110111111110000000000000 )
#6370000
b1000010000010010100001001111000000000000 )
#6410000
b1000010011100111001010100000000000000000 )
#6450000
b1000010110111011110011110001000000000000 )
#6490000
b1000011010010000011101000010000000000000 )
#6530000
b1000011101100101000110010011000000000000 )
#6570000
b1000100000111001101111100100000000000000 )
#6610000
b1000100100001110011000110101000000000000 )
#6650000
b1000100111100011000010000110000000000000 )
#6690000
b1000101010110111101011010111000000000000 )
#6730000
b1000101110001100010100101000000000000000 )
#6770000
b1000110001100000111101111001000000000000 )
#6810000
b1000110100110101100111001010000000000000 )
#6850000
b1000111000001010010000011011000000000000 )
#6890000
b1000111011011110111001101100000000000000 )
#6930000
b1000111110110011100010111101000000000000 )
#6970000
b1001000010001000001100001110000000000000 )
#7010000
b1001000101011100110101011111000000000000 )
#7050000
b1001001000110001011110110000000000000000 )
#7090000
b1001001100000110001000000001000000000000 )
#7130000
b1001001111011010110001010010000000000000 )
#7170000
b1001010010101111011010100011000000000000 )
#7210000
b1001010110000100000011110100000000000000 )
#7250000
b1001011001011000101101000101000000000000 )
#7290000
b1001011100101101010110010110000000000000 )
#7330000
b1001100000000001111111100111000000000000 )
#7370000
b1001100011010110101000111000000000000000 )
#7410000
b1001100110101011010010001001000000000000 )
#7450000
b1001101001111111111011011010000000000000 )
#7490000
b1001101101010100100100101011000000000000 )
#7530000
b1001110000101001001101111100000000000000 )
#7570000
b1001110011111101110111001101000000000000 )
#7610000
b1001110111010010100000011110000000000000 )
#7650000
b1001111010100111001001101111000000000000 )
#7690000
b1001111101111011110011000000000000000000 )
#7730000
b1010000001010000011100010001000000000000 )
#7770000
b1010000100100101000101100010000000000000 )
#7810000
b1010000111111001101110110011000000000000 )
#7850000
b1010001011001110011000000100000000000000 )
#7890000
b1010001110100011000001010101000000000000 )
#7930000
b1010010001110111101010100110000000000000 )
#7970000
b1010010101001100010011110111000000000000 )
#8010000
b1010011000100000111101001000000000000000 )
#8050000
b1010011011110101100110011001000000000000 )
#8090000
b1010011111001010001111101010000000000000 )
#8130000
b1010100010011110111000111011000000000000 )
#8170000
b1010100101110011100010001100000000000000 )
#8210000
b1010101001001000001011011101000000000000 )
#8250000
b1010101100011100110100101110000000000000 )
#8290000
b1010101111110001011101111111000000000000 )
#8330000
b1010110011000110000111010000000000000000 )
#8370000
b1010110110011010110000100001000000000000 )
#8410000
b1010111001101111011001110010000000000000 )
#8450000
b1010111101000100000011000011000000000000 )
#8490000
b1011000000011000101100010100000000000000 )
#8530000
b1011000011101101010101100101000000000000 )
#8570000
b1011000111000001111110110110000000000000 )
#8610000
b1011001010010110101000000111000000000000 )
#8650000
b1011001101101011010001011000000000000000 )
#8690000
b1011010000111111111010101001000000000000 )
#8730000
b1011010100010100100011111010000000000000 )
#8770000
b1011010111101001001101001011000000000000 )
#8810000
b1011011010111101110110011100000000000000 )
#8850000
b1011011110010010011111101101000000000000 )
#8890000
b1011100001100111001000111110000000000000 )
#8930000
b1011100100111011110010001111000000000000 )
#8970000
b1011101000010000011011100000000000000000 )
#9010000
b1011101011100101000100110001000000000000 )
#9050000
b1011101110111001101110000010000000000000 )
#9090000
b1011110010001110010111010011000000000000 )
#9130000
b1011110101100011000000100100000000000000 )
#9170000
b1011111000110111101001110101000000000000 )
#9210000
b1011111100001100010011000110000000000000 )
#9250000
b1011111111100000111100010111000000000000 )
#9290000
b1100000010110101100101101000000000000000 )
#9330000
b1100000110001010001110111001000000000000 )
#9370000
b1100001001011110111000001010000000000000 )
#9410000
b1100001100110011100001011011000000000000 )
#9450000
b1100010000001000001010101100000000000000 )
#9490000
b1100010011011100110011111101000000000000 )
#9530000
b1100010110110001011101001110000000000000 )
#9570000
b1100011010000110000110011111000000000000 )
#9610000
b1100011101011010101111110000000000000000 )
#9650000
b1100100000101111011001000001000000000000 )
#9690000
b1100100100000100000010010010000000000000 )
#9730000
b1100100111011000101011100011000000000000 )
#9770000
b1100101010101101010100110100000000000000 )
#9810000
b1100101110000001111110000101000000000000 )
#9850000
b1100110001010110100111010110000000000000 )
#9890000
b1100110100101011010000100111000000000000 )
#9930000
b1100110111111111111001111000000000000000 )
#9970000
b1100111011010100100011001001000000000000 )
#10010000
b1100111110101001001100011010000000000000 )
#10050000
b1101000001111101110101101011000000000000 )
#10090000
b1101000101010010011110111100000000000000 )
#10130000
b1101001000100111001000001101000000000000 )
#10170000
b1101001011111011110001011110000000000000 )
#10210000
b1101001111010000011010101111000000000000 )
#10250000
b1101010010100101000100000000000000000000 )
#10290000
b1101010101111001101101010001000000000000 )
#10330000
b1101011001001110010110100010000000000000 )
#10370000
b1101011100100010111111110011000000000000 )
#10410000
b1101011111110111101001000100000000000000 )
#10450000
b1101100011001100010010010101000000000000 )
#10490000
b1101100110100000111011100110000000000000 )
#10530000
b1101101001110101100100110111000000000000 )
#10570000
b1101101101001010001110001000000000000000 )
#10610000
b1101110000011110110111011001000000000000 )
#10650000
b1101110011110011100000101010000000000000 )
#10690000
b1101110111001000001001111011000000000000 )
#10730000
b1101111010011100110011001100000000000000 )
#10770000
b1101111101110001011100011101000000000000 )
#10810000
b1110000001000110000101101110000000000000 )
#10850000
b1110000100011010101110111111000000000000 )
#10890000
b1110000111101111011000010000000000000000 )
#10930000
b1110001011000100000001100001000000000000 )
#10970000
b1110001110011000101010110010000000000000 )
#11010000
b1110010001101101010100000011000000000000 )
#11050000
b1110010101000001111101010100000000000000 )
#11090000
b1110011000010110100110100101000000000000 )
#11130000
b1110011011101011001111110110000000000000 )
#11170000
b1110011110111111111001000111000000000000 )
#11210000
b1110100010010100100010011000000000000000 )
#11250000
b1110100101101001001011101001000000000000 )
#11290000
b1110101000111101110100111010000000000000 )
#11330000
b1110101100010010011110001011000000000000 )
#11370000
b1110101111100111000111011100000000000000 )
#11410000
b1110110010111011110000101101000000000000 )
#11450000
b1110110110010000011001111110000000000000 )
#11490000
b1110111001100101000011001111000000000000 )
#11530000
b1110111100111001101100100000000000000000 )
#11570000
b1111000000001110010101110001000000000000 )
#11610000
b1111000011100010111111000010000000000000 )
#11650000
b1111000110110111101000010011000000000000 )
#11690000
b1111001010001100010001100100000000000000 )
#11730000
b1111001101100000111010110101000000000000 )
#11770000
b1111010000110101100100000110000000000000 )
#11810000
b1111010100001010001101010111000000000000 )
#11850000
b1111010111011110110110101000000000000000 )
#11890000
b1111011010110011011111111001000000000000 )
#11930000
b1111011110001000001001001010000000000000 )
#11970000
b1111100001011100110010011011000000000000 )
#12010000
b1111100100110001011011101100000000000000 )
#12050000
b1111101000000110000100111101000000000000 )
#12090000
b1111101011011010101110001110000000000000 )
#12130000
b1111101110101111010111011111000000000000 )
#12170000
b1111110010000100000000110000000000000000 )
#12210000
b1111110101011000101010000001000000000000 )
#12250000
b1111111000101101010011010010000000000000 )
#12290000
b1111111100000001111100100011000000000000 )
#12330000
b1111111111010110100101110100000000000000 )
#12370000
b10000000010101011001111000101000000000000 )
#12410000
b10000000101111111111000010110000000000000 )
#12450000
b10000001001010100100001100111000000000000 )
#12490000
b10000001100101001001010111000000000000000 )
#12530000
b10000001111111101110100001001000000000000 )
#12570000
b10000010011010010011101011010000000000000 )
#12610000
b10000010110100111000110101011000000000000 )
#12650000
b10000011001111011101111111100000000000000 )
#12690000
b10000011101010000011001001101000000000000 )
#12730000
b10000100000100101000010011110000000000000 )
#12770000
b10000100011111001101011101111000000000000 )
#12810000
b10000100111001110010101000000000000000000 )
#12850000
b10000101010100010111110010001000000000000 )
#12890000
b10000101101110111100111100010000000000000 )
#12930000
b10000110001001100010000110011000000000000 )
#12970000
b10000110100100000111010000100000000000000 )
#13010000
b10000110111110101100011010101000000000000 )
#13050000
b10000111011001010001100100110000000000000 )
#13090000
b10000111110011110110101110111000000000000 )
#13130000
b10001000001110011011111001000000000000000 )
#13170000
b10001000101001000001000011001000000000000 )
#13210000
b10001001000011100110001101010000000000000 )
#13250000
b10001001011110001011010111011000000000000 )
#13290000
b10001001111000110000100001100000000000000 )
#13330000
b10001010010011010101101011101000000000000 )
#13370000
b10001010101101111010110101110000000000000 )
#13410000
b10001011001000011111111111111000000000000 )
#13450000
b10001011100011000101001010000000000000000 )
#13490000
b10001011111101101010010100001000000000000 )
#13530000
b10001100011000001111011110010000000000000 )
#13570000
b10001100110010110100101000011000000000000 )
#13610000
b10001101001101011001110010100000000000000 )
#13650000
b10001101100111111110111100101000000000000 )
#13690000
b10001110000010100100000110110000000000000 )
#13730000
b10001110011101001001010000111000000000000 )
#13770000
b10001110110111101110011011000000000000000 )
#13810000
b10001111010010010011100101001000000000000 )
#13850000
b10001111101100111000101111010000000000000 )
#13890000
b10010000000111011101111001011000000000000 )
#13930000
b10010000100010000011000011100000000000000 )
#13970000
b10010000111100101000001101101000000000000 )
#14010000
b10010001010111001101010111110000000000000 )
#14050000
b10010001110001110010100001111000000000000 )
#14090000
b10010010001100010111101100000000000000000 )
#14130000
b10010010100110111100110110001000000000000 )
#14170000
b10010011000001100010000000010000000000000 )
#14210000
b10010011011100000111001010011000000000000 )
#14250000
b10010011110110101100010100100000000000000 )
#14290000
b10010100010001010001011110101000000000000 )
#14330000
b10010100101011110110101000110000000000000 )
#14370000
b10010101000110011011110010111000000000000 )
#14410000
b10010101100001000000111101000000000000000 )
#14450000
b10010101111011100110000111001000000000000 )
#14490000
b10010110010110001011010001010000000000000 )
#14530000
b10010110110000110000011011011000000000000 )
#14570000
b10010111001011010101100101100000000000000 )
#14610000
b10010111100101111010101111101000000000000 )
#14650000
b10011000000000011111111001110000000000000 )
#14690000
b10011000011011000101000011111000000000000 )
#14730000
b10011000110101101010001110000000000000000 )
#14770000
b10011001010000001111011000001000000000000 )
#14810000
b10011001101010110100100010010000000000000 )
#14850000
b10011010000101011001101100011000000000000 )
#14890000
b10011010011111111110110110100000000000000 )
#14930000
b10011010111010100100000000101000000000000 )
#14970000
b10011011010101001001001010110000000000000 )
#15010000
b10011011101111101110010100111000000000000 )
#15050000
b10011100001010010011011111000000000000000 )
#15090000
b10011100100100111000101001001000000000000 )
#15130000
b10011100111111011101110011010000000000000 )
#15170000
b10011101011010000010111101011000000000000 )
#15210000
b10011101110100101000000111100000000000000 )
#15250000
b10011110001111001101010001101000000000000 )
#15290000
b10011110101001110010011011110000000000000 )
#15330000
b10011111000100010111100101111000000000000 )
#15370000
b10011111011110111100110000000000000000000 )
#15410000
b10011111111001100001111010001000000000000 )
#15450000
b10100000010100000111000100010000000000000 )
#15490000
b10100000101110101100001110011000000000000 )
#15530000
b10100001001001010001011000100000000000000 )
#15570000
b10100001100011110110100010101000000000000 )
#15610000
b10100001111110011011101100110000000000000 )
#15650000
b10100010011001000000110110111000000000000 )
#15690000
b10100010110011100110000001000000000000000 )
#15730000
b10100011001110001011001011001000000000000 )
#15770000
b10100011101000110000010101010000000000000 )
#15810000
b10100100000011010101011111011000000000000 )
#15850000
b10100100011101111010101001100000000000000 )
#15890000
b10100100111000011111110011101000000000000 )
#15930000
b10100101010011000100111101110000000000000 )
#15970000
b10100101101101101010000111111000000000000 )
#16010000
b10100110001000001111010010000000000000000 )
#16050000
b10100110100010110100011100001000000000000 )
#16090000
b10100110111101011001100110010000000000000 )
#16130000
b10100111010111111110110000011000000000000 )
#16170000
b10100111110010100011111010100000000000000 )
#16210000
b10101000001101001001000100101000000000000 )
#16250000
b10101000100111101110001110110000000000000 )
#16290000
b10101001000010010011011000111000000000000 )
#16330000
b10101001011100111000100011000000000000000 )
#16370000
b10101001110111011101101101001000000000000 )
#16410000
b10101010010010000010110111010000000000000 )
#16450000
b10101010101100101000000001011000000000000 )
#16490000
b10101011000111001101001011100000000000000 )
#16530000
b10101011100001110010010101101000000000000 )
#16570000
b10101011111100010111011111110000000000000 )
#16610000
b10101100010110111100101001111000000000000 )
#16650000
b10101100110001100001110100000000000000000 )
#16690000
b10101101001100000110111110001000000000000 )
#16730000
b10101101100110101100001000010000000000000 )
#16770000
b10101110000001010001010010011000000000000 )
#16810000
b10101110011011110110011100100000000000000 )
#16850000
b10101110110110011011100110101000000000000 )
#16890000
b10101111010001000000110000110000000000000 )
#16930000
b10101111101011100101111010111000000000000 )
#16970000
b10110000000110001011000101000000000000000 )
#17010000
b10110000100000110000001111001000000000000 )
#17050000
b10110000111011010101011001010000000000000 )
#17090000
b10110001010101111010100011011000000000000 )
#17130000
b10110001110000011111101101100000000000000 )
#17170000
b10110010001011000100110111101000000000000 )
#17210000
b10110010100101101010000001110000000000000 )
#17250000
b10110011000000001111001011111000000000000 )
#17290000
b10110011011010110100010110000000000000000 )
#17330000
b10110011110101011001100000001000000000000 )
#17370000
b10110100001111111110101010010000000000000 )
#17410000
b10110100101010100011110100011000000000000 )
#17450000
b10110101000101001000111110100000000000000 )
#17490000
b10110101011111101110001000101000000000000 )
#17530000
b10110101111010010011010010110000000000000 )
#17570000
b10110110010100111000011100111000000000000 )
#17610000
b10110110101111011101100111000000000000000 )
#17650000
b10110111001010000010110001001000000000000 )
#17690000
b10110111100100100111111011010000000000000 )
#17730000
b10110111111111001101000101011000000000000 )
#17770000
b10111000011001110010001111100000000000000 )
#17810000
b10111000110100010111011001101000000000000 )
#17850000
b10111001001110111100100011110000000000000 )
#17890000
b10111001101001100001101101111000000000000 )
#17930000
b10111010000100000110111000000000000000000 )
#17970000
b10111010011110101100000010001000000000000 )
#18010000
b10111010111001010001001100010000000000000 )
#18050000
b10111011010011110110010110011000000000000 )
#18090000
b10111011101110011011100000100000000000000 )
#18130000
b10111100001001000000101010101000000000000 )
#18170000
b10111100100011100101110100110000000000000 )
#18210000
b10111100111110001010111110111000000000000 )
#18250000
b10111101011000110000001001000000000000000 )
#18290000
b10111101110011010101010011001000000000000 )
#18330000
b10111110001101111010011101010000000000000 )
#18370000
b10111110101000011111100111011000000000000 )
#18410000
b10111111000011000100110001100000000000000 )
#18450000
b10111111011101101001111011101000000000000 )
#18490000
b10111111111000001111000101110000000000000 )
#18530000
b11000000010010110100001111111000000000000 )
#18570000
b11000000101101011001011010000000000000000 )
#18610000
b11000001000111111110100100001000000000000 )
#18650000
b11000001100010100011101110010000000000000 )
#18690000
b11000001111101001000111000011000000000000 )
#18730000
b11000010010111101110000010100000000000000 )
#18770000
b11000010110010010011001100101000000000000 )
#18810000
b11000011001100111000010110110000000000000 )
#18850000
b11000011100111011101100000111000000000000 )
#18890000
b11000100000010000010101011000000000000000 )
#18930000
b11000100011100100111110101001000000000000 )
#18970000
b11000100110111001100111111010000000000000 )
#19010000
b11000101010001110010001001011000000000000 )
#19050000
b11000101101100010111010011100000000000000 )
#19090000
b11000110000110111100011101101000000000000 )
#19130000
b11000110100001100001100111110000000000000 )
#19170000
b11000110111100000110110001111000000000000 )
#19210000
b11000111010110101011111100000000000000000 )
#19250000
b11000111110001010001000110001000000000000 )
#19290000
b11001000001011110110010000010000000000000 )
#19330000
b11001000100110011011011010011000000000000 )
#19370000
b11001001000001000000100100100000000000000 )
#19410000
b11001001011011100101101110101000000000000 )
#19450000
b11001001110110001010111000110000000000000 )
#19490000
b11001010010000110000000010111000000000000 )
#19530000
b11001010101011010101001101000000000000000 )
#19570000
b11001011000101111010010111001000000000000 )
#19610000
b11001011100000011111100001010000000000000 )
#19650000
b11001011111011000100101011011000000000000 )
#19690000
b11001100010101101001110101100000000000000 )
#19730000
b11001100110000001110111111101000000000000 )
#19770000
b11001101001010110100001001110000000000000 )
#19810000
b11001101100101011001010011111000000000000 )
#19850000
b11001101111111111110011110000000000000000 )
#19890000
b11001110011010100011101000001000000000000 )
#19930000
b11001110110101001000110010010000000000000 )
#19970000
b11001111001111101101111100011000000000000 )
#20010000
b11001111101010010011000110100000000000000 )
#20050000
b11010000000100111000010000101000000000000 )
#20090000
b11010000011111011101011010110000000000000 )
#20130000
b11010000111010000010100100111000000000000 )
#20170000
b11010001010100100111101111000000000000000 )
#20210000
b11010001101111001100111001001000000000000 )
#20250000
b11010010001001110010000011010000000000000 )
#20290000
b11010010100100010111001101011000000000000 )
#20330000
b11010010111110111100010111100000000000000 )
#20370000
b11010011011001100001100001101000000000000 )
#20410000
b11010011110100000110101011110000000000000 )
#20450000
b11010100001110101011110101111000000000000 )
#20490000
b11010100101001010001000000000000000000000 )
#20530000
b11010101000011110110001010001000000000000 )
#20570000
b11010101011110011011010100010000000000000 )
#20610000
b11010101111001000000011110011000000000000 )
#20650000
b11010110010011100101101000100000000000000 )
#20690000
b11010110101110001010110010101000000000000 )
#20730000
b11010111001000101111111100110000000000000 )
#20770000
b11010111100011010101000110111000000000000 )
#20810000
b11010111111101111010010001000000000000000 )
#20850000
b11011000011000011111011011001000000000000 )
#20890000
b11011000110011000100100101010000000000000 )
#20930000
b11011001001101101001101111011000000000000 )
#20970000
b11011001101000001110111001100000000000000 )
#21010000
b11011010000010110100000011101000000000000 )
#21050000
b11011010011101011001001101110000000000000 )
#21090000
b11011010110111111110010111111000000000000 )
#21130000
b11011011010010100011100010000000000000000 )
#21170000
b11011011101101001000101100001000000000000 )
#21210000
b11011100000111101101110110010000000000000 )
#21250000
b11011100100010010011000000011000000000000 )
#21290000
b11011100111100111000001010100000000000000 )
#21330000
b11011101010111011101010100101000000000000 )
#21370000
b11011101110010000010011110110000000000000 )
#21410000
b11011110001100100111101000111000000000000 )
#21450000
b11011110100111001100110011000000000000000 )
#21490000
b11011111000001110001111101001000000000000 )
#21530000
b11011111011100010111000111010000000000000 )
#21570000
b11011111110110111100010001011000000000000 )
#21610000
b11100000010001100001011011100000000000000 )
#21650000
b11100000101100000110100101101000000000000 )
#21690000
b11100001000110101011101111110000000000000 )
#21730000
b11100001100001010000111001111000000000000 )
#21770000
b11100001111011110110000100000000000000000 )
#21810000
b11100010010110011011001110001000000000000 )
#21850000
b11100010110001000000011000010000000000000 )
#21890000
b11100011001011100101100010011000000000000 )
#21930000
b11100011100110001010101100100000000000000 )
#21970000
b11100100000000101111110110101000000000000 )
#22010000
b11100100011011010101000000110000000000000 )
#22050000
b11100100110101111010001010111000000000000 )
#22090000
b11100101010000011111010101000000000000000 )
#22130000
b11100101101011000100011111001000000000000 )
#22170000
b11100110000101101001101001010000000000000 )
#22210000
b11100110100000001110110011011000000000000 )
#22250000
b11100110111010110011111101100000000000000 )
#22290000
b11100111010101011001000111101000000000000 )
#22330000
b11100111101111111110010001110000000000000 )
#22370000
b11101000001010100011011011111000000000000 )
#22410000
b11101000100101001000100110000000000000000 )
#22450000
b11101000111111101101110000001000000000000 )
#22490000
b11101001011010010010111010010000000000000 )
#22530000
b11101001110100111000000100011000000000000 )
#22570000
b11101010001111011101001110100000000000000 )
#22610000
b11101010101010000010011000101000000000000 )
#22650000
b11101011000100100111100010110000000000000 )
#22690000
b11101011011111001100101100111000000000000 )
#22730000
b11101011111001110001110111000000000000000 )
#22770000
b11101100010100010111000001001000000000000 )
#22810000
b11101100101110111100001011010000000000000 )
#22850000
b11101101001001100001010101011000000000000 )
#22890000
b11101101100100000110011111100000000000000 )
#22930000
b11101101111110101011101001101000000000000 )
#22970000
b11101110011001010000110011110000000000000 )
#23010000
b11101110110011110101111101111000000000000 )
#23050000
b11101111001110011011001000000000000000000 )
#23090000
b11101111101001000000010010001000000000000 )
#23130000
b11110000000011100101011100010000000000000 )
#23170000
b11110000011110001010100110011000000000000 )
#23210000
b11110000111000101111110000100000000000000 )
#23250000
b11110001010011010100111010101000000000000 )
#23290000
b11110001101101111010000100110000000000000 )
#23330000
b11110010001000011111001110111000000000000 )
#23370000
b11110010100011000100011001000000000000000 )
#23410000
b11110010111101101001100011001000000000000 )
#23450000
b11110011011000001110101101010000000000000 )
#23490000
b11110011110010110011110111011000000000000 )
#23530000
b11110100001101011001000001100000000000000 )
#23570000
b11110100100111111110001011101000000000000 )
#23610000
b11110101000010100011010101110000000000000 )
#23650000
b11110101011101001000011111111000000000000 )
#23690000
b11110101110111101101101010000000000000000 )
#23730000
b11110110010010010010110100001000000000000 )
#23770000
b11110110101100110111111110010000000000000 )
#23810000
b11110111000111011101001000011000000000000 )
#23850000
b11110111100010000010010010100000000000000 )
#23890000
b11110111111100100111011100101000000000000 )
#23930000
b11111000010111001100100110110000000000000 )
#23970000
b11111000110001110001110000111000000000000 )
#24010000
b11111001001100010110111011000000000000000 )
#24050000
b11111001100110111100000101001000000000000 )
#24090000
b11111010000001100001001111010000000000000 )
#24130000
b11111010011100000110011001011000000000000 )
#24170000
b11111010110110101011100011100000000000000 )
#24210000
b11111011010001010000101101101000000000000 )
#24250000
b11111011101011110101110111110000000000000 )
#24290000
b11111100000110011011000001111000000000000 )
#24330000
b11111100100001000000001100000000000000000 )
#24370000
b11111100111011100101010110001000000000000 )
#24410000
b11111101010110001010100000010000000000000 )
#24450000
b11111101110000101111101010011000000000000 )
#24490000
b11111110001011010100110100100000000000000 )
#24530000
b11111110100101111001111110101000000000000 )
#24570000
b11111111000000011111001000110000000000000 )
#24610000
b11111111011011000100010010111000000000000 )
#24650000
b11111111110101101001011101000000000000000 )
#24690000
b100000000010000001110100111001000000000000 )
#24730000
b100000000101010110011110001010000000000000 )
#24770000
b100000001000101011000111011011000000000000 )
#24810000
b100000001011111111110000101100000000000000 )
#24850000
b100000001111010100011001111101000000000000 )
#24890000
b100000010010101001000011001110000000000000 )
#24930000
b100000010101111101101100011111000000000000 )
#24970000
b100000011001010010010101110000000000000000 )
#25010000
b100000011100100110111111000001000000000000 )
#25050000
b100000011111111011101000010010000000000000 )
